Place,Name,BirthYear,Country,BodyweightKg,Bench1Kg,Bench2Kg,Bench3Kg,Best3BenchKg,TotalKg,WeightClassKg,Division,Event,Sex,Equipment
1,Justyna Kozdryk,1980,POL,43.7,92.5,96,98,98,98,47,Open,B,F,Raw
2,Emelie Elvegård,1995,SWE,46.44,82.5,85,87.5,87.5,87.5,47,Open,B,F,Raw
3,Tetiana Shchavinska,1996,UKR,46.3,82.5,-85,-85,82.5,82.5,47,Open,B,F,Raw
4,Stéphanie Legard,1981,FRA,46.93,70,75,-80,75,75,47,Open,B,F,Raw
5,Jasmine Lake,1980,GBR,45.24,55,57.5,62.5,62.5,62.5,47,Open,B,F,Raw
1,Monika Nyers,1978,HUN,50.07,87.5,97.5,100,100,100,52,Open,B,F,Raw
2,Sophia Waldemarson,1988,SWE,50.73,97.5,100,-102.5,100,100,52,Open,B,F,Raw
3,Loida Zabala Ollero,1987,ESP,49.29,95,97.5,-100,97.5,97.5,52,Open,B,F,Raw
4,Dalida Mari,1987,ITA,51.94,77.5,80,-82.5,80,80,52,Open,B,F,Raw
5,Emma Rafferty,1993,GBR,50.74,72.5,-77.5,-80,72.5,72.5,52,Open,B,F,Raw
1,Donna Berglund,1997,SWE,56.81,100,105,110,110,110,57,Open,B,F,Raw
2,Natalia Prymachenka,1987,BLR,56.31,102.5,107.5,-110,107.5,107.5,57,Open,B,F,Raw
3,Karolina Arvidson,1985,SWE,56.91,100,102.5,107.5,107.5,107.5,57,Open,B,F,Raw
4,Mélodie Anthouard,1988,FRA,56.48,-100,100,105,105,105,57,Open,B,F,Raw
5,Aino Askala,1992,FIN,56.81,80,-85,-85,80,80,57,Open,B,F,Raw
6,Catherine Graham,1990,GBR,56.17,72.5,75,77.5,77.5,77.5,57,Open,B,F,Raw
1,Zsanett Palágyi,1986,HUN,61.52,112.5,115,117.5,117.5,117.5,63,Open,B,F,Raw
2,Fanney Hauksdóttir,1992,ISL,62.21,107.5,110,112.5,112.5,112.5,63,Open,B,F,Raw
3,Ludivine Charles,1993,FRA,60.75,102.5,107.5,-110,107.5,107.5,63,Open,B,F,Raw
4,Elise Rosenborg,1993,NOR,62.27,97.5,102.5,105,105,105,63,Open,B,F,Raw
5,Anette Tunkkari,1983,FIN,62.61,-105,105,-112.5,105,105,63,Open,B,F,Raw
6,Mari Engberg,1982,FIN,62.77,92.5,97.5,-100,97.5,97.5,63,Open,B,F,Raw
1,Annika Zelander,1988,SWE,71.76,120,125.5,-128,125.5,125.5,72,Open,B,F,Raw
2,Eszter Kovacs,1992,HUN,65.09,100,102.5,105,105,105,72,Open,B,F,Raw
3,Iryna Vorobiova,1980,UKR,69.54,100,-105,-105,100,100,72,Open,B,F,Raw
4,Anne-Olympe Moulet,1990,FRA,65.11,97.5,-100,-100,97.5,97.5,72,Open,B,F,Raw
5,Anne-Elina Kinnunen,1992,FIN,71.56,92.5,97.5,-102.5,97.5,97.5,72,Open,B,F,Raw
6,Sheri Miles,1986,GBR,71.79,77.5,82.5,85,85,85,72,Open,B,F,Raw
1,Susanna Törrönen,1998,FIN,81.52,120,-127.5,127.5,127.5,127.5,84,Open,B,F,Raw
2,Silvia Szarvas,1984,GER,82.77,115,122.5,125,125,125,84,Open,B,F,Raw
3,Aneta Szot,1984,POL,73.63,100,105,-115,105,105,84,Open,B,F,Raw
4,Christina Appleby-Phillips,1982,GBR,79.94,105,-112.5,-115,105,105,84,Open,B,F,Raw
5,Amy Crossland,1987,GBR,82.31,65,70,-72.5,70,70,84,Open,B,F,Raw
DQ,Clara Fridén,1992,SWE,82.64,-115,-115,-115,,,84,Open,B,F,Raw
1,Ágnes Szabó,1988,HUN,120.1,140,145,-152,145,145,84+,Open,B,F,Raw
2,Tetiana Bilousova,1975,UKR,109.73,120,122.5,130,130,130,84+,Open,B,F,Raw
3,Johanna Laitinen,1986,FIN,106.59,112.5,-117.5,120,120,120,84+,Open,B,F,Raw
4,Leila Duhem,1963,FRA,102.32,112.5,117.5,-120,117.5,117.5,84+,Open,B,F,Raw
5,Camille Holland,1988,GBR,130.35,100,107.5,115,115,115,84+,Open,B,F,Raw
1,Kristina Lieonienko,2001,UKR,42.7,50,-55,-55,50,50,43,Sub-Juniors,B,F,Raw
1,Ekaterina Volodko,2001,RUS,45.99,60,62.5,-65,62.5,62.5,47,Sub-Juniors,B,F,Raw
2,Nataliia Cheremenko,2001,UKR,46.7,62.5,-65,-65,62.5,62.5,47,Sub-Juniors,B,F,Raw
1,Karolína Adamová,2000,CZE,53.3,65,70,-72.5,70,70,57,Sub-Juniors,B,F,Raw
2,Solyane Khider,2000,FRA,54.95,67.5,-72.5,-72.5,67.5,67.5,57,Sub-Juniors,B,F,Raw
3,Natalia Jablonska,2000,POL,54.08,45,50,-52.5,50,50,57,Sub-Juniors,B,F,Raw
1,Kateryna Kupaieva,2000,UKR,62.58,65,-70,70,70,70,63,Sub-Juniors,B,F,Raw
1,Lili Szabo,2000,HUN,65.92,70,-75,-75,70,70,72,Sub-Juniors,B,F,Raw
2,Suvi-Maaria Heinonen,2002,FIN,63.67,57.5,62.5,-70,62.5,62.5,72,Sub-Juniors,B,F,Raw
1,Sofie Sällinen,2000,FIN,75.2,72.5,75,80,80,80,84,Sub-Juniors,B,F,Raw
2,Karolina Kalbarczyk,2001,POL,72.1,55,60,-65,60,60,84,Sub-Juniors,B,F,Raw
3,Kinga Gaal,2000,HUN,80.17,60,-65,-65,60,60,84,Sub-Juniors,B,F,Raw
1,Rada Dmitrieva,1999,RUS,42.3,50,52.5,-55,52.5,52.5,43,Juniors,B,F,Raw
1,Petra Cserna,1996,HUN,45.94,50,60,-62.5,60,60,47,Juniors,B,F,Raw
1,Iuliia Ivanova,1998,RUS,51.7,77.5,82.5,-85,82.5,82.5,52,Juniors,B,F,Raw
2,Rosamaria Viterbo,1996,ITA,50.76,77.5,80,-82.5,80,80,52,Juniors,B,F,Raw
1,Anna Rykun,1998,UKR,56.61,90,95,-100,95,95,57,Juniors,B,F,Raw
2,Ekaterina Lisevich,1997,RUS,56.69,85,87.5,-90,87.5,87.5,57,Juniors,B,F,Raw
3,Agnès Alves,1996,FRA,56.66,77.5,80,-87.5,80,80,57,Juniors,B,F,Raw
4,Emily Norley,1996,GBR,56.88,72.5,75,-77.5,75,75,57,Juniors,B,F,Raw
5,Elisabeth Sletten,1995,NOR,53.6,70,72.5,-77.5,72.5,72.5,57,Juniors,B,F,Raw
6,Brigita Bakic,1997,CRO,55.82,70,72.5,-77.5,72.5,72.5,57,Juniors,B,F,Raw
1,Petrek Andrea,1997,CRO,61.25,85,90,92.5,92.5,92.5,63,Juniors,B,F,Raw
2,Klaudia Nowak,1998,POL,62.9,80,85,-92.5,85,85,63,Juniors,B,F,Raw
3,Nadezhda Churilova,1996,RUS,61.41,-82.5,82.5,-87.5,82.5,82.5,63,Juniors,B,F,Raw
4,Laura Malterre,1997,FRA,61.19,70,72.5,-75,72.5,72.5,63,Juniors,B,F,Raw
5,Erika Irimias,1997,HUN,60.8,60,65,-72.5,65,65,63,Juniors,B,F,Raw
6,Lucy Hart,1995,GBR,60.4,55,60,62.5,62.5,62.5,63,Juniors,B,F,Raw
1,Anna Mikryukova,1999,RUS,67.61,100,-105,105,105,105,72,Juniors,B,F,Raw
2,Julianna Löllö,1995,FIN,68.33,95,100,102.5,102.5,102.5,72,Juniors,B,F,Raw
3,Marthine Myhr,1999,NOR,67.86,92.5,97.5,-100,97.5,97.5,72,Juniors,B,F,Raw
4,Camille Pailha,1999,FRA,65.49,87.5,-92.5,92.5,92.5,92.5,72,Juniors,B,F,Raw
5,Sandra Augustiniok,1999,GER,68.12,82.5,87.5,90,90,90,72,Juniors,B,F,Raw
6,Zoe Clark,1995,GBR,70.76,75,-80,-80,75,75,72,Juniors,B,F,Raw
7,Liz Mills,1996,GBR,70.84,70,-75,-75,70,70,72,Juniors,B,F,Raw
1,Seline Solestad Halleland,1997,NOR,82.16,100,107.5,110,110,110,84,Juniors,B,F,Raw
2,Ksenia Petrova,1997,RUS,72.01,55,62.5,-65,62.5,62.5,84,Juniors,B,F,Raw
1,Paulina Lechowicz,1996,POL,87.35,92.5,97.5,-100,97.5,97.5,84+,Juniors,B,F,Raw
1,Laurence Hernandez,1976,FRA,45.24,55,60,-62.5,60,60,47,Masters 1,B,F,Raw
1,Marianne Bouvard,1976,FRA,49.96,67.5,70,-75,70,70,52,Masters 1,B,F,Raw
2,Virginie Philippe,1969,FRA,51.98,60,65,-72.5,65,65,52,Masters 1,B,F,Raw
1,Erika Salamon,1973,HUN,55.46,90,-97.5,97.5,97.5,97.5,57,Masters 1,B,F,Raw
2,Martina Rummel,1976,GER,55.42,65,67.5,72.5,72.5,72.5,57,Masters 1,B,F,Raw
3,Claire Fouilliaron,1975,FRA,55.76,50,52.5,55,55,55,57,Masters 1,B,F,Raw
1,Ganna Kadatska,1977,UKR,57.72,95,100,-103,100,100,63,Masters 1,B,F,Raw
2,Galit Goldshmid,1977,GBR,60.1,75,80,-85,80,80,63,Masters 1,B,F,Raw
3,Doris Augustiniok,1971,GER,59.18,55,60,62.5,62.5,62.5,63,Masters 1,B,F,Raw
4,Christelle Waymel Clement,1973,FRA,62.51,-60,60,-65,60,60,63,Masters 1,B,F,Raw
DQ,Silvia Stuetz,1978,GER,62.33,-85,-85,-85,,,63,Masters 1,B,F,Raw
1,Eno Majomi,1974,GBR,70.26,85,90,95,95,95,72,Masters 1,B,F,Raw
2,Tiina Voho,1973,FIN,71.57,92.5,-95,95,95,95,72,Masters 1,B,F,Raw
3,Christelle Maniez,1975,FRA,64.59,80,85,90,90,90,72,Masters 1,B,F,Raw
1,Evelin Eisensehr,1973,HUN,78.14,92.5,97.5,105,105,105,84,Masters 1,B,F,Raw
2,Nina Ruuhivirta,1977,FIN,77.03,90,95,-102.5,95,95,84,Masters 1,B,F,Raw
3,Inna Yudina,1978,UKR,83.36,77.5,80,82.5,82.5,82.5,84,Masters 1,B,F,Raw
4,Pernilla Röhr,1972,SWE,83.76,80,-82.5,-85,80,80,84,Masters 1,B,F,Raw
1,Jackie Gough,1977,GBR,150.12,92.5,97.5,100,100,100,84+,Masters 1,B,F,Raw
2,Tutta Ylivinkka,1971,FIN,91.13,90,95,97.5,97.5,97.5,84+,Masters 1,B,F,Raw
3,Kim Eikefet,1973,NOR,103.67,90,95,-100,95,95,84+,Masters 1,B,F,Raw
1,Marion Friedrich,1965,GER,46.11,67.5,72.5,-75.5,72.5,72.5,47,Masters 2,B,F,Raw
1,Christine Lesellier,1963,FRA,50.6,75,81,-81.5,81,81,52,Masters 2,B,F,Raw
2,Mireille Roux,1967,FRA,51.44,52.5,-55,55,55,55,52,Masters 2,B,F,Raw
1,Marie France Cabos,1967,FRA,56.45,67.5,70,-72.5,70,70,57,Masters 2,B,F,Raw
2,Eira Pajuharju,1964,FIN,54.47,-60,62.5,-70,62.5,62.5,57,Masters 2,B,F,Raw
3,Isabelle Giraud,1966,FRA,56.42,52.5,-57.5,-57.5,52.5,52.5,57,Masters 2,B,F,Raw
1,Sylvie Fradin,1963,FRA,61.36,67.5,70,-72.5,70,70,63,Masters 2,B,F,Raw
2,Margetta Salminen,1961,FIN,62.16,62.5,65,-72.5,65,65,63,Masters 2,B,F,Raw
DQ,Amina Bernis,1968,FRA,60.5,-65,-65,-65,,,63,Masters 2,B,F,Raw
1,Regina Haas,1962,GER,71.07,97.5,105,107.5,107.5,107.5,72,Masters 2,B,F,Raw
2,Patricia Maciejewski,1961,FRA,68.35,82.5,85,87.5,87.5,87.5,72,Masters 2,B,F,Raw
3,Ursula Haeuser,1960,GER,68.82,72.5,77.5,-82.5,77.5,77.5,72,Masters 2,B,F,Raw
4,Julie Briggs,1962,GBR,70.84,42.5,47.5,-52.5,47.5,47.5,72,Masters 2,B,F,Raw
1,Åsa Halvarsson,1961,SWE,74.29,75,77.5,-80,77.5,77.5,84,Masters 2,B,F,Raw
2,Sofie Engan Anne,1966,NOR,81.84,65,67.5,70,70,70,84,Masters 2,B,F,Raw
3,Stina Sundling,1964,SWE,73.06,62.5,65,-67.5,65,65,84,Masters 2,B,F,Raw
1,Sylvia Wunderlich,1965,GER,86.26,72.5,77.5,80,80,80,84+,Masters 2,B,F,Raw
2,Ann Jordebo,1960,SWE,97.55,-62.5,-62.5,62.5,62.5,62.5,84+,Masters 2,B,F,Raw
3,Åsa Pennebratt,1967,SWE,91.52,57.5,-62.5,-62.5,57.5,57.5,84+,Masters 2,B,F,Raw
1,Martine Servajean,1958,FRA,45.22,67.5,70,72.5,72.5,72.5,47,Masters 3,B,F,Raw
2,Guillemette Baudron,1950,FRA,46.2,35,37.5,-40,37.5,37.5,47,Masters 3,B,F,Raw
1,Martine Roche,1956,FRA,48.75,42.5,47.5,50,50,50,52,Masters 3,B,F,Raw
1,Audhild Mathiesen,1957,NOR,55.49,62.5,65,69,69,69,57,Masters 3,B,F,Raw
1,Anita Thimm,1950,GER,60.03,60,65,67.5,67.5,67.5,63,Masters 3,B,F,Raw
1,Evelyne Herbin,1956,FRA,68.67,72.5,-77.5,-78,72.5,72.5,72,Masters 3,B,F,Raw
2,Monika Giersberg,1953,GER,65.28,62.5,65,-67.5,65,65,72,Masters 3,B,F,Raw
1,Eva Speth,1954,GER,90.53,87.5,90,-93,90,90,84+,Masters 3,B,F,Raw
1,Françoise Heligon,1943,FRA,51.31,50,52.5,54,54,54,52,Masters 4,B,F,Raw
1,Judith McGauley,1948,GBR,57.95,30,35,37.5,37.5,37.5,63,Masters 4,B,F,Raw
