Name,Age,Sex,Division,Event,Equipment,BodyweightKg,WeightClassKg,Squat1Kg,Squat2Kg,Squat3Kg,Best3SquatKg,Bench1Kg,Bench2Kg,Bench3Kg,Best3BenchKg,Deadlift1Kg,Deadlift2Kg,Deadlift3Kg,Best3DeadliftKg,TotalKg,Place
Liam Thomas,25,M,Open,SBD,Multi-ply,83.1,90,225,242.5,247.5,247.5,130,140,150,150,200,-222.5,222.5,222.5,620,1
Adam Lam,27,M,Open,SBD,Multi-ply,90,90,250,275,-292.5,275,165,182.5,-200,182.5,227.5,250,-265,250,707.5,1
John Sheridan,25,M,Open,SBD,Multi-ply,136.2,140,-410,-425,-425,,192.5,-205,-205,192.5,220,237.5,250,250,,DQ
Laird Ross,22,M,Open,SBD,Multi-ply,98.9,100,240,260,,260,230,260,-272.5,260,200,230,250,250,770,1
