Name,Age,Sex,Division,Equipment,Event,BodyweightKg,WeightClassKg,Squat1Kg,Squat2Kg,Squat3Kg,Squat4Kg,Best3SquatKg,Bench1Kg,Bench2Kg,Bench3Kg,Bench4Kg,Best3BenchKg,Deadlift1Kg,Deadlift2Kg,Deadlift3Kg,Deadlift4Kg,Best3DeadliftKg,TotalKg,Place,Country
Tori Goulart,22,F,F_JCR_WPC,Wraps,SBD,65.6,67.5,150,-155,-155,,150,82.5,-87.5,87.5,90,87.5,152.5,160,167.5,-172.5,167.5,405,1,CAN
Jordan Masters,22,F,F_JCR_WPC,Wraps,SBD,72.6,75,90,105,112.5,,112.5,65,70,75,,75,125,137.5,145,-155,145,332.5,1,USA
Julie Kirkpatrick,42,F,F_MCR_1_WPC,Wraps,SBD,66.2,67.5,120,-135,-135,,120,60,-67.5,-67.5,,60,122.5,137.5,-142.5,,137.5,317.5,1,USA
Tara O'Shaughnessy,41,F,F_MCR_1_WPC,Wraps,SBD,73.6,75,155,165,-170,,165,77.5,82.5,85,87.5,85,175,185,-190,,185,435,1,IRE
Tera Kinnane,40,F,F_MCR_1_WPC,Wraps,SBD,107.6,90+,157.5,165,175,-180,175,82.5,-87.5,87.5,-90,87.5,157.5,170,177.5,-182.5,177.5,440,1,USA
Ana Alvarez,54,F,F_MCR_3_WPC,Wraps,SBD,66,67.5,120,-135,-135,,120,60,65,-70,,65,130,142.5,-150,,142.5,327.5,1,USA
Anne Keckler,50,F,F_MCR_3_WPC,Wraps,SBD,66,67.5,-102.5,105,110,-122.5,110,57.5,65,67.5,-72.5,67.5,97.5,102.5,107.5,,107.5,285,2,USA
Joanne Barnes #2,53,F,F_MCR_3_WPC,Wraps,SBD,74.8,75,60,-80,-80,,60,57.5,65,67.5,,67.5,110,115,-117.5,,115,242.5,1,USA
Sheryl A Whetham,54,F,F_MCR_3_WPC,Wraps,SBD,81.2,82.5,155,167.5,172.5,,172.5,80,85,-92.5,,85,182.5,197.5,-202.5,,197.5,455,1,CAN
Lynne Boshoven,59,F,F_MCR_4_WPC,Wraps,SBD,81.2,82.5,147.5,-160,-160,,147.5,85,-92.5,-92.5,,85,147.5,160,-167.5,,160,392.5,1,USA
Alora Griffiths,24,F,F_OCR_WPC,Wraps,SBD,55.4,56,137.5,-145,-145,,137.5,82.5,-87.5,-92.5,,82.5,165,175,-182.5,,175,395,1,CAN
Lisa Farrelly,28,F,F_OCR_WPC,Wraps,SBD,55.8,56,110,125,145,,145,65,70,-75,,70,140,145,150,,150,365,2,IRE
Shawne Scott,27,F,F_OCR_WPC,Wraps,SBD,60,60,135,-150,-150,,135,77.5,-80,-80,,77.5,165,-175,-175,,165,377.5,1,USA
Brittany Ann Dewald,24,F,F_OCR_WPC,Wraps,SBD,64,67.5,155,-165,170,,170,65,70,75,,75,160,172.5,-182.5,,172.5,417.5,1,CAN
Shanie Dasrath,33,F,F_OCR_WPC,Wraps,SBD,74.4,75,142.5,-150,150,,150,75,85,-92.5,,85,152.5,170,-182.5,,170,405,1,USA
Ashley Gaulden,28,F,F_OCR_WPC,Wraps,SBD,96.6,90+,100,110,122.5,,122.5,62.5,-67.5,-67.5,,62.5,130,142.5,-155,,142.5,327.5,1,USA
Lily Burkhead,16,F,F_TCR_1_WPC,Wraps,SBD,70,75,-137.5,-137.5,137.5,,137.5,60,-70,-70,,60,135,142.5,147.5,,147.5,345,1,USA
Reba Shinn,16,F,F_TCR_2_WPC,Wraps,SBD,49.8,52,65,75,-80,,75,45,52.5,-55,,52.5,75,87.5,-95,,87.5,215,1,USA
Terel Monroe,21,M,M_JCR_WPC,Wraps,SBD,65.4,67.5,170,185,200,,200,125,127.5,-132.5,,127.5,230,232.5,-272.5,,232.5,560,1,USA
Nigel Clark,21,M,M_JCR_WPC,Wraps,SBD,78.8,82.5,172.5,192.5,205,,205,115,-127.5,-127.5,,115,190,200,-212.5,,200,520,1,USA
Alex Desmond Gennille,22,M,M_JCR_WPC,Wraps,SBD,98.6,100,182.5,-200,200,,200,115,127.5,137.5,,137.5,205,220,-232.5,,220,557.5,1,USA
Justin Zottl,23,M,M_JCR_WPC,Wraps,SBD,106.8,110,320,340,-350,,340,187.5,197.5,202.5,-207.5,202.5,310,330,335,,335,877.5,1,CAN
David Stanic,23,M,M_JCR_WPC,Wraps,SBD,112.6,125,250,265,270,,270,180,190,200,,200,260,275,-290,,275,745,1,SUI
Alphonz Lorenzo Robiso,23,M,M_JCR_WPC,Wraps,SBD,122.8,125,245,265,285,,285,125,135,145,,145,225,250,-272.5,,250,680,2,CAN
Ben Karaosman,20,M,M_JCR_WPC,Wraps,SBD,120.4,125,177.5,190,202.5,,202.5,115,125,-130,,125,205,217.5,225,,225,552.5,3,GBR
Philipp Bleilinger,21,M,M_JCR_WPC,Wraps,SBD,133.4,140,260,280,290,,290,137.5,150,-160,,150,260,-285,-285,,260,700,1,GER
Jose Cervantes,19,M,M_TCR_3_WPC,Wraps,SBD,81.8,82.5,-185,185,195,,195,115,120,-125,,120,-215,215,225,230,225,540,1,MEX
Cody Green,19,M,M_TCR_3_WPC,Wraps,SBD,93.4,100,230,245,-250,,245,175,-180,-180,,175,260,-280,,,260,680,1,USA
Mostafa Mohamed Hesham Eleraky,22,M,M_OCR_WPC,Wraps,SBD,100,100,220,260,-280,,260,160,185,192.5,,192.5,250,300,320,-330,320,772.5,1,EGY
Mostafa Mohamed Hesham Eleraky,22,M,M_JCR_WPC,Wraps,SBD,100,100,220,260,-280,,260,160,185,192.5,,192.5,250,300,320,-330,320,772.5,1,EGY
Robert Burkhead,42,M,M_MCR_1_WPC,Wraps,SBD,87.8,90,-180,180,192.5,,192.5,-135,-135,-135,,,,,,,,,DQ,USA
Valentine Huerta,42,M,M_OCR_WPC,Wraps,SBD,98.8,100,285,300,-312.5,,300,150,162.5,-170,,162.5,285,-305,-305,,285,747.5,2,USA
Valentine Huerta,42,M,M_MCR_1_WPC,Wraps,SBD,98.8,100,285,300,-312.5,,300,150,162.5,-170,,162.5,285,-305,-305,,285,747.5,1,USA
Lucas Vogel,40,M,M_MCR_1_WPC,Wraps,SBD,130.4,140,232.5,240,250,,250,160,-170,170,,170,-230,235,242.5,,242.5,662.5,1,USA
Randolph Pendleton III,47,M,M_MCR_2_WPC,Wraps,SBD,98.4,100,145,155,-182.5,,155,162.5,170,-175,,170,192.5,207.5,210,,210,535,1,USA
Jim Bailey,49,M,M_MCR_2_WPC,Wraps,SBD,98.2,100,170,-185,185,,185,135,145,-147.5,,145,190,-205,-205,,190,520,2,USA
Joe Vayda,46,M,M_MCR_2_WPC,Wraps,SBD,106.6,110,250,260,275,,275,175,185,190,,190,205,230,252.5,,252.5,717.5,1,USA
Allen Masters,51,M,M_MCR_3_WPC,Wraps,SBD,100,100,172.5,185,-207.5,,185,122.5,-132.5,132.5,-140,132.5,205,220,230,,230,547.5,1,USA
Scott Edmiston,53,M,M_OCR_WPC,Wraps,SBD,118,125,250,272.5,-282.5,,272.5,-147.5,160,165,,165,-250,272.5,-285,,272.5,710,2,USA
Scott Edmiston,53,M,M_MCR_3_WPC,Wraps,SBD,118,125,250,272.5,-282.5,,272.5,-147.5,160,165,,165,-250,272.5,-285,,272.5,710,1,USA
Colin Mullaney,57,M,M_MCR_4_WPC,Wraps,SBD,86.6,90,160,175,185,,185,125,132.5,137.5,,137.5,170,190,212.5,,212.5,535,1,CAN
Mark Eichenseer,59,M,M_MCR_4_WPC,Wraps,SBD,83,90,125,165,182.5,192.5,182.5,112.5,-120,-120,,112.5,175,195,215,,215,510,2,USA
John Carney,58,M,M_MCR_4_WPC,Wraps,SBD,94.4,100,160,-180,180,,180,120,130,-135,,130,200,220,230,,230,540,1,GBR
William Vanderstine,65,M,M_MCR_5_WPC,Wraps,SBD,82.2,82.5,87.5,92.5,95,-97.5,95,-107.5,-110,110,112.5,110,150,160,167.5,172.5,167.5,372.5,1,USA
Steve Kylis,64,M,M_MCR_5_WPC,Wraps,SBD,86.2,90,182.5,-187.5,187.5,192.5,187.5,115,120.5,125,-127.5,125,205,215.5,227.5,,227.5,540,1,USA
Timothy Sheehan,64,M,M_MCR_5_WPC,Wraps,SBD,104.2,110,180,-200,200,,200,137.5,142.5,,,142.5,192.5,,,,192.5,535,1,USA
William Roberts,74,M,M_MCR_7_WPC,Wraps,SBD,105.6,110,57.5,70,-80,,70,82.5,92.5,100,,100,137.5,147.5,-157.5,,147.5,317.5,1,USA
Bill Berry,75,M,M_MCR_8_WPC,Wraps,SBD,92.2,100,102.5,-115,137.5,,137.5,80,90,102.5,,102.5,145,157.5,-165,,157.5,397.5,1,USA
Jared O'Grady,39,M,M_OCR_WPC,Wraps,SBD,52,52,85,110,120,,120,85,95,-97.5,,95,142.5,157.5,172.5,,172.5,387.5,1,USA
Brandon Smitley,28,M,M_OCR_WPC,Wraps,SBD,59.6,60,222.5,240,247.5,257.5,247.5,137.5,145,150,,150,217.5,227.5,-240,,227.5,625,1,USA
Luis Bermejo Ramirez,36,M,M_OCR_WPC,Wraps,SBD,75,75,250,277.5,-300,,277.5,130,140,-145,,140,255,270,-285,,270,687.5,1,COL
Rainer Altame,29,M,M_OCR_WPC,Wraps,SBD,70,75,220,230,-240,,230,160,-167.5,-168,,160,220,240,250,,250,640,2,IRE
Jason La Vigne,30,M,M_OCR_WPC,Wraps,SBD,81,82.5,197.5,-215,215,,215,127.5,132.5,137.5,,137.5,222.5,-240,-240,,222.5,575,1,USA
Carlos Pérez #1,33,M,M_OCR_WPC,Wraps,SBD,88.4,90,245,257.5,267.5,270,267.5,150,-157.5,157.5,,157.5,240,250,255,,255,680,1,IRE
Chad Ridgell,36,M,M_OCR_WPC,Wraps,SBD,93.6,100,185,200,-227.5,,200,85,100,-117.5,,100,227.5,250,-262.5,,250,550,3,USA
David Sean Bennett,33,M,M_OCR_WPC,Wraps,SBD,117.2,125,260,-270,,,260,165.5,175,-185,,175,273,282.5,,,282.5,717.5,1,CAN
Gregory Wilkinson,28,M,M_OCR_WPC,Wraps,SBD,82,82.5,172.5,192.5,-202.5,,192.5,-112.5,112.5,-117.5,,112.5,217.5,240,-247.5,,240,545,2,USA
Mohamed Said Ahmed Nasr,36,M,M_OCR_WPC,Wraps,SBD,137.4,140,260,300,320,,320,-165,170,180,,180,300,320,335,,335,835,1,EGY
Peter Frank,26,M,M_OCR_WPC,Wraps,SBD,88.6,90,215,220,-227.5,,220,185,190,-195.5,,190,232.5,240,-270,,240,650,2,USA
Aaron Lundgaard,41,M,M_MR_1_WPC,Raw,SBD,108.8,110,240,-260,-260,,240,180,192.5,-205.5,,192.5,245,275,-277.5,,275,707.5,1,USA
Aki Tiainen,45,M,M_MR_2_WPC,Raw,SBD,133.6,140,200,225,-250.5,,225,100,120,130,,130,220,240,-250,,240,595,1,FIN
Andrea Sterns,54,F,F_MR_3_WPC,Raw,SBD,74,75,90,100,105,,105,70,75,-80,,75,110,120,130,,130,310,1,AUS
Cliff Shipley,57,M,M_MR_4_WPC,Raw,SBD,73.4,75,102.5,,,,102.5,92.5,,,,92.5,185,205,,,205,400,2,USA
Colin Mullaney,57,M,M_MR_4_WPC,Raw,SBD,87.6,90,130,150,160,,160,115,130,135,,135,-160,190,197.5,,197.5,492.5,2,CAN
Colin O'Hagan,56,M,M_MR_4_WPC,Raw,SBD,97.8,100,80,85,90,,90,67.5,75,-82.5,,75,115,122.5,130,,130,295,3,GBR
Dan Oberman,50,M,M_MR_3_WPC,Raw,SBD,88.8,90,155,165,-172.5,,165,115,125,130,,130,222.5,237.5,-247.5,,237.5,532.5,1,USA
David Burshtan,55,M,M_MR_4_WPC,Raw,SBD,98.6,100,115,132.5,142.5,,142.5,102.5,115,120,,120,100,125,142.5,,142.5,405,2,USA
Drew Burkhead,42,M,M_MR_1_WPC,Raw,SBD,88.2,90,115,142.5,155,,155,107.5,120,-130,,120,140,167.5,187.5,,187.5,462.5,1,USA
Elchin Mammadov,46,M,M_MR_2_WPC,Raw,SBD,108,110,200,220,,,220,120,130,,,130,260,280,,,280,630,1,AZE
Gloria Summers,45,F,F_MR_2_WPC,Raw,SBD,56,56,77.5,85,87.5,,87.5,47.5,50,55,,55,100,107.5,112.5,,112.5,255,1,USA
Gregory Ripley,55,M,M_MR_4_WPC,Raw,SBD,73.4,75,137.5,150,160,-168,160,107.5,115,120.5,125,120.5,177.5,-190,,,177.5,458,1,USA
Gregory Shearer,40,M,M_MR_1_WPC,Raw,SBD,99.4,100,125,-145,152.5,,152.5,115,125,-137.5,,125,172.5,-205,-205,,172.5,450,1,USA
Grove Turtle,45,M,M_MR_2_WPC,Raw,SBD,97.6,100,182.5,195,207.5,,207.5,122.5,130,137.5,,137.5,235,-245,-245,,235,580,1,CAN
Jennifer Schmult,20,F,F_JR_WPC,Raw,SBD,64.4,67.5,105,115,-120,,115,67.5,72.5,-75,,72.5,112.5,120,125,,125,312.5,3,USA
Jermichael Pratt,43,M,M_MR_1_WPC,Raw,SBD,116,125,182.5,192.5,215,,215,137.5,152.5,-165,,152.5,222.5,235,237.5,,237.5,605,1,USA
Joanne Barnes #2,53,F,F_MR_3_WPC,Raw,SBD,75,75,-55,57.5,67.5,,67.5,60,67.5,-70,,67.5,107.5,112.5,-120,,112.5,247.5,2,USA
John Wood,51,M,M_MR_3_WPC,Raw,SBD,81.6,82.5,150,165,182.5,,182.5,145,152.5,157.5,,157.5,240,255,,,255,595,1,USA
Joseph Cornish,53,M,M_MR_3_WPC,Raw,SBD,73.4,75,182.5,197.5,210,,210,115,130,132.5,,132.5,-235,235,245,252.5,245,587.5,1,USA
Kate Bochenek,18,F,F_TR_2_WPC,Raw,SBD,67.4,67.5,102.5,115,120,125,120,50,-60,-60,,50,138,152.5,-155,,152.5,322.5,1,USA
Marvin Mann,55,M,M_MR_4_WPC,Raw,SBD,95.2,100,200,230,,,230,125,150,,,150,230,260,,,260,640,1,USA
Maureen Barbetta,23,F,F_JR_WPC,Raw,SBD,67.5,67.5,130,135,140,,140,82.5,87.5,92.5,,92.5,175,185,-190,,185,417.5,2,CAN
Melissa Gibson,45,F,F_MR_2_WPC,Raw,SBD,106,90+,87.5,-102.5,-102.5,,87.5,50,-62.5,-62.5,,50,95,107.5,115,,115,252.5,1,USA
Michael Schrott,44,M,M_MR_1_WPC,Raw,SBD,126.2,140,270,290,300,,300,190,202.5,-210,,202.5,250,270,280,,280,782.5,1,GER
Mike Pascarella,51,M,M_MR_3_WPC,Raw,SBD,124.6,125,220,232.5,-245,,232.5,145,152.5,-157.5,,152.5,235,250,265,,265,650,1,USA
Mike Wider,69,M,M_MR_6_WPC,Raw,SBD,66,67.5,107.5,117.5,125,,125,67.5,77.5,85,,85,170,185,195,,195,405,1,USA
Mindy Schwartz,60,F,F_MR_5_WPC,Raw,SBD,92.2,90+,82.5,-87.5,-93,,82.5,55,60,-63,,60,132.5,137.5,143,,143,285.5,1,USA
Patricia Santos,23,F,F_JR_WPC,Raw,SBD,64.8,67.5,145,150,160,165,160,85,92.5,95,97.5,95,-160,170,180,,180,435,1,POR
Scott Johnson,48,M,M_MR_2_WPC,Raw,SBD,108.8,110,165,182.5,192.5,,192.5,120,130,137.5,,137.5,200,215,227.5,,227.5,557.5,2,USA
Suzanne Prusnek,60,F,F_MR_5_WPC,Raw,SBD,71.2,75,-102.5,102.5,105,,105,80,82.5,-85,,82.5,182.5,187.5,192.5,197.5,192.5,380,1,USA
Timothy Sheehan,64,M,M_MR_5_WPC,Raw,SBD,104.2,110,167.5,-182.5,182.5,,182.5,-137.5,137.5,-148,,137.5,192.5,,,,192.5,512.5,1,USA
Victor Gomez,56,M,M_MR_4_WPC,Raw,SBD,87.4,90,185,205,-230.5,,205,135,-147.5,-147.5,,135,-205,205,225,,225,565,1,MEX
Aaron Laird,18,M,M_TR_3_WPC,Raw,SBD,89.2,90,245,-257.5,-262.5,,245,170,-180,-182.5,,170,275,285,-290,,285,700,1,USA
Alastair MacNicol,29,M,M_OR_WPC,Raw,SBD,99.4,100,265,282.5,292.5,,292.5,180,185,-187.5,,185,310,330,342.5,,342.5,820,1,CAN
Ann Vanderbush,30,F,F_OR_WPC,Raw,SBD,87.5,90,-170,170,187.5,,187.5,115,-132.5,-132.5,,115,227.5,-262.5,,,227.5,530,1,USA
Ashley Lepcin,26,F,F_OR_WPC,Raw,SBD,80.8,82.5,147.5,157.5,165,,165,92.5,97.5,102.5,,102.5,185,195,202.5,,202.5,470,1,USA
Ashley Porter,29,F,F_OR_WPC,Raw,SBD,71.2,75,-95,95,100,,100,50,-57.5,-57.5,,50,125,135,140,,140,290,1,USA
Ben Tritle,31,M,M_OR_WPC,Raw,SBD,105.4,110,220,232.5,237.5,,237.5,152.5,-160,-160,,152.5,235,245,252.5,,252.5,642.5,2,USA
Bill Lee,32,M,M_OR_WPC,Raw,SBD,146.8,140+,295,310,-315,,310,185,195,-202.5,,195,330,-350,-365,,330,835,1,USA
Coadiey Bryan,19,M,M_TR_3_WPC,Raw,SBD,69,75,92.5,102.5,110,,110,70,77.5,82.5,,82.5,147.5,160,172.5,,172.5,365,2,USA
Cole Barton,26,M,M_OR_WPC,Raw,SBD,81.4,82.5,230,247.5,255,,255,175,-185,-185,,175,240,262.5,267.5,,267.5,697.5,2,USA
Daria Frolkina,28,F,F_OR_WPC,Raw,SBD,59.6,60,85,92.5,100,,100,-55,57.5,62.5,,62.5,100,110,117.5,,117.5,280,2,RUS
Darren Flagg,43,M,M_OR_WPC,Raw,SBD,74.2,75,-182.5,-182.5,182.5,,182.5,122.5,-130,-130,,122.5,230,240,-245,,240,545,2,USA
David Herrera,29,M,M_OR_WPC,Raw,SBD,81.8,82.5,245,257.5,267.5,,267.5,160,170,-177.5,,170,300,317.5,-326,,317.5,755,1,USA
Dejuan Garland,34,M,M_OR_WPC,Raw,SBD,139.6,140,247.5,265,-272.5,,265,175,195,-202.5,,195,262.5,282.5,-290,,282.5,742.5,3,USA
Dennis Dietzel,26,M,M_OR_WPC,Raw,SBD,89.8,90,180,195,-205,,195,115,125,-130,,125,210,225,-235,,225,545,3,GER
Dmitry Smirnov,37,M,M_OR_WPC,Raw,SBD,135,140,250,260,270,,270,160,170,175,,175,270,285,-305,,285,730,4,RUS
Elijah Dertz,14,M,M_TR_1_WPC,Raw,SBD,79.4,82.5,137.5,142.5,147.5,,147.5,92.5,100,-105,,100,150,167.5,-182.5,,167.5,415,1,USA
Gerard Frederic-Lama,34,M,M_OR_WPC,Raw,SBD,110,110,280,300,-310,,300,160,170,-175,,170,340,360,,,360,830,1,FRA
Jacob Stratton,29,M,M_OR_WPC,Raw,SBD,89.4,90,240,-257.5,257.5,,257.5,170,177.5,182.5,,182.5,-282.5,-302.5,302.5,,302.5,742.5,1,USA
Joshua Hannah,30,M,M_OR_WPC,Raw,SBD,105,110,212.5,225,-230,,225,140,-147.5,-147.5,,140,225,242.5,-257.5,,242.5,607.5,3,CAN
Kristin Floreno,34,F,F_OR_WPC,Raw,SBD,47.2,48,52.5,57.5,62.5,,62.5,40,42.5,47.5,,47.5,85,92.5,-97.5,,92.5,202.5,1,USA
Kulieva Elnara,30,F,F_OR_WPC,Raw,SBD,52,52,90,100,105,,105,55,62.5,-67.5,,62.5,110,120,-135,,120,287.5,1,AZE
Lindsey Lee,35,F,F_OR_WPC,Raw,SBD,101,90+,-162.5,162.5,-182.5,,162.5,82.5,-92.5,-92.5,,82.5,-165,172.5,-185,,172.5,417.5,1,USA
Michelle Kania,36,F,F_OR_WPC,Raw,SBD,66,67.5,95,102.5,-110,,102.5,60,62.5,-65,,62.5,112.5,125,130,,130,295,1,USA
Mike Brown,31,M,M_OR_WPC,Raw,SBD,140,140,275,287.5,300,,300,200,210,215,,215,307.5,320,335,,335,850,1,IRN
Mushfig Aliyev,38,M,M_OR_WPC,Raw,SBD,74.8,75,215,230,240,,240,140,150,-160,,150,210,230,,,230,620,1,AZE
Nikolai Fesaniuk,32,M,M_OR_WPC,Raw,SBD,122.2,125,330,355,365,,365,190,205,215,,215,340,360,375,,375,955,1,RUS
Parker Robert Boyd,16,M,M_TR_2_WPC,Raw,SBD,132.4,140,172.5,187.5,195,208,195,105,115,125,132.5,125,215,222.5,237.5,-247.5,237.5,557.5,1,CAN
Pierre-Emmanuel Jos,36,M,M_OR_WPC,Raw,SBD,163,140+,280,300,-320,,300,-180,180,200,,200,100,,,,100,600,2,FRA
Prather Lanier,30,M,M_OR_WPC,Raw,SBD,123.6,125,275,285,-295,,285,170,182.5,-190,,182.5,305,320,-330,,320,787.5,2,USA
Ricco Bertoletti,17,M,M_TR_2_WPC,Raw,SBD,104.2,110,227.5,245,-260,,245,147.5,160,165,-170,165,237.5,-250,-267.5,,237.5,647.5,1,USA
Robert Harniman,32,M,M_OR_WPC,Raw,SBD,87.8,90,180,200,207.5,,207.5,150,160,162.5,,162.5,230,250,-260,,250,620,2,AUS
Ryan Jamieson,18,M,M_TR_3_WPC,Raw,SBD,66.8,67.5,152.5,165,172.5,,172.5,95,105,115,,115,197.5,215,225,,225,512.5,1,CAN
Sal Cotto III,28,M,M_OR_WPC,Raw,SBD,136.2,140,272.5,295,-320,,295,160,182.5,187.5,,187.5,272.5,285,-295,,285,767.5,2,USA
Shorook Quran,28,F,F_OR_WPC,Raw,SBD,58.4,60,92.5,102.5,107.5,,107.5,40,45,-50,,45,117.5,125,130,,130,282.5,1,USA
Vesa Vesterinen,31,M,M_OR_WPC,Raw,SBD,119.2,125,235,250,,,250,200,210,-220,,210,260,-280,,,260,720,4,FIN
Victor Samoylov,26,M,M_OR_WPC,Raw,SBD,112.6,125,245,255,265,,265,190,197.5,-205,,197.5,270,280,290,,290,752.5,3,RUS
Vincent Falzetta,19,M,M_TR_3_WPC,Raw,SBD,73.4,75,195,205,-207.5,,205,130,137.5,140,,140,245,262.5,272.5,-275,272.5,617.5,1,USA
Rachel Hurd,21,F,F_JEM_WPC,Multi-ply,SBD,73.6,75,-152.5,152.5,-182.5,,152.5,70,-77.5,-95,,70,147.5,162.5,-182.5,,162.5,385,1,USA
Breanna Gurzynski,20,F,F_JEM_WPC,Multi-ply,SBD,149.6,90+,-230,-230,-230,,,,,,,,,,,,,,DQ,USA
Susan Bartley,40,F,F_MEM_1_WPC,Multi-ply,SBD,82.4,82.5,175,-182.5,182.5,,182.5,85,-92.5,-92.5,,85,175,187.5,-192.5,,187.5,455,1,USA
Krista Ford,50,F,F_MEM_3_WPC,Multi-ply,SBD,82.4,82.5,222.5,237.5,250,,250,47.5,52.5,55,,55,172.5,182.5,187.5,,187.5,492.5,1,USA
Debbie Damminga,55,F,F_MEM_4_WPC,Multi-ply,SBD,67,67.5,230,-242.5,242.5,-255,242.5,97.5,105,110,-115,110,207.5,220,-232.5,,220,572.5,1,USA
Rita Carlsson,64,F,F_MEM_5_WPC,Multi-ply,SBD,59.2,60,170,-180,180,,180,-60,-60,-60,,,,,,,,,DQ,USA
Paula Collins,60,F,F_MEM_5_WPC,Multi-ply,SBD,71.4,75,167.5,175,182.5,,182.5,80,85,92.5,,92.5,150,160,167.5,,167.5,442.5,1,USA
Reagan Cress,19,F,F_TEM_3_WPC,Multi-ply,SBD,64.2,67.5,182.5,195,-197.5,,195,-102.5,-102.5,-102.5,,,,,,,,,DQ,USA
Troy Angelo,20,M,M_JEM_WPC,Multi-ply,SBD,86.6,90,-342.5,342.5,-367.5,,342.5,-192.5,192.5,-205,,192.5,295,-320,-320,,295,830,1,USA
Zach Henson,23,M,M_JEM_WPC,Multi-ply,SBD,99.8,100,340,365,-387.5,,365,-232.5,232.5,-247.5,,232.5,320,350,-365,,350,947.5,1,USA
Teemu Leppänen,23,M,M_JEM_WPC,Multi-ply,SBD,104.8,110,330,350,360,,360,220,230,-240,,230,-320,320,350,,350,940,1,FIN
Taylor Brown,20,M,M_JEM_WPC,Multi-ply,SBD,114,125,300,320,-365,,320,-175,175,185,,185,-282.5,282.5,-295,,282.5,787.5,1,USA
James Yates,23,M,M_JEM_WPC,Multi-ply,SBD,128.6,140,365,377.5,387.5,,387.5,257.5,265,272.5,,272.5,295,310,-320,,310,970,1,USA
Devin Cagnolatti,43,M,M_MEM_1_WPC,Multi-ply,SBD,79,82.5,265,,,,265,-217.5,227.5,-240,,227.5,227.5,237.5,,,237.5,730,1,USA
Brian Highnote,42,M,M_MEM_1_WPC,Multi-ply,SBD,89.6,90,320,-345,345,,345,220,-230,-230,,220,227.5,250,-270,,250,815,1,USA
Will Hayford,42,M,M_MEM_1_WPC,Multi-ply,SBD,87.8,90,275,302.5,320,,320,170,175,-182.5,,175,265,282.5,-295,,282.5,777.5,2,USA
Shane Brodie,43,M,M_MEM_1_WPC,Multi-ply,SBD,94.4,100,340,-365,-365,,340,220,230,-235,,230,260,-270,270,,270,840,1,IRE
Jason Pritchard,43,M,M_MEM_1_WPC,Multi-ply,SBD,99.6,100,290,305,325,,325,182.5,200,-210,,200,240,260,272.5,,272.5,797.5,2,USA
Alex Mims,44,M,M_MEM_1_WPC,Multi-ply,SBD,123.8,125,320,-335,335,,335,-245,-245,-245,,,,,,,,,DQ,USA
Patrick O'Grady,46,M,M_MEM_2_WPC,Multi-ply,SBD,73.6,75,160,190,-210,,190,115,150,,,150,205,227.5,-255,,227.5,567.5,1,USA
Jeff Cory,45,M,M_MEM_2_WPC,Multi-ply,SBD,89.4,90,335,350,-370,,350,-257.5,257.5,-272.5,,257.5,237.5,-250,250,,250,857.5,1,USA
Jason Everet Boxtart,49,M,M_MEM_2_WPC,Multi-ply,SBD,89,90,-242.5,-242.5,242.5,,242.5,-162.5,162.5,-200,,162.5,-205,205,-230,,205,610,2,CAN
Fred Choate,46,M,M_MEM_2_WPC,Multi-ply,SBD,92.4,100,-220,-220,-220,,,,,,,,,,,,,,DQ,USA
David Emeott,46,M,M_MEM_2_WPC,Multi-ply,SBD,98,100,265,-290,290,,290,182.5,202.5,-207.5,,202.5,227.5,-252.5,252.5,,252.5,745,1,USA
Mike Webber,46,M,M_MEM_2_WPC,Multi-ply,SBD,109.4,110,-430,430,-455,,430,137.5,-275,275,,275,300,320,-330,,320,1025,1,CAN
Jim Grandick,47,M,M_MEM_2_WPC,Multi-ply,SBD,123.6,125,-410,410,-427.5,,410,-327.5,-327.5,-327.5,,,,,,,,,DQ,USA
Dan Yert,51,M,M_MEM_3_WPC,Multi-ply,SBD,80.4,82.5,170,182.5,192.5,,192.5,82.5,137.5,-147.5,,137.5,145,-155,155,,155,485,1,USA
John Ponzetti,52,M,M_MEM_3_WPC,Multi-ply,SBD,90,90,275,-295,295,,295,162.5,172.5,182.5,,182.5,220,242.5,252.5,,252.5,730,1,USA
Tony Tomra,54,M,M_MEM_3_WPC,Multi-ply,SBD,94.2,100,330,347.5,-365,,347.5,250,-262.5,-262.5,,250,250,265,275,,275,872.5,1,CAN
Henry Fletcher,53,M,M_MEM_3_WPC,Multi-ply,SBD,96.2,100,310,350,382.5,,382.5,185,200,217.5,,217.5,220,250,-272.5,,250,850,2,USA
Mike Taylor,54,M,M_MEM_3_WPC,Multi-ply,SBD,107,110,355,365,372.5,,372.5,290,-305,-305,,290,275,292.5,300,,300,962.5,1,USA
Thomas Bodenbender,50,M,M_MEM_3_WPC,Multi-ply,SBD,119,125,330,-345,-345,,330,-255,-255,-255,,,,,,,,,DQ,USA
Gregg Damminga,54,M,M_MEM_3_WPC,Multi-ply,SBD,133.2,140,322.5,-342.5,342.5,,342.5,137.5,-220,-220,,137.5,285,310,-330,,310,790,1,USA
Bob Fabiano,59,M,M_MEM_4_WPC,Multi-ply,SBD,82.2,82.5,-280,-280,-280,,,,,,,,,,,,,,DQ,USA
Didier Theux,58,M,M_MEM_4_WPC,Multi-ply,SBD,82.2,82.5,230,250,-260,,250,215,225,-232.5,,225,-200,200,225,,225,700,1,FRA
John Hare,55,M,M_MEM_4_WPC,Multi-ply,SBD,88.4,90,280,310,-325,,310,200,212.5,-225,,212.5,235,257.5,272.5,,272.5,795,1,USA
Michael Steck,59,M,M_MEM_4_WPC,Multi-ply,SBD,89.4,90,270,-290,290,,290,170,177.5,-182.5,,177.5,220,230,-237.5,,230,697.5,2,USA
Terry Buckley,57,M,M_MEM_4_WPC,Multi-ply,SBD,88.4,90,245,-260,265,,265,-147.5,147.5,-157.5,,147.5,217.5,227.5,-235,,227.5,640,3,USA
Mike Goldman,55,M,M_MEM_4_WPC,Multi-ply,SBD,113.6,125,-280,280,,,280,142.5,157.5,-167.5,,157.5,227.5,-250,,,227.5,665,1,USA
Anthony Petrino,57,M,M_MEM_4_WPC,Multi-ply,SBD,138.4,140,367.5,-400,-400,,367.5,305,322.5,-335,,322.5,235,255,267.5,,267.5,957.5,1,USA
Rudy Ruettiger,62,M,M_MEM_5_WPC,Multi-ply,SBD,81.8,82.5,-227.5,227.5,-277.5,,227.5,-102.5,-102.5,102.5,,102.5,205,227.5,,,227.5,557.5,1,USA
Bernie Ferro,62,M,M_MEM_5_WPC,Multi-ply,SBD,96.6,100,232.5,245,255,,255,145,155,165,,165,220,230,,,230,650,1,USA
Jeffrey Orr,60,M,M_MEM_5_WPC,Multi-ply,SBD,96.8,100,237.5,255,-272.5,,255,-147.5,147.5,-155,,147.5,185,-192.5,195,,195,597.5,2,USA
Larry Mistric,60,M,M_MEM_5_WPC,Multi-ply,SBD,108.6,110,295,-322.5,322.5,,322.5,212.5,240,-255,,240,227.5,-250,,,227.5,790,1,USA
Terry Davis,60,M,M_MEM_5_WPC,Multi-ply,SBD,119,125,320,335,-350,,335,-207.5,207.5,220,,220,227.5,255,262.5,,262.5,817.5,1,USA
Dick Zenzen,64,M,M_MEM_5_WPC,Multi-ply,SBD,123.6,125,-230,-230,230,,230,82.5,92.5,-105,,92.5,160,,,,160,482.5,2,GBR
Dean Whitney,72,M,M_MEM_7_WPC,Multi-ply,SBD,66.8,67.5,140,187.5,197.5,,197.5,82.5,-92.5,92.5,,92.5,177.5,187.5,192.5,,192.5,482.5,1,USA
Rich Flores,78,M,M_MEM_8_WPC,Multi-ply,SBD,71.6,75,132.5,155,160,,160,62.5,70,-75,,70,160,175,-192.5,,175,405,1,USA
Tara O'Shaughnessy,41,F,F_MES_1_WPC,Single-ply,SBD,74.2,75,185,195,200,-210,200,97.5,105,112.5,-115,112.5,180,190,-200,,190,502.5,1,IRE
Denise Mears,48,F,F_MES_2_WPC,Single-ply,SBD,66.2,67.5,142.5,-162.5,162.5,-170,162.5,85,92.5,-100,,92.5,142.5,-162.5,-162.5,,142.5,397.5,1,USA
Nora Langdon,74,F,F_MES_7_WPC,Single-ply,SBD,85.4,90,167.5,172.5,-182.5,,172.5,77.5,82.5,-92.5,,82.5,160,-172.5,,,160,415,1,USA
Kaitlyn Toney,15,F,F_TES_1_WPC,Single-ply,SBD,43,44,82.5,-90,-90,,82.5,40,-42.5,-42.5,,40,87.5,92.5,97.5,,97.5,220,1,USA
Christina Ridgell,14,F,F_TES_1_WPC,Single-ply,SBD,47.8,48,67.5,77.5,-82.5,,77.5,32.5,40,-45,,40,95,102.5,115,120,115,232.5,1,USA
Shyanne Meza,15,F,F_TES_1_WPC,Single-ply,SBD,45.4,48,82.5,-90,90,,90,40,-42.5,-47.5,,40,82.5,90,100,,100,230,2,USA
Judith Peek,16,F,F_TES_2_WPC,Single-ply,SBD,41,44,70,77.5,85,,85,40,42.5,45,,45,65,77.5,-105,,77.5,207.5,1,USA
Alexis McCarthy,17,F,F_TES_2_WPC,Single-ply,SBD,50.8,52,-115,-125,125,,125,62.5,67.5,-72.5,,67.5,120,130,-135,,130,322.5,1,USA
Sadie Zaunbrecher,17,F,F_TES_2_WPC,Single-ply,SBD,51.2,52,87.5,102.5,-110,,102.5,47.5,60,-67.5,,60,87.5,110,-162.5,,110,272.5,2,USA
Haleigh Martin,16,F,F_TES_2_WPC,Single-ply,SBD,53,56,125,132.5,137.5,,137.5,55,-60,60,,60,125,130,137.5,,137.5,335,1,USA
Delia Cross,16,F,F_TES_2_WPC,Single-ply,SBD,54.4,56,105,115,117.5,,117.5,-45,45,-52.5,,45,102.5,110,127.5,,127.5,290,2,USA
Kara Johnson,17,F,F_TES_2_WPC,Single-ply,SBD,57.5,60,117.5,125,132.5,,132.5,50,55,57.5,,57.5,107.5,117.5,130,,130,320,1,USA
Hope Pridgen,16,F,F_TES_2_WPC,Single-ply,SBD,57.2,60,125,-137.5,137.5,,137.5,50,-55,-55,,50,115,122.5,-127.5,,122.5,310,2,USA
Diamond Jones,17,F,F_TES_2_WPC,Single-ply,SBD,66.4,67.5,152.5,165,172.5,,172.5,75,80,-82.5,,80,145,-162.5,162.5,,162.5,415,1,USA
Allie Bailey,16,F,F_TES_2_WPC,Single-ply,SBD,67.2,67.5,105,117.5,-125,,117.5,52.5,57.5,-62.5,,57.5,-110,120,132.5,,132.5,307.5,2,USA
Raegan Willis,17,F,F_TES_2_WPC,Single-ply,SBD,71.6,75,170,192.5,-200,,192.5,87.5,-97.5,97.5,,97.5,177.5,200,-217.5,,200,490,1,USA
Bailey Spurgeon,16,F,F_TES_2_WPC,Single-ply,SBD,71.8,75,-115,-115,115,,115,45,52.5,62.5,,62.5,125,137.5,-147.5,,137.5,315,2,USA
Brianna Hutson,16,F,F_TES_2_WPC,Single-ply,SBD,67.8,75,82.5,92.5,-112.5,,92.5,-45,50,-57.5,,50,80,95,-110,,95,237.5,3,USA
Abi Poole,17,F,F_TES_2_WPC,Single-ply,SBD,81.6,82.5,-155,-155,-155,,,,,,,,,,,,,,DQ,USA
Anna Cavaretta,17,F,F_TES_2_WPC,Single-ply,SBD,83.4,90,155,165,-175,,165,75,80,85,-92.5,85,127.5,137.5,-142.5,,137.5,387.5,1,USA
Victoria Lavespere,16,F,F_TES_2_WPC,Single-ply,SBD,86.1,90,120,132.5,142.5,,142.5,67.5,72.5,-75,,72.5,117.5,132.5,150,,150,365,2,USA
Letavia Jackson,17,F,F_TES_2_WPC,Single-ply,SBD,104.2,90+,-172.5,-177.5,177.5,,177.5,-82.5,82.5,-92.5,,82.5,142.5,150,-157.5,,150,410,1,USA
Ashley Kottenbrook,18,F,F_TES_3_WPC,Single-ply,SBD,55.4,56,-125,-125,-125,,,,,,,,,,,,,,DQ,USA
BritniAnn Kaufman,18,F,F_TES_3_WPC,Single-ply,SBD,53.8,56,80,85,90,,90,45,50,52.5,,52.5,85,92.5,100,,100,242.5,1,USA
Hannah Blanton,18,F,F_TES_3_WPC,Single-ply,SBD,54,56,80,87.5,92.5,,92.5,37.5,42.5,-47.5,,42.5,92.5,100,102.5,,102.5,237.5,2,USA
Courtney Price,18,F,F_TES_3_WPC,Single-ply,SBD,60,60,142.5,150,-170,,150,85,-92.5,92.5,,92.5,142.5,-157.5,-157.5,,142.5,385,1,USA
Dominique Moses,18,F,F_TES_3_WPC,Single-ply,SBD,68.4,75,125,130,-135,,130,62.5,67.5,-77.5,,67.5,125,137.5,145,,145,342.5,1,USA
Jonah David Albert,20,M,M_JES_WPC,Single-ply,SBD,81.4,82.5,-190,190,-195,,190,-152.5,157.5,162.5,,162.5,227.5,250.5,260,-265,260,612.5,1,USA
Chandler McKane,20,M,M_JES_WPC,Single-ply,SBD,109.2,110,-292.5,-305,-305,,,,,,,,,,,,,,DQ,USA
Mohamed Said Youssef,44,M,M_MES_1_WPC,Single-ply,SBD,123.8,125,300,350,-367.5,,350,120,-210,,,120,180,235,,,235,705,1,EGY
Joe Norman,48,M,M_MES_2_WPC,Single-ply,SBD,109,110,395,-412.5,,,395,227.5,-252.5,-260,,227.5,250,275,-295,,275,897.5,1,USA
Hervé Gainche,45,M,M_MES_2_WPC,Single-ply,SBD,125,125,275,285,290,-300,290,200,210,-220,,210,210,230,240,,240,740,1,USA
Robert Bierschbach,48,M,M_MES_2_WPC,Single-ply,SBD,137.2,140,250,265,280,,280,185,192.5,200,,200,242.5,257.5,-272.5,,257.5,737.5,1,USA
Gary Bishop,52,M,M_MES_3_WPC,Single-ply,SBD,107.6,110,-220,220,232.5,-245,232.5,192.5,207.5,-215,,207.5,232.5,-245,-250,,232.5,672.5,1,USA
Cliff Shipley,57,M,M_MES_4_WPC,Single-ply,SBD,73.4,75,105,120,138,,138,92.5,97.5,100,,100,185,205,,,205,443,1,USA
Mark Eichenseer,59,M,M_MES_4_WPC,Single-ply,SBD,81.4,82.5,212.5,,,,212.5,-155,-155,155,-165.5,155,220,230,,,230,597.5,1,USA
Chris Garcia,59,M,M_MES_4_WPC,Single-ply,SBD,100,100,-285,300,307.5,,307.5,50,55,,,55,142.5,152.5,,,152.5,515,1,USA
Eric Pauli,57,M,M_MES_4_WPC,Single-ply,SBD,123,125,90,147.5,-160,,147.5,152.5,177.5,182.5,-183,182.5,142.5,182.5,-205.5,,182.5,512.5,1,USA
Brian Sullivan #1,60,M,M_MES_5_WPC,Single-ply,SBD,97.4,100,160,172.5,-180,,172.5,130,137.5,-142.5,,137.5,170,180,190,,190,500,1,USA
Timothy Sheehan,64,M,M_MES_5_WPC,Single-ply,SBD,104,110,-200,200,223,,223,145,-165.5,-165.5,,145,202.5,,225,,225,593,1,USA
Michael Fowler,61,M,M_MES_5_WPC,Single-ply,SBD,120.8,125,170,192.5,207.5,,207.5,122.5,132.5,140,142.5,140,182.5,200,210,212.5,210,557.5,1,USA
Vince Breaux,71,M,M_MES_7_WPC,Single-ply,SBD,97.8,100,115,125,-140,,125,165,172.5,-180,,172.5,180,195,202.5,207.5,202.5,500,1,USA
William Roberts,74,M,M_MES_7_WPC,Single-ply,SBD,104.8,110,57.5,70,,,70,85,92.5,,,92.5,127.5,-137.5,137.5,,137.5,300,1,USA
Thomas Walters,78,M,M_MES_8_WPC,Single-ply,SBD,89,90,80,95,105,,105,60,65,-70,,65,115,142.5,150,,150,320,1,USA
Ryan Banta,17,M,M_TES_2_WPC,Single-ply,SBD,49.4,52,75,87.5,-92.5,,87.5,-45,-45,-45,,,,,,,,,DQ,USA
Joseph Dupre,16,M,M_TES_2_WPC,Single-ply,SBD,50.4,52,85,102.5,112.5,,112.5,47.5,55,65,,65,102.5,125,142.5,,142.5,320,1,USA
Cole Dauzat,16,M,M_TES_2_WPC,Single-ply,SBD,75.6,82.5,180,205,212.5,,212.5,115,120,-127.5,,120,150,172.5,182.5,,182.5,515,1,USA
Jason Brodielynch,16,M,M_TES_2_WPC,Single-ply,SBD,84.2,90,170,180,185,,185,90,-95,95,,95,160,170,175,,175,455,1,IRE
Zepeng Lu,17,M,M_TES_2_WPC,Single-ply,SBD,88.2,90,-140,-140,140,,140,92.5,97.5,-100,,97.5,167.5,172.5,177.5,182.5,177.5,415,2,USA
Alejandro Ruiz,17,M,M_TES_2_WPC,Single-ply,SBD,98.6,100,-205,205,-227.5,,205,152.5,160,170,175,170,245,255,-260,,255,630,1,USA
Yudai Katsumata,16,M,M_TES_2_WPC,Single-ply,SBD,103.4,110,217.5,237.5,245,,245,165,175,182.5,-185,182.5,215,232.5,240,-242.5,240,667.5,1,USA
Michael Megler,18,M,M_TES_3_WPC,Single-ply,SBD,73.2,75,190,200,-210,,200,-127.5,-127.5,-127.5,,,,,,,,,DQ,USA
Austin Craig,18,M,M_TES_3_WPC,Single-ply,SBD,72.8,75,205,220,225,,225,120,130,-137.5,,130,212.5,227.5,237.5,,237.5,592.5,1,USA
John Zak,18,M,M_TES_3_WPC,Single-ply,SBD,70.8,75,125,132.5,-140,,132.5,75,-80,-80,,75,142.5,150,155,,155,362.5,2,USA
Tyler Kinder,18,M,M_TES_3_WPC,Single-ply,SBD,103.2,110,295,320,-340,,320,225,247.5,260,-272.5,260,297.5,-317.5,,,297.5,877.5,1,USA
Patricia Santos,23,F,F_JR_WPC,Raw,B,64.4,67.5,,,,,,-90,90,95,,95,,,,,,95,1,POR
Lynne Barlow,57,F,F_MEM_4_WPC,Multi-ply,B,49.2,52,,,,,,75,80,-85,,80,,,,,,80,1,USA
Kathy Wetenhall,63,F,F_MEM_5_WPC,Multi-ply,B,79.6,82.5,,,,,,87.5,90,,,90,,,,,,90,1,USA
Linda Koos,62,F,F_MEM_5_WPC,Multi-ply,B,96.8,90+,,,,,,42.5,52.5,-62.5,,52.5,,,,,,52.5,1,USA
Kathy Wetenhall,63,F,F_MES_5_WPC,Single-ply,B,79.6,82.5,,,,,,77.5,82.5,,,82.5,,,,,,82.5,1,USA
Genevieve Elizabeth Anderson,42,F,F_MR_1_WPC,Raw,B,65.2,67.5,,,,,,-87.5,87.5,-90,,87.5,,,,,,87.5,1,CAN
Kitty Wood,48,F,F_MR_2_WPC,Raw,B,55,56,,,,,,35,37.5,40,,40,,,,,,40,1,USA
Liz Dudek,58,F,F_MR_4_WPC,Raw,B,59,60,,,,,,73,75,-77.5,,75,,,,,,75,1,USA
Kathy Wetenhall,63,F,F_MR_5_WPC,Raw,B,79.6,82.5,,,,,,65,-75.5,,,65,,,,,,65,1,USA
Janet Sink,73,F,F_MR_7_WPC,Raw,B,90.2,90+,,,,,,45,47.5,-50,,47.5,,,,,,47.5,1,USA
April Brnabic,39,F,F_OR_WPC,Raw,B,66.2,67.5,,,,,,87.5,97.5,-102.5,,97.5,,,,,,97.5,1,USA
Svetlana Sinacheva,49,F,F_OR_WPC,Raw,B,78,82.5,,,,,,107.5,112.5,-117.5,,112.5,,,,,,112.5,1,RUS
Reagan Cress,19,F,F_TEM_3_WPC,Multi-ply,B,64.4,67.5,,,,,,92.5,-102.5,,,92.5,,,,,,92.5,1,USA
Sadie Zaunbrecher,17,F,F_TES_2_WPC,Single-ply,B,51.4,52,,,,,,47.5,60,-67.5,,60,,,,,,60,1,USA
Kailey Spires,16,F,F_TR_1_WPC,Raw,B,59.8,60,,,,,,62.5,65,67.5,70,67.5,,,,,,67.5,1,USA
Neil John Stewart,41,M,M_MEM_1_WPC,Multi-ply,B,98.6,100,,,,,,157.5,162.5,172.5,,172.5,,,,,,172.5,1,GBR
Vladimir Omelkov,46,M,M_MEM_1_WPC,Multi-ply,B,106.2,110,,,,,,-255,-255,255,,255,,,,,,255,1,RUS
Marvin Coleman,48,M,M_MEM_2_WPC,Multi-ply,B,89.8,90,,,,,,185,212.5,227.5,,227.5,,,,,,227.5,1,USA
Dmitry Gorbachev,46,M,M_MEM_2_WPC,Multi-ply,B,112.2,125,,,,,,275,-300,-310,,275,,,,,,275,1,RUS
John LaComb,49,M,M_MEM_2_WPC,Multi-ply,B,126,140,,,,,,125,227.5,-255,,227.5,,,,,,227.5,1,USA
John Fukuda,51,M,M_MEM_3_WPC,Multi-ply,B,84.8,90,,,,,,-165,165,-190,,165,,,,,,165,1,USA
John Dietrich,50,M,M_MEM_3_WPC,Multi-ply,B,104.4,110,,,,,,190,195,200,,200,,,,,,200,1,CAN
Rick Lawrence,51,M,M_MEM_3_WPC,Multi-ply,B,113.6,125,,,,,,-205,205,,,205,,,,,,205,1,USA
Eric Hubbs,52,M,M_MEM_3_WPC,Multi-ply,B,126.6,140,,,,,,102.5,-282.5,-282.5,,102.5,,,,,,102.5,1,USA
Michel Fauque,57,M,M_MEM_4_WPC,Multi-ply,B,73,75,,,,,,140,-145,145,,145,,,,,,145,1,FRA
Didier Theux,58,M,M_MEM_4_WPC,Multi-ply,B,82.2,82.5,,,,,,215,225,-232.5,,225,,,,,,225,1,FRA
Les Fleiszig,59,M,M_MEM_4_WPC,Multi-ply,B,81.8,82.5,,,,,,147.5,155,160,,160,,,,,,160,2,CAN
Alain-Francis Mattei,61,M,M_MEM_5_WPC,Multi-ply,B,89.8,90,,,,,,140,160,180,-190,180,,,,,,180,1,FRA
Dave Murphy,61,M,M_MEM_5_WPC,Multi-ply,B,105.6,110,,,,,,245,-250,,,245,,,,,,245,1,USA
Jim Wentenhall,62,M,M_MEM_5_WPC,Multi-ply,B,122.8,125,,,,,,-157.5,-157.5,-157.5,,,,,,,,,DQ,USA
Scott Saluzzi,67,M,M_MEM_6_WPC,Multi-ply,B,99.8,100,,,,,,200,-215,-227.5,,200,,,,,,200,1,USA
Tom Nelson,67,M,M_MEM_6_WPC,Multi-ply,B,126.3,140,,,,,,162.5,-167.5,167.5,-170,167.5,,,,,,167.5,1,USA
Lee Lichtle,72,M,M_MEM_7_WPC,Multi-ply,B,83,90,,,,,,150,155.5,160,-162.5,160,,,,,,160,1,USA
Jay Shubel,70,M,M_MEM_7_WPC,Multi-ply,B,97.2,100,,,,,,95,-102.5,105,,105,,,,,,105,1,USA
William Roberts,74,M,M_MEM_7_WPC,Multi-ply,B,105.6,110,,,,,,92.5,,,,92.5,,,,,,92.5,1,USA
Vincent Eldin,44,M,M_MES_1_WPC,Single-ply,B,73.6,75,,,,,,170,181,185,,185,,,,,,185,1,FRA
Denis Tomsin,43,M,M_MES_1_WPC,Single-ply,B,74.2,75,,,,,,150,160,-165,,160,,,,,,160,2,FRA
Paul Morgan,43,M,M_MES_1_WPC,Single-ply,B,89.6,90,,,,,,-180,187.5,-200,,187.5,,,,,,187.5,1,GBR
Greg Alvarado,43,M,M_MES_1_WPC,Single-ply,B,117,125,,,,,,227.5,240,250,,250,,,,,,250,1,USA
Oleg Pivovarov,53,M,M_MES_3_WPC,Single-ply,B,108,110,,,,,,230,237.5,-242.5,,237.5,,,,,,237.5,1,RUS
Howard Penrose,50,M,M_MES_3_WPC,Single-ply,B,150.4,140+,,,,,,200,210,220,227.5,220,,,,,,220,1,USA
Mark Eichenseer,59,M,M_MES_4_WPC,Single-ply,B,81.2,82.5,,,,,,-165.5,167.5,,,167.5,,,,,,167.5,1,USA
Bruce McIntyre,59,M,M_MES_4_WPC,Single-ply,B,98.6,100,,,,,,200,213,,,213,,,,,,213,1,CAN
Tony Bartolomei,58,M,M_MES_4_WPC,Single-ply,B,108.6,110,,,,,,192.5,205,-215,,205,,,,,,205,1,USA
Robert Dye,63,M,M_MES_5_WPC,Single-ply,B,74,75,,,,,,130,140,-150,,140,,,,,,140,1,USA
Klaus Krüger,64,M,M_MES_5_WPC,Single-ply,B,89.2,90,,,,,,150,-160,160,,160,,,,,,160,1,GER
Dave Murphy,61,M,M_MES_5_WPC,Single-ply,B,108,110,,,,,,115,227.5,232.5,,232.5,,,,,,232.5,1,USA
Ulrich Vetter,64,M,M_MES_5_WPC,Single-ply,B,106.8,110,,,,,,180,190,-200,,190,,,,,,190,2,GER
Jim Wentenhall,62,M,M_MES_5_WPC,Single-ply,B,122.8,125,,,,,,147.5,155,160,,160,,,,,,160,1,USA
Vince Breaux,71,M,M_MES_7_WPC,Single-ply,B,97.2,100,,,,,,160,165,172.5,-175,172.5,,,,,,172.5,1,USA
William Roberts,74,M,M_MES_7_WPC,Single-ply,B,105.6,110,,,,,,92.5,-122.5,122.5,,122.5,,,,,,122.5,1,USA
Vincent Eldin,44,M,M_MR_1_WPC,Raw,B,73.6,75,,,,,,130,135,140,,140,,,,,,140,1,FRA
Denis Tomsin,43,M,M_MR_1_WPC,Raw,B,74.2,75,,,,,,130,135,-140,,135,,,,,,135,2,FRA
Bobby Body,42,M,M_MR_1_WPC,Raw,B,81.2,82.5,,,,,,180,190,195,,195,,,,,,195,1,USA
Monquil Parks,40,M,M_MR_1_WPC,Raw,B,81,82.5,,,,,,180,182.5,185,,185,,,,,,185,2,USA
Paul Morgan,43,M,M_MR_1_WPC,Raw,B,89.6,90,,,,,,155,165,,,165,,,,,,165,1,GBR
Cory Henry,40,M,M_MR_1_WPC,Raw,B,107.2,110,,,,,,212.5,222.5,-225,,222.5,,,,,,222.5,1,USA
Petri Salonen,41,M,M_MR_1_WPC,Raw,B,118,125,,,,,,180,187.5,192.5,,192.5,,,,,,192.5,1,FIN
Jason Allen,42,M,M_MR_1_WPC,Raw,B,111,125,,,,,,167.5,182.5,190,,190,,,,,,190,2,USA
Michael Krause,48,M,M_MR_2_WPC,Raw,B,74.6,75,,,,,,170.5,175,-182.5,,175,,,,,,175,1,CAN
Kent Spires,45,M,M_MR_2_WPC,Raw,B,88.8,90,,,,,,227.5,233,-235,,233,,,,,,233,1,USA
Dickie Spiroff,47,M,M_MR_2_WPC,Raw,B,107.8,110,,,,,,212.5,222.5,-227.5,,222.5,,,,,,222.5,1,USA
Eric Platel,45,M,M_MR_2_WPC,Raw,B,109.8,110,,,,,,195,-207.5,-207.5,,195,,,,,,195,2,FRA
David Martinez #1,46,M,M_MR_2_WPC,Raw,B,120.8,125,,,,,,-215,-215,217.5,-232.5,217.5,,,,,,217.5,1,USA
Andrew Jeleniewski,49,M,M_MR_2_WPC,Raw,B,119.2,125,,,,,,202.5,215,-227.5,,215,,,,,,215,2,USA
Dmitry Gorbachev,46,M,M_MR_2_WPC,Raw,B,112.2,125,,,,,,195,207.5,-215,,207.5,,,,,,207.5,3,RUS
Sean Blackburn,48,M,M_MR_2_WPC,Raw,B,112,125,,,,,,185,-197.5,-197.5,,185,,,,,,185,4,GBR
Hervé Gainche,45,M,M_MR_2_WPC,Raw,B,125.6,140,,,,,,150,160,,,160,,,,,,160,1,FRA
David Gibson,50,M,M_MR_3_SO_WPC,Raw,B,90.6,100,,,,,,135,142.5,147.5,150,147.5,,,,,,147.5,1,GBR
Anatoly Nefëdov,53,M,M_MR_3_WPC,Raw,B,70,75,,,,,,130,140,150,,150,,,,,,150,1,RUS
David Pennington,50,M,M_MR_3_WPC,Raw,B,97.2,100,,,,,,160,170,175,,175,,,,,,175,1,GBR
Bill Trimble,51,M,M_MR_3_WPC,Raw,B,94.6,100,,,,,,147.5,160,-170,,160,,,,,,160,2,USA
David Gibson,50,M,M_MR_3_WPC,Raw,B,90.6,100,,,,,,135,142.5,147.5,150,147.5,,,,,,147.5,3,GBR
John Dietrich,50,M,M_MR_3_WPC,Raw,B,104.4,110,,,,,,140,145,150,,150,,,,,,150,1,CAN
Andrei Miasnikov,51,M,M_MR_3_WPC,Raw,B,115.8,125,,,,,,160,170,180,,180,,,,,,180,1,RUS
David Earp,53,M,M_MR_3_WPC,Raw,B,126.2,140,,,,,,142.5,157.5,162.5,,162.5,,,,,,162.5,1,USA
Michel Fauque,57,M,M_MR_4_WPC,Raw,B,73,75,,,,,,-110,-110,,,,,,,,,,DQ,FRA
Yuriy Osadchenko,55,M,M_MR_4_WPC,Raw,B,81.4,82.5,,,,,,165,-175,-175,,165,,,,,,165,1,UKR
Les Fleiszig,59,M,M_MR_4_WPC,Raw,B,81.8,82.5,,,,,,120,127.5,-135,,127.5,,,,,,127.5,2,CAN
Bruce McIntyre,59,M,M_MR_4_WPC,Raw,B,98.6,100,,,,,,165,172.5,-182.5,,172.5,,,,,,172.5,1,CAN
John Wenz,56,M,M_MR_4_WPC,Raw,B,115.4,125,,,,,,152.5,-157.5,-157.5,,152.5,,,,,,152.5,1,USA
Thomas Proya,61,M,M_MR_5_WPC,Raw,B,84.8,90,,,,,,165,180,185,187.5,185,,,,,,185,1,USA
Alain-Francis Mattei,61,M,M_MR_5_WPC,Raw,B,89.8,90,,,,,,-100,100,120,,120,,,,,,120,2,FRA
Ben Mata,61,M,M_MR_5_WPC,Raw,B,124.8,125,,,,,,152.5,157.5,-165,,157.5,,,,,,157.5,1,USA
Jim Wetenhall,63,M,M_MR_5_WPC,Raw,B,122.8,125,,,,,,122.5,,,,122.5,,,,,,122.5,2,USA
Jay Shubel,70,M,M_MR_7_WPC,Raw,B,97.2,100,,,,,,-60,60,,,60,,,,,,60,1,USA
William Roberts,74,M,M_MR_7_WPC,Raw,B,105.6,110,,,,,,92.5,,,,92.5,,,,,,92.5,1,USA
Ian Scott,79,M,M_MR_8_WPC,Raw,B,81,82.5,,,,,,110,112.5,115.5,117.5,115.5,,,,,,115.5,1,USA
Richard Davalle,33,M,M_OR_WPC,Raw,B,50.2,52,,,,,,115,120,125,,125,,,,,,125,1,FRA
Jeron Roberson,34,M,M_OR_WPC,Raw,B,55.8,56,,,,,,115,125,-130,,125,,,,,,125,1,USA
Victor Gomez Jr,25,M,M_OR_WPC,Raw,B,62.6,67.5,,,,,,65,75,-80,,75,,,,,,75,1,MEX
Ramin Rzayev,36,M,M_OR_WPC,Raw,B,74.6,75,,,,,,180,-190,-190,,180,,,,,,180,1,AZE
Michael Krause,48,M,M_OR_WPC,Raw,B,74.6,75,,,,,,170.5,175,-182.5,,175,,,,,,175,2,CAN
Niko Kaipainen,27,M,M_OR_WPC,Raw,B,74.4,75,,,,,,155,172.5,-180,,172.5,,,,,,172.5,3,FIN
Jared Nemeth,25,M,M_OR_WPC,Raw,B,72.6,75,,,,,,120,127.5,-142.5,,127.5,,,,,,127.5,4,CAN
Bobby Body,42,M,M_OR_WPC,Raw,B,81.2,82.5,,,,,,180,190,195,,195,,,,,,195,1,USA
Monquil Parks,40,M,M_OR_WPC,Raw,B,81,82.5,,,,,,180,182.5,185,,185,,,,,,185,2,USA
Vitalii Danilov,26,M,M_OR_WPC,Raw,B,82.4,82.5,,,,,,145,152.5,-155,,152.5,,,,,,152.5,3,RUS
Kent Spires,45,M,M_OR_WPC,Raw,B,88.8,90,,,,,,227.5,233,-235,,233,,,,,,233,1,USA
Sergii Didovyk,38,M,M_OR_WPC,Raw,B,99.2,100,,,,,,210,220,,,220,,,,,,220,1,UKR
Xavier Levalois,37,M,M_OR_WPC,Raw,B,94.4,100,,,,,,190,205,-222.5,,205,,,,,,205,2,FRA
Chad Witkowski,35,M,M_OR_WPC,Raw,B,98.4,100,,,,,,170,-182.5,-182.5,,170,,,,,,170,3,USA
Cory Henry,40,M,M_OR_WPC,Raw,B,107.2,110,,,,,,212.5,222.5,-225,,222.5,,,,,,222.5,1,USA
Brandon Conley,27,M,M_OR_WPC,Raw,B,107.8,110,,,,,,-215,217.5,-225,,217.5,,,,,,217.5,2,USA
David Zigler,35,M,M_OR_WPC,Raw,B,107.8,110,,,,,,200,-217.5,-220,,200,,,,,,200,3,USA
John Draher,40,M,M_OR_WPC,Raw,B,115.6,125,,,,,,232.5,250,-267.5,,250,,,,,,250,1,USA
Shahin Eyvazov,34,M,M_OR_WPC,Raw,B,126.2,140,,,,,,190,202.5,210,,210,,,,,,210,1,AZE
Eric Poplar,37,M,M_OR_WPC,Raw,B,130.6,140,,,,,,190,195,-202.5,,195,,,,,,195,2,USA
Joseph Dupre,16,M,M_TES_2_WPC,Single-ply,B,51.4,52,,,,,,47.5,57.5,60,65,60,,,,,,60,1,USA
Kirill Garkavyy,15,M,M_TR_1_WPC,Raw,B,69.4,75,,,,,,97.5,100,-102.5,,100,,,,,,100,1,RUS
Mikhail Rapoport,16,M,M_TR_2_WPC,Raw,B,66.8,67.5,,,,,,117.5,127.5,-130,,127.5,,,,,,127.5,1,LAT
Guillaume Paoli,18,M,M_TR_3_WPC,Raw,B,79.8,82.5,,,,,,-127.5,127.5,-140,,127.5,,,,,,127.5,1,FRA
Breanna Gurzynski,20,F,F_JEM_WPC,Multi-ply,B,148.2,90+,,,,,,-140,-145,145,160,145,,,,,,145,1,USA
Tara Rae Dorothy Green,27,F,F_OEM_WPC,Multi-ply,B,74.6,75,,,,,,155,167.5,-182.5,,167.5,,,,,,167.5,1,CAN
Emma Ylitalo-James,46,F,F_OES_WPC,Single-ply,B,81.4,82.5,,,,,,-192.5,-197.5,197.5,-205,197.5,,,,,,197.5,1,GBR
Melissa D'Errico,35,F,F_OES_WPC,Single-ply,B,127,90+,,,,,,132.5,137.5,142.5,145,142.5,,,,,,142.5,1,USA
Forrest Grivetti,21,M,M_JEM_WPC,Multi-ply,B,80.6,82.5,,,,,,202.5,220,-227.5,,220,,,,,,220,1,USA
Niko Kaipainen,27,M,M_OEM_WPC,Multi-ply,B,74.6,75,,,,,,-215,215,-240,,215,,,,,,215,1,FIN
Mike Bingham,51,M,M_OEM_WPC,Multi-ply,B,81.1,82.5,,,,,,-275,,,,,,,,,,,DQ,USA
Valentin Cacici,26,M,M_OEM_WPC,Multi-ply,B,82.4,82.5,,,,,,252.5,-260,-265,,252.5,,,,,,252.5,1,FRA
Bayram Aliyev,31,M,M_OEM_WPC,Multi-ply,B,89.2,90,,,,,,235,242.5,255,,255,,,,,,255,1,AZE
Pieter Flamme,32,M,M_OEM_WPC,Multi-ply,B,89.4,90,,,,,,220,-230,-230,,220,,,,,,220,2,FRA
Sergii Didovyk,38,M,M_OEM_WPC,Multi-ply,B,99.6,100,,,,,,290,300,-310,,300,,,,,,300,1,UKR
Eldar Mammadov,38,M,M_OEM_WPC,Multi-ply,B,99.4,100,,,,,,260,270,-280,,270,,,,,,270,2,AZE
Petteri Hosio,37,M,M_OEM_WPC,Multi-ply,B,109.6,110,,,,,,-350,-350,-350,,,,,,,,,DQ,FIN
David Sean Bennett,33,M,M_OEM_WPC,Multi-ply,B,118.4,125,,,,,,210,-222.5,-222.5,,210,,,,,,210,1,CAN
Tom Waldrep,52,M,M_OES_WPC,Single-ply,B,99.8,100,,,,,,-337.5,-337.5,-337.5,,,,,,,,,DQ,USA
Antonio Solís,33,M,M_OES_WPC,Single-ply,B,98,100,,,,,,180,195,202.5,,202.5,,,,,,202.5,1,MEX
Oleg Pivovarov,53,M,M_OES_WPC,Single-ply,B,109,110,,,,,,225,235,-240,,235,,,,,,235,1,RUS
John Clay,36,M,M_OES_WPC,Single-ply,B,107.4,110,,,,,,177.5,-197.5,202.5,,202.5,,,,,,202.5,2,USA
Kalle Ylitalo-James,33,M,M_OES_WPC,Single-ply,B,125,125,,,,,,312.5,322.5,-332.5,,322.5,,,,,,322.5,1,FIN
Vladimir Omelkov,46,M,M_OR_WPC,Raw,B,106,110,,,,,,250,-257.5,,,250,,,,,,250,1,RUS
Patricia Santos,23,F,F_JR_WPC,Raw,D,65,67.5,,,,,,,,,,,170,180,185,190,185,185,1,POR
Linda Koos,62,F,F_MEM_5_WPC,Multi-ply,D,97.8,90+,,,,,,,,,,,60,70,-77.5,,70,70,1,USA
Genevieve Elizabeth Anderson,42,F,F_MR_1_WPC,Raw,D,66.2,67.5,,,,,,,,,,,-130,145,-155,,145,145,1,CAN
Tera Kinnane,40,F,F_MR_1_WPC,Raw,D,109.8,90+,,,,,,,,,,,157.5,170,-177.5,,170,170,1,USA
Birgit Elssner,40,F,F_MR_1_WPC,Raw,D,151.4,90+,,,,,,,,,,,150,-165,-165,,150,150,2,CAN
Noela Read,74,F,F_MR_7_WPC,Raw,D,50,52,,,,,,,,,,,80,82.5,85,,85,85,1,AUS
April Brnabic,39,F,F_OR_WPC,Raw,D,66.6,67.5,,,,,,,,,,,160,170,180,,180,180,1,USA
Sheryl A Whetham,54,F,F_OR_WPC,Raw,D,80,82.5,,,,,,,,,,,185,-195,-200,,185,185,1,CAN
Melissa D'Errico,35,F,F_OR_WPC,Raw,D,127,90+,,,,,,,,,,,132.5,140,142.5,145,142.5,142.5,1,USA
Christina Ridgel,14,F,F_TES_1_WPC,Single-ply,D,47,48,,,,,,,,,,,102.5,110,-125,,110,110,1,USA
Sadie Zaunbrecher,17,F,F_TES_2_WPC,Single-ply,D,51.8,52,,,,,,,,,,,87.5,110,120,-127.5,120,120,1,USA
Forrest Grivetti,21,M,M_JES_WPC,Single-ply,D,82.8,90,,,,,,,,,,,190,210,-220,,210,210,1,USA
Andrew Ottaway,22,M,M_JR_WPC,Raw,D,89.6,90,,,,,,,,,,,-327.5,-340,-340,,,,DQ,USA
Tamás Molnár,41,M,M_MEM_1_WPC,Multi-ply,D,99.4,100,,,,,,,,,,,320,,,,320,320,1,HUN
Zarebahramabdi Reza,44,M,M_MEM_1_WPC,Multi-ply,D,94.8,100,,,,,,,,,,,-305,-305,305,,305,305,2,IRN
Neil John Stewart,41,M,M_MEM_1_WPC,Multi-ply,D,103.8,110,,,,,,,,,,,257.5,265,270,,270,270,1,GBR
Yuriy Ustinov,41,M,M_MEM_1_WPC,Multi-ply,D,102,110,,,,,,,,,,,230,255,,,255,255,2,RUS
John Fukuda,51,M,M_MEM_3_WPC,Multi-ply,D,84.6,90,,,,,,,,,,,215,-242.5,-242.5,,215,215,1,USA
Didier Theux,58,M,M_MEM_4_WPC,Multi-ply,D,82.2,82.5,,,,,,,,,,,200,235,250,-260,250,250,1,FRA
Dick Zenzen,64,M,M_MEM_5_WPC,Multi-ply,D,124,125,,,,,,,,,,,152.5,182.5,-210.5,,182.5,182.5,1,USA
Ernesto Milian,69,M,M_MEM_6_WPC,Multi-ply,D,53.6,56,,,,,,,,,,,-152.5,152.5,162.5,,162.5,162.5,1,USA
Billy Davenport,73,M,M_MEM_7_WPC,Multi-ply,D,97.4,100,,,,,,,,,,,200,217.5,-227.5,,217.5,217.5,1,USA
William Roberts,74,M,M_MEM_7_WPC,Multi-ply,D,106,110,,,,,,,,,,,137.5,,,,137.5,137.5,1,USA
Tamas Moinar,41,M,M_MES_1_WPC,Single-ply,D,99.4,100,,,,,,,,,,,300,310,,,310,310,1,HUN
Trey Love,48,M,M_MES_2_WPC,Single-ply,D,118.6,125,,,,,,,,,,,327.5,-345,-345,,327.5,327.5,1,USA
Cliff Shipley,57,M,M_MES_4_WPC,Single-ply,D,75.4,82.5,,,,,,,,,,,142.5,185,200,,200,200,1,USA
Mark Eichenseer,59,M,M_MES_4_WPC,Single-ply,D,83.6,90,,,,,,,,,,,227.5,-250,,,227.5,227.5,1,USA
Vince Breaux,71,M,M_MES_7_WPC,Single-ply,D,97.6,100,,,,,,,,,,,187.5,200,210,,210,210,1,USA
William Roberts,74,M,M_MES_7_WPC,Single-ply,D,106,110,,,,,,,,,,,137.5,150,,,150,150,1,USA
Zarebahraamabdi Reza,44,M,M_MR_1_WPC,Raw,D,94.8,100,,,,,,,,,,,285,300,310,,310,310,1,IRN
Randall Crooks,44,M,M_MR_1_WPC,Raw,D,91.8,100,,,,,,,,,,,270,285,-292.5,,285,285,2,GBR
Aguayev Rufat,41,M,M_MR_1_WPC,Raw,D,125,125,,,,,,,,,,,325,350,360,,360,360,1,AZE
Jean-Philippe Carene,41,M,M_MR_1_WPC,Raw,D,121.8,125,,,,,,,,,,,290,-300,-300,,290,290,2,FRA
Petri Salonen,41,M,M_MR_1_WPC,Raw,D,118,125,,,,,,,,,,,240,262.5,,,262.5,262.5,3,FIN
Elchin Mammadov,46,M,M_MR_2_WPC,Raw,D,107.6,110,,,,,,,,,,,300,322.5,332.5,,332.5,332.5,1,AZE
Jonathan Drummond,50,M,M_MR_3_WPC,Raw,D,127.6,140,,,,,,,,,,,265,297.5,-325,,297.5,297.5,1,USA
George Cliff Shipley,57,M,M_MR_4_WPC,Raw,D,75.4,82.5,,,,,,,,,,,185,-210.5,,,185,185,1,USA
Anatolii Evgrafov,56,M,M_MR_4_WPC,Raw,D,117.6,125,,,,,,,,,,,250,260,275,,275,275,1,RUS
John Wenz,55,M,M_MR_4_WPC,Raw,D,116.2,125,,,,,,,,,,,245,257.5,-272.5,,257.5,257.5,2,USA
Arthur Little,61,M,M_MR_5_WPC,Raw,D,72.4,75,,,,,,,,,,,235,-245,,,235,235,1,USA
Arthur Goebel,65,M,M_MR_6_WPC,Raw,D,97,100,,,,,,,,,,,142.5,152.5,-162.5,,152.5,152.5,1,USA
Willam Allen,70,M,M_MR_7_WPC,Raw,D,81.4,82.5,,,,,,,,,,,125,137.5,145,147.5,145,145,1,USA
William Roberts,74,M,M_MR_7_WPC,Raw,D,106,110,,,,,,,,,,,140,,,,140,140,1,USA
Musayev Rustam,38,M,M_OEM_WPC,Multi-ply,D,75,75,,,,,,,,,,,230,245,-260,,245,245,1,AZE
Tamás Molnár,41,M,M_OEM_WPC,Multi-ply,D,99.4,100,,,,,,,,,,,320,,,,320,320,1,HUN
Mikhail Grinko,38,M,M_OEM_WPC,Multi-ply,D,104.2,110,,,,,,,,,,,220,260,300,,300,300,1,RUS
Ahmadov Ramil,28,M,M_OES_WPC,Single-ply,D,89.2,90,,,,,,,,,,,270,300,,,300,300,1,AZE
Tamas Moinar,41,M,M_OES_WPC,Single-ply,D,99.4,100,,,,,,,,,,,300,310,,,310,310,1,HUN
John Clay,35,M,M_OES_WPC,Single-ply,D,107.4,110,,,,,,,,,,,230,245,252.5,,252.5,252.5,1,USA
David Sean Bennett,33,M,M_OES_WPC,Single-ply,D,118.4,125,,,,,,,,,,,290,307.5,-322.5,,307.5,307.5,1,CAN
Victor Gomez Jr,25,M,M_OR_WPC,Raw,D,63.6,67.5,,,,,,,,,,,100,125,145,,145,145,1,MEX
Arthur Little,61,M,M_OR_WPC,Raw,D,72.4,75,,,,,,,,,,,235,-245,,,235,235,1,USA
Jared Nemeth,25,M,M_OR_WPC,Raw,D,72.4,75,,,,,,,,,,,147.5,162.5,175,,175,175,2,CAN
Andrew Ottaway,22,M,M_OR_WPC,Raw,D,89.6,90,,,,,,,,,,,-327.5,-340,-340,,,,DQ,USA
Hafiz Verdiyev,26,M,M_OR_WPC,Raw,D,99.8,100,,,,,,,,,,,330,345,355,,355,355,1,AZE
Xavier Levalois,37,M,M_OR_WPC,Raw,D,99.2,100,,,,,,,,,,,260,280,-290,,280,280,2,FRA
Chad Ridgel,36,M,M_OR_WPC,Raw,D,92.8,100,,,,,,,,,,,230,250,-255,,250,250,3,USA
Gerard Frederic-Lama,34,M,M_OR_WPC,Raw,D,109,110,,,,,,,,,,,340,-350,-370,,340,340,1,FRA
Neal Dakmak,28,M,M_OR_WPC,Raw,D,109.6,110,,,,,,,,,,,302.5,322.5,335,,335,335,2,USA
Elchin Mammadov,46,M,M_OR_WPC,Raw,D,107.6,110,,,,,,,,,,,300,322.5,332.5,,332.5,332.5,3,AZE
Mikhail Grinko,38,M,M_OR_WPC,Raw,D,104.2,110,,,,,,,,,,,200,,,,200,200,4,RUS
Hristo Muskov,30,M,M_OR_WPC,Raw,D,121.8,125,,,,,,,,,,,330,350,-380.5,,350,350,1,BUL
Pierre-Emmanuel Jos,36,M,M_OR_WPC,Raw,D,165.4,140+,,,,,,,,,,,250,300,-320,,300,300,1,FRA
Solen Sheppard,15,M,M_TES_1_WPC,Single-ply,D,62.4,67.5,,,,,,,,,,,142.5,167.5,-182.5,,167.5,167.5,1,USA
Joseph Dupre,16,M,M_TES_2_WPC,Single-ply,D,51.6,52,,,,,,,,,,,102.5,130,-142.5,,130,130,1,USA
Justus Sheppard,17,M,M_TES_2_WPC,Single-ply,D,90,90,,,,,,,,,,,197.5,210,220,-227.5,220,220,1,USA
Michael Tiano,15,M,M_TR_1_WPC,Raw,D,73,75,,,,,,,,,,,142.5,-167.5,167.5,-182.5,167.5,167.5,1,USA
Ryan Banta,17,M,M_TR_2_WPC,Raw,D,49.8,52,,,,,,,,,,,85,92.5,110,-115,110,110,1,USA
Jennifer Gimmell,35,F,F_OEM_WPC,Multi-ply,SBD,90,90,207.5,230,240.5,,240.5,130,145,150,,150,165,182.5,185,,185,575.5,1,USA
Melissa D'Errico,35,F,F_OES_WPC,Single-ply,SBD,127.6,90+,140,142.5,147.5,150,147.5,140,145,147.5,-152.5,147.5,140,145,147.5,150,147.5,442.5,1,USA
Gary Reichert,56,M,M_OEM_WPC,Multi-ply,SBD,67.2,67.5,220,240,-260,,240,100,142.5,-152.5,,142.5,230,252.5,-272.5,,252.5,635,1,USA
Ramil Ahmadov,28,M,M_OEM_WPC,Multi-ply,SBD,90,90,325,-355,365,,365,225,235,242.5,,242.5,290,317.5,,,317.5,925,1,AZE
Robert Lee Johnson Jr,24,M,M_OEM_WPC,Multi-ply,SBD,87.2,90,340,-365,-365,,340,182.5,-200,-200,,182.5,300,-330,-330,,300,822.5,2,USA
Scott Kuderick,42,M,M_OEM_WPC,Multi-ply,SBD,89.6,90,305,-320,-365,,305,160,192.5,,,192.5,205,,,,205,702.5,3,USA
Matt Minuth,35,M,M_OEM_WPC,Multi-ply,SBD,99.2,100,-440,-440,440,,440,-397.5,-397.5,-397.5,,,,,,,,,DQ,USA
Mikko Matikainen,26,M,M_OEM_WPC,Multi-ply,SBD,99,100,300,320,330,,330,200,207.5,210,,210,230,260,-272.5,,260,800,1,FIN
Andrew Kreidler,31,M,M_OEM_WPC,Multi-ply,SBD,107,110,305,-327.5,327.5,,327.5,-190,190,-200,,190,260,272.5,287.5,,287.5,805,1,USA
Ahmed Joe Atef,40,M,M_OEM_WPC,Multi-ply,SBD,124.4,125,-377.5,-377.5,-377.5,,,,,,,,,,,,,,DQ,USA
Dave Hoff,28,M,M_OEM_WPC,Multi-ply,SBD,127.4,140,480,502.5,-525,,502.5,-437.5,-447.5,-460,,,,,,,,,DQ,USA
Tevaughn Romel Lee,21,M,M_OEM_WPC,Multi-ply,SBD,151.8,140+,382.5,-410,-410,,382.5,220,242.5,250,,250,272.5,282.5,292.5,,292.5,925,1,USA
Blasé Courville,19,M,M_OEM_WPC,Multi-ply,SBD,159.4,140+,307.5,320,335,,335,-292.5,300,312.5,-332.5,312.5,262.5,275,-285,,275,922.5,2,USA
Nikhil Vashist,25,M,M_OES_WPC,Single-ply,SBD,47.2,52,65,85,95,100.5,95,57.5,65,-70,,65,85,105,115,121,115,275,1,USA
Dillon Kotz,26,M,M_OES_WPC,Single-ply,SBD,89,90,260,272.5,282.5,,282.5,212.5,220,232.5,,232.5,220,242.5,257.5,,257.5,772.5,1,USA
Matthew Warr,37,M,M_OES_WPC,Single-ply,SBD,88.8,90,265,300,320,,320,150,-170,-170,,150,232.5,245,-257.5,,245,715,2,USA
Joseph Sonntag,26,M,M_OES_WPC,Single-ply,SBD,100,100,-387.5,-387.5,-410,,,,,,,,,,,,,,DQ,USA
Hafiz Verdiyev,26,M,M_OES_WPC,Single-ply,SBD,99.4,100,360,375,390,,390,260,275,285,,285,325,345,,,345,1020,1,AZE
Antonio Solís,33,M,M_OES_WPC,Single-ply,SBD,99.8,100,280,295,-305,,295,180,195,-202.5,,195,265,285,300,,300,790,2,MEX
Michael Sonntag,23,M,M_OES_WPC,Single-ply,SBD,91.4,100,-245,-245,245,,245,155,165,-182.5,,165,215,-227.5,-227.5,,215,625,3,USA
Joel Kennedy,32,M,M_OES_WPC,Single-ply,SBD,109.6,110,-302.5,302.5,-325,,302.5,-220,220,-230,,220,242.5,260,-272.5,,260,782.5,1,USA
John Clay,35,M,M_OES_WPC,Single-ply,SBD,107.8,110,265,277.5,-282.5,,277.5,180,197.5,202.5,-207.5,202.5,225,242.5,255,,255,735,2,USA
Henry Thomason,37,M,M_OES_WPC,Single-ply,SBD,122,125,417.5,-445,,,417.5,290,315,335,,335,282.5,315,-332.5,,315,1067.5,1,USA
Mohamed Said Ahmed Nasr,36,M,M_OES_WPC,Single-ply,SBD,133,140,305,325,-340,,325,200,225,235,,235,317.5,-340,340,,340,900,1,EGY
Dustin Slepicka,29,M,M_OES_WPC,Single-ply,SBD,189,140+,-435,455,-477.5,,455,250,-277.5,-277.5,,250,350,-372.5,,,350,1055,1,USA
