Place,Name,BirthYear,Country,BodyweightKg,Squat1Kg,Squat2Kg,Squat3Kg,Best3SquatKg,Bench1Kg,Bench2Kg,Bench3Kg,Best3BenchKg,Deadlift1Kg,Deadlift2Kg,Deadlift3Kg,Best3DeadliftKg,TotalKg,WeightClassKg,Division,Equipment,Sex,Event
1,Kirill Krut,1991,RUS,58.26,225,237.5,245,245,150,157.5,162.5,162.5,215,225,247.5,247.5,655,59,Open,Single-ply,M,SBD
2,Dariusz Wszoła,1978,POL,58.87,240,250,257.5,257.5,170,175,180,180,210,217.5,-222.5,217.5,655,59,Open,Single-ply,M,SBD
3,Pawel Osmialowski,1977,POL,58.87,200,210,220,220,120,130,-140,130,190,-205,205,205,555,59,Open,Single-ply,M,SBD
4,Radu Raica,1986,ROU,58.51,100,115,125,125,95,-100,-100,95,125,140,,140,360,59,Open,Single-ply,M,SBD
1,Konstantin Danilov,1986,RUS,65.71,285,300,310,310,182.5,187.5,190,190,257.5,-267.5,270,270,770,66,Open,Single-ply,M,SBD
2,Mariusz Grotkowski,1989,POL,65.91,270,280,285,285,210,217.5,220.5,220.5,250,260,262.5,262.5,768,66,Open,Single-ply,M,SBD
3,Hassan El Belghiti,1975,FRA,65.75,275,-292.5,-295,275,162.5,-167.5,-167.5,162.5,285,295,,295,732.5,66,Open,Single-ply,M,SBD
4,Salvatore Pisasale,1980,ITA,65.58,255,265,272.5,272.5,187.5,195,200,200,220,230,-240,230,702.5,66,Open,Single-ply,M,SBD
5,Nicola Signani,1981,ITA,65.1,215,-225,225,225,-180,-180,180,180,222.5,230,235,235,640,66,Open,Single-ply,M,SBD
6,Karel Ruso,1965,CZE,65.91,210,222.5,232.5,232.5,85,90,92.5,92.5,200,215,220,220,545,66,Open,Single-ply,M,SBD
1,Valeriy Prokopyev,2001,RUS,52.89,150,170,185,185,100,-105,110,110,150,-170,-177.5,150,445,53,Sub-Juniors,Single-ply,M,SBD
1,Jakub Jedrzejewski,2001,POL,58.7,-140,-140,140,140,115,130,135,135,150,-160,-162.5,150,425,59,Sub-Juniors,Single-ply,M,SBD
2,Linas Abakas,2000,LTU,58.36,125,132.5,-137.5,132.5,100,105,-107.5,105,140,150,160,160,397.5,59,Sub-Juniors,Single-ply,M,SBD
1,Denis Olefir,1999,RUS,65.88,260,275,290.5,290.5,150,157.5,-160,157.5,230,240,-245,240,688,66,Sub-Juniors,Single-ply,M,SBD
2,Nojus Cypas,2000,LTU,65.57,175,185,-197.5,185,100,110,117.5,117.5,230,242.5,-261,242.5,545,66,Sub-Juniors,Single-ply,M,SBD
3,Grzegorz Gwiazdoń,2000,POL,65.82,-130,130,-140,130,75,82.5,-87.5,82.5,180,195,-200,195,407.5,66,Sub-Juniors,Single-ply,M,SBD
1,Lukas Kacinskas,2000,LTU,73.03,190,210,220,220,110,122.5,127.5,127.5,220,240,-252.5,240,587.5,74,Sub-Juniors,Single-ply,M,SBD
2,Catalin Buciuman,1999,ROU,70.95,160,185,200,200,140,152.5,162.5,162.5,170,192.5,205,205,567.5,74,Sub-Juniors,Single-ply,M,SBD
3,Deividas Virbalas,1999,LTU,71.9,180,200,205,205,115,125,-130,125,180,-205,-207.5,180,510,74,Sub-Juniors,Single-ply,M,SBD
1,Matej Priscak,2000,SVK,81.73,260,285,-290,285,140,-147.5,-147.5,140,237.5,-242.5,255,255,680,83,Sub-Juniors,Single-ply,M,SBD
2,Artem Kruhlik,1999,UKR,81.37,260,270,-277.5,270,155,165,170,170,225,232.5,237.5,237.5,677.5,83,Sub-Juniors,Single-ply,M,SBD
3,Mark Dyachenko,2000,RUS,82.48,240,255,265,265,105,110,112.5,112.5,240,255,-280,255,632.5,83,Sub-Juniors,Single-ply,M,SBD
4,Aleš Krušina,1999,CZE,81.84,-230,235,-250,235,-140,-140,140,140,200,-217.5,217.5,217.5,592.5,83,Sub-Juniors,Single-ply,M,SBD
1,Ivan Talko,1999,RUS,92,265,275,285,285,165,170,172.5,172.5,245,255,260,260,717.5,93,Sub-Juniors,Single-ply,M,SBD
2,Simon Berg Rasmussen,1999,DEN,91.8,235,242.5,250,250,157.5,-165,170,170,235,245,-255,245,665,93,Sub-Juniors,Single-ply,M,SBD
3,Artem Shevchenko,1999,UKR,91.84,245,260,-272.5,260,125,130,135,135,222.5,237.5,257.5,257.5,652.5,93,Sub-Juniors,Single-ply,M,SBD
4,Mark Kihu,2000,EST,85.11,210,225,235,235,115,120,-125,120,230,-245,245,245,600,93,Sub-Juniors,Single-ply,M,SBD
1,Wojciech Grupiński,1999,POL,103.93,280,-290,-290,280,-180,180,190,190,250,265,275,275,745,105,Sub-Juniors,Single-ply,M,SBD
2,Jacopo Greco,2000,ITA,102.5,282.5,292.5,300,300,157.5,162.5,167.5,167.5,255,267.5,-277.5,267.5,735,105,Sub-Juniors,Single-ply,M,SBD
3,Martin Prokop,1999,CZE,104.05,270,280,292.5,292.5,162.5,172.5,-182.5,172.5,200,215,222.5,222.5,687.5,105,Sub-Juniors,Single-ply,M,SBD
4,Tomáš Novák,1999,CZE,104.64,-265,265,275,275,160,-165,170,170,200,210,220,220,665,105,Sub-Juniors,Single-ply,M,SBD
5,Semen Dukshanin,2000,RUS,104.66,245,-260,275,275,-150,150,-157.5,150,225,240,-265,240,665,105,Sub-Juniors,Single-ply,M,SBD
1,Viktor Holinei,2000,UKR,119.63,290,310,-328,310,200,210,220,220,245,260,270,270,800,120,Sub-Juniors,Single-ply,M,SBD
2,Mihkel Ruut,1999,EST,105.45,185,200,212.5,212.5,145,165,-175,165,220,240,-245,240,617.5,120,Sub-Juniors,Single-ply,M,SBD
1,Ihor Orobets,2000,UKR,120.71,190,200,210,210,145,155,165,165,190,205,215,215,590,120+,Sub-Juniors,Single-ply,M,SBD
1,Vladimir Kolotov,1997,RUS,53,180,195,-202.5,195,95,102.5,110,110,150,170,-180,170,475,53,Juniors,Single-ply,M,SBD
1,Saveliy Kirimeyskiy,1996,RUS,58.96,205,220,227.5,227.5,110,122.5,130,130,190,200,212.5,212.5,570,59,Juniors,Single-ply,M,SBD
2,Gennadiy Sokolov,1994,RUS,58.56,185,195,202.5,202.5,110,120,127.5,127.5,190,200,-212.5,200,530,59,Juniors,Single-ply,M,SBD
1,Volodymyr Halkin,1995,UKR,65.52,-245,245,255,255,147.5,152.5,155,155,250,-265,-265,250,660,66,Juniors,Single-ply,M,SBD
2,Ruslan Ruzimuradov,1998,UKR,65.99,230,242.5,255,255,175,182.5,187.5,187.5,215,-232.5,-235,215,657.5,66,Juniors,Single-ply,M,SBD
3,Dmitry Chubarov,1996,RUS,66,242.5,-247.5,-247.5,242.5,150,157.5,-160,157.5,240,-252.5,-262.5,240,640,66,Juniors,Single-ply,M,SBD
4,Gheorghe Moise,1995,ROU,64.15,245,-252.5,-252.5,245,140,-147.5,152.5,152.5,210,217.5,,217.5,615,66,Juniors,Single-ply,M,SBD
5,Tautvydas Variakojis,1998,LTU,65.3,180,-185,,180,130,137.5,-147.5,137.5,210,222.5,232.5,232.5,550,66,Juniors,Single-ply,M,SBD
1,Alexander Eriksson,1994,SWE,73.78,290,-305,305,305,-215,215,-225,215,265,280,-292.5,280,800,74,Juniors,Single-ply,M,SBD
2,Vladislav Leontyev,1994,RUS,73.7,285,-295,300,300,182.5,190,-197.5,190,255,265,-280,265,755,74,Juniors,Single-ply,M,SBD
3,Vladislav Chornyi,1997,UKR,73.64,285,-305,-305,285,157.5,162.5,165,165,255,270,-285,270,720,74,Juniors,Single-ply,M,SBD
4,Laurentiu Avram,1995,ROU,73.62,220,-232.5,232.5,232.5,167.5,-177.5,-182.5,167.5,215,227.5,235,235,635,74,Juniors,Single-ply,M,SBD
5,Marius Brito,1994,POL,73.29,230,,,230,-135,-135,135,135,220,245,252.5,252.5,617.5,74,Juniors,Single-ply,M,SBD
6,Albertas Motiecius,1994,LTU,72.12,200,210,217.5,217.5,180,-185,-185,180,200,210,217.5,217.5,615,74,Juniors,Single-ply,M,SBD
7,Javier Ruiz Barrionuevo,1997,ESP,71.89,190,-200,-205,190,-110,110,115,115,200,210,-217.5,210,515,74,Juniors,Single-ply,M,SBD
1,Marat Aminov,1995,RUS,82.65,-300,305,315,315,220,-227.5,227.5,227.5,280,285,292.5,292.5,835,83,Juniors,Single-ply,M,SBD
2,Kostiantyn Musiienko,1997,UKR,82.65,300,-310,-310,300,240,-250,-250,240,272.5,285,-290,285,825,83,Juniors,Single-ply,M,SBD
3,Klaudijus Malevskis,1996,LTU,82.77,270,280,285,285,212.5,222.5,-230,222.5,245,-262.5,-262.5,245,752.5,83,Juniors,Single-ply,M,SBD
4,Mickel Dahl,1996,DEN,82.98,-270,270,-282.5,270,-162.5,162.5,167.5,167.5,-267.5,267.5,287.5,287.5,725,83,Juniors,Single-ply,M,SBD
5,Jonathan Kerremans,1996,BEL,82.05,-255,262.5,275,275,-187.5,187.5,-195,187.5,240,-252.5,252.5,252.5,715,83,Juniors,Single-ply,M,SBD
6,Nickolaj Olsen,1994,DEN,82.62,260,272.5,282.5,282.5,135,140,-145,140,260,280,-285,280,702.5,83,Juniors,Single-ply,M,SBD
7,Agris Reppo,1996,EST,81.49,185,200,210,210,110,150,-160,150,-240,240,-280,240,600,83,Juniors,Single-ply,M,SBD
1,Oliver Dahlkvist,1995,SWE,92.7,300,315,325,325,207.5,215,222.5,222.5,270,-282.5,285,285,832.5,93,Juniors,Single-ply,M,SBD
2,Nikolai Slettnes,1994,NOR,87.71,305,315,320,320,225,-232.5,232.5,232.5,255,272.5,277.5,277.5,830,93,Juniors,Single-ply,M,SBD
3,Dmitry Ovsyanskiy,1994,RUS,92.71,305,-315,315,315,197.5,205,210,210,280,295,-307.5,295,820,93,Juniors,Single-ply,M,SBD
4,Anthony Cusano,1994,ITA,92.97,295,307.5,315,315,222.5,230,-235,230,240,252.5,260,260,805,93,Juniors,Single-ply,M,SBD
5,Julian Schnurr,1994,GER,91.35,295,-305,-305,295,190,200,-205,200,280,295,305,305,800,93,Juniors,Single-ply,M,SBD
6,Franz Graaf,1996,GER,93,285,295,-302.5,295,215,-220,220,220,250,265,285,285,800,93,Juniors,Single-ply,M,SBD
1,Oleksandr Rubets,1996,UKR,100.1,400,418.5,431,431,260,265,-275,265,320,337.5,355,355,1051,105,Juniors,Single-ply,M,SBD
2,Danylo Kovalov,1996,UKR,104.5,365,-382.5,382.5,382.5,255,262.5,267.5,267.5,305,315,-322.5,315,965,105,Juniors,Single-ply,M,SBD
3,Tim Leitow,1994,GER,103.02,300,317.5,332.5,332.5,-217.5,217.5,237.5,237.5,285,305,-325,305,875,105,Juniors,Single-ply,M,SBD
4,Denis Kildeev,1995,RUS,104.04,310,320,330,330,-240,240,245,245,-270,282.5,-302.5,282.5,857.5,105,Juniors,Single-ply,M,SBD
5,Alexandru Cazacu,1997,ROU,102.13,250,275,-285,275,165,175,180,180,200,220,235,235,690,105,Juniors,Single-ply,M,SBD
1,Oleksandr Tytarenko,1995,UKR,117.43,365,375,382.5,382.5,235,245,252.5,252.5,285,300,-312.5,300,935,120,Juniors,Single-ply,M,SBD
2,Jack Johnson,1998,GBR,119.11,300,315,327.5,327.5,250,-260,260,260,292.5,312.5,320,320,907.5,120,Juniors,Single-ply,M,SBD
3,Julian Sagøy,1997,NOR,119.3,305,317.5,327.5,327.5,-237.5,237.5,-242.5,237.5,-310,310,320,320,885,120,Juniors,Single-ply,M,SBD
4,Lukas Skrib,1994,SVK,111.58,280,305,317.5,317.5,-275,275,-290,275,250,265,-282.5,265,857.5,120,Juniors,Single-ply,M,SBD
5,Henrik Jensvold,1994,NOR,117.78,330,-342.5,-342.5,330,-242.5,-242.5,242.5,242.5,270,282.5,-312.5,282.5,855,120,Juniors,Single-ply,M,SBD
1,Andrii Shevchenko,1995,UKR,133.01,375,390,400,400,-260,260,270,270,260,285,305,305,975,120+,Juniors,Single-ply,M,SBD
2,Vladislav Nemov,1996,RUS,130.55,302.5,317.5,325,325,230,237.5,-242.5,237.5,285,295,307.5,307.5,870,120+,Juniors,Single-ply,M,SBD
3,Guðfinnur Snær Magnússon,1997,ISL,149.5,340,-350,350,350,-255,260,-270,260,260,-290,-290,260,870,120+,Juniors,Single-ply,M,SBD
4,Alex Vero,1996,HUN,148.3,275,300,312.5,312.5,250,262.5,272.5,272.5,250,272.5,-282.5,272.5,857.5,120+,Juniors,Single-ply,M,SBD
5,Daniel Ordean,1995,ROU,132.74,320,-340,340,340,-215,-222.5,222.5,222.5,260,-277.5,-285,260,822.5,120+,Juniors,Single-ply,M,SBD
1,Aigul Sitdikova,1989,RUS,46.91,142.5,152.5,160,160,110,118,-125,118,140,147.5,152.5,152.5,430.5,47,Open,Single-ply,F,SBD
2,Tetyana Shlopko,1996,UKR,46.73,150,155,160,160,87.5,95,100,100,145,150,-160,150,410,47,Open,Single-ply,F,SBD
3,Louise Edwards,1978,GBR,46.91,115,122.5,127.5,127.5,57.5,62.5,65,65,115,122.5,130,130,322.5,47,Open,Single-ply,F,SBD
1,Anna Komlaeva,1979,RUS,51.81,170,180,190,190,105,110,117.5,117.5,150,162.5,167.5,167.5,475,52,Open,Single-ply,F,SBD
2,Trine Øgaard Bagger,1986,DEN,51.61,150,157.5,162.5,162.5,90,92.5,95,95,170,177.5,-182.5,177.5,435,52,Open,Single-ply,F,SBD
3,Svetlana Saydasheva,1988,RUS,51.95,157.5,-165,165,165,90,95,-100,95,155,165,170,170,430,52,Open,Single-ply,F,SBD
4,Marcela Sandvik,1974,FIN,51.66,140,-145,147.5,147.5,115,120,125,125,142.5,-147.5,152.5,152.5,425,52,Open,Single-ply,F,SBD
5,Vanessa Martin,1976,FRA,51.2,-157.5,162.5,167.5,167.5,90,-95,-95,90,-155,155,162.5,162.5,420,52,Open,Single-ply,F,SBD
6,Roberta Monaco,1975,ITA,51.42,142.5,152.5,-157.5,152.5,80,85,-87.5,85,145,150,152.5,152.5,390,52,Open,Single-ply,F,SBD
1,Victoria Karlysheva,1993,RUS,56.96,195,205,210,210,107.5,115,120,120,175,-182.5,182.5,182.5,512.5,57,Open,Single-ply,F,SBD
2,Ellie Steel,1991,GBR,56.65,-175,185,192.5,192.5,-125,130,137.5,137.5,160,170,175,175,505,57,Open,Single-ply,F,SBD
3,Ekaterina Osipova,1991,RUS,56.47,175,-182.5,-185,175,110,117.5,125,125,170,177.5,182.5,182.5,482.5,57,Open,Single-ply,F,SBD
4,Hilde Haugen Mikkelsen,1991,NOR,56.65,190,-195,195,195,-117.5,117.5,122.5,122.5,150,155,157.5,157.5,475,57,Open,Single-ply,F,SBD
5,Eva Buxbom,1969,DEN,56.64,157.5,-165,-165,157.5,-65,65,70,70,165,175,-180,175,402.5,57,Open,Single-ply,F,SBD
1,Tatiana Belskaya,2002,RUS,46.88,95,105,115,115,40,50,55,55,90,-97.5,,90,260,47,Sub-Juniors,Single-ply,F,SBD
1,Anastasiia Cherviakova,1999,RUS,51.32,-155,-155,155,155,75,-82.5,85,85,140,150,-155,150,390,52,Sub-Juniors,Single-ply,F,SBD
2,Natalia Fomina,1999,RUS,50.5,135,142.5,150,150,65,-70,-75,65,130,140,-150,140,355,52,Sub-Juniors,Single-ply,F,SBD
3,Anhelina Kyiakh,2002,UKR,51.45,-110,110,117.5,117.5,65,70,-77.5,70,105,112.5,-120,112.5,300,52,Sub-Juniors,Single-ply,F,SBD
1,Daria Vakhrameeva,2000,RUS,56.92,140,150,160,160,105,115,122.5,122.5,125,135,140,140,422.5,57,Sub-Juniors,Single-ply,F,SBD
2,Hanna Dekermendzhy,1999,UKR,56.18,-145,145,-157.5,145,75,80,82.5,82.5,120,-130,-130,120,347.5,57,Sub-Juniors,Single-ply,F,SBD
3,Viktoria Beilmann,1999,GER,56.02,-125,127.5,135,135,70,-75,75,75,115,125,-132.5,125,335,57,Sub-Juniors,Single-ply,F,SBD
4,Kelly Rand Catrin,2000,EST,56.57,90,100,110,110,50,-55,55,55,112.5,122.5,132.5,132.5,297.5,57,Sub-Juniors,Single-ply,F,SBD
1,Daria Rusanenko,2001,UKR,61.86,172.5,182.5,192.5,192.5,-82.5,82.5,90,90,142.5,152.5,-157.5,152.5,435,63,Sub-Juniors,Single-ply,F,SBD
2,Ida Lis,2000,POL,62.96,170,177.5,185,185,75,-80,80,80,155,162.5,-172.5,162.5,427.5,63,Sub-Juniors,Single-ply,F,SBD
3,Alice Francis-Freeman,1999,GBR,61.95,125,132.5,140,140,70,-77.5,77.5,77.5,135,142.5,147.5,147.5,365,63,Sub-Juniors,Single-ply,F,SBD
DQ,Dolora Ramanauskaite,2000,LTU,61.2,-147.5,-147.5,-147.5,,-67.5,67.5,70,70,137.5,-142.5,-147.5,137.5,,63,Sub-Juniors,Single-ply,F,SBD
1,Ruslana Krasnova,2000,UKR,66.87,155,170,-180,170,100,107.5,-112.5,107.5,140,155,-175,155,432.5,72,Sub-Juniors,Single-ply,F,SBD
2,Olesia Nesterenko,2001,RUS,69.48,145,155,,155,100,110,115,115,125,135,142.5,142.5,412.5,72,Sub-Juniors,Single-ply,F,SBD
3,Sandra Soltyszewska,1999,POL,67.27,115,125,130,130,57.5,65,70,70,120,130,-142.5,130,330,72,Sub-Juniors,Single-ply,F,SBD
1,Daria Chetvernina,2000,RUS,79.9,120,-175,-180,120,90,95,100,100,130,142.5,152.5,152.5,372.5,84,Sub-Juniors,Single-ply,F,SBD
1,Soley Jonsdottir,2001,ISL,96.85,-205,215,-230.5,215,102.5,107.5,112.5,112.5,185,200,-210,200,527.5,84+,Sub-Juniors,Single-ply,F,SBD
2,Michaela Botková,2000,SVK,92.34,160,185,200,200,115,125,130,130,150,-165,170,170,500,84+,Sub-Juniors,Single-ply,F,SBD
3,Anna Vozmilova,2001,RUS,87.65,-140,140,160,160,50,65,85,85,55,120,145,145,390,84+,Sub-Juniors,Single-ply,F,SBD
1,Ekaterina Zhiltcova,1996,RUS,42.74,110,115,-117.5,115,62.5,-67.5,-67.5,62.5,110,117.5,120,120,297.5,43,Juniors,Single-ply,F,SBD
2,Dariia Brazhnyk,1997,UKR,42,112.5,120,-127.5,120,55,60,62.5,62.5,105,110,-112.5,110,292.5,43,Juniors,Single-ply,F,SBD
1,Elmira Abdullaeva,1998,RUS,46.35,132.5,137.5,142.5,142.5,67.5,72.5,75,75,125,135,-140,135,352.5,47,Juniors,Single-ply,F,SBD
2,Zina Demian,1997,UKR,46.88,110,-120,122.5,122.5,65,70,-75,70,110,117.5,-130,117.5,310,47,Juniors,Single-ply,F,SBD
3,Soňa Fedoročková,1997,SVK,44.89,-120,-120,120,120,52.5,57.5,60,60,115,-122.5,-122.5,115,295,47,Juniors,Single-ply,F,SBD
1,Karen Hesthammer,1994,NOR,51.75,-180,-180,185.5,185.5,-107.5,107.5,-112.5,107.5,160,-170,170,170,463,52,Juniors,Single-ply,F,SBD
2,Margarita Vasileva,1995,RUS,51.61,150,-160,160,160,90,100,-107.5,100,135,145,150,150,410,52,Juniors,Single-ply,F,SBD
DQ,Mia Engrenius,1997,SWE,49.79,-140,-140,-140,,90,95,100,100,150,160,165,165,,52,Juniors,Single-ply,F,SBD
1,Milda Bruvere,1994,LTU,55.91,160,170,175,175,80,-87.5,-90,80,140,147.5,152.5,152.5,407.5,57,Juniors,Single-ply,F,SBD
2,Anastasiia Nakonechna,1995,UKR,53.44,135,142.5,145,145,-75,75,-80,75,-137.5,137.5,142.5,142.5,362.5,57,Juniors,Single-ply,F,SBD
3,Kara Gautadóttir,1996,ISL,56.18,135,-142.5,145,145,-75,80,-90,80,132.5,137.5,-142.5,137.5,362.5,57,Juniors,Single-ply,F,SBD
4,Biancha Jade Pennington,1994,GBR,56.89,130,-135,-135,130,62.5,67.5,70,70,135,142.5,145,145,345,57,Juniors,Single-ply,F,SBD
1,Matilda Vilmar,1996,SWE,62.77,185,195,200,200,117.5,122.5,127.5,127.5,155,165,170,170,497.5,63,Juniors,Single-ply,F,SBD
2,Lena Sjøl,1997,NOR,61.18,180,187.5,-192.5,187.5,107.5,112.5,-115,112.5,172.5,182.5,-197.5,182.5,482.5,63,Juniors,Single-ply,F,SBD
3,Nataliia Harhunovska,1998,UKR,60.59,195,-200,-200,195,105,110,112.5,112.5,152.5,165,-170,165,472.5,63,Juniors,Single-ply,F,SBD
4,Lidiya Zayats,1996,RUS,62.05,180,-195,-195,180,105,110,115,115,155,167.5,-180,167.5,462.5,63,Juniors,Single-ply,F,SBD
5,Marie Hauschild,1995,GER,62.36,165,172.5,180,180,95,-102.5,-105,95,145,155,160,160,435,63,Juniors,Single-ply,F,SBD
6,Anna Schjoett,1995,DEN,59.39,152.5,-160,160,160,85,90,-92.5,90,145,155,160,160,410,63,Juniors,Single-ply,F,SBD
7,Anne-Jasmin Scholz,1996,GER,62.56,145,152.5,-157.5,152.5,87.5,-92.5,92.5,92.5,140,152.5,157.5,157.5,402.5,63,Juniors,Single-ply,F,SBD
DQ,Ingvild Hansen,1994,NOR,62.23,167.5,172.5,177.5,177.5,-102.5,-102.5,-102.5,,160,167.5,172.5,172.5,,63,Juniors,Single-ply,F,SBD
1,Silvia Kapstad,1996,NOR,71.73,212.5,220,227.5,227.5,137.5,142.5,150.5,150.5,195,205,-217.5,205,583,72,Juniors,Single-ply,F,SBD
2,Jessika Lowe,1996,SWE,71.05,182.5,190,197.5,197.5,120,125,-127.5,125,190,-200,202.5,202.5,525,72,Juniors,Single-ply,F,SBD
3,Mariia Erohina,1995,RUS,71.61,187.5,200,207.5,207.5,110,120,127.5,127.5,177.5,190,-192.5,190,525,72,Juniors,Single-ply,F,SBD
4,Emma Johansson,1996,SWE,68.28,175,185,192.5,192.5,125,130,-135,130,130,137.5,140,140,462.5,72,Juniors,Single-ply,F,SBD
5,Majken Hansen,1996,DEN,68.34,-185,-185,185,185,-95,95,100,100,160,-175,175,175,460,72,Juniors,Single-ply,F,SBD
1,Birgitte Kielsen,1996,NOR,83.52,235,245,250,250,-152.5,152.5,-160.5,152.5,192.5,-202.5,202.5,202.5,605,84,Juniors,Single-ply,F,SBD
2,Stine Hamre,1995,NOR,80.63,205,215,222.5,222.5,125,130,-135,130,175,185,202.5,202.5,555,84,Juniors,Single-ply,F,SBD
3,Alina Nikolaenko,1997,RUS,80.46,185,195,200,200,120,127.5,-132.5,127.5,162.5,-172.5,-172.5,162.5,490,84,Juniors,Single-ply,F,SBD
4,Maaike De Vries,1994,NED,72.32,147.5,155,160,160,110,120,-125,120,140,150,155,155,435,84,Juniors,Single-ply,F,SBD
1,Monika Lovas,1994,HUN,117.6,190,200,210,210,-140,140,152.5,152.5,175,185,195,195,557.5,84+,Juniors,Single-ply,F,SBD
2,Kine Helene Fossbakk,1994,NOR,95.2,207.5,212.5,217.5,217.5,155,160,165,165,155,162.5,172.5,172.5,555,84+,Juniors,Single-ply,F,SBD
