Абдул Рашид Метришев,Абдул-Рашид Метришев
Артем Медведєв,Артем Мєдведєв
Дмитро Григорьєв,Дмитро Григор'Єв
Сергій Мірошніченко,Сергей Мирошниченко
Артур Ламєкін,Артур Ламекін
Віталій Рейда,Виталий Рейда
Карина Утенкова,Каріна Утенкова
Олег Жулинский,Олег Жулінський
Віталій Решетняк,Виталий Решетняк
Єфим Степацький,Ефим Степацький
Анатолий Печерский,Анатолій Печерский
Олександр Дживиряга,Олександр Дживіряга
Денис Дубровський,Денис Дубровский
Віктор Галабір,Виктор Галабір
Василь Пашкевич,Васил Пашкевич
Ірина Тіхонова,Ірина Тихонова
Констянтин Янішевський,Костянтин Янішевський,Костянтин Янишевський
Віталій Федорченко,Виталий Федорченко
Анатолій Мальнєв,Анатолій Мальнев
Юрий Саликов,Юрій Саліков
Юрий Жевак,Юрій Жевак
Андрій Ніколаенко,Андрій Николаєнко
Руслан Билан,Руслан Білан
Геннадій Попов,Генадій Попов,Геннадий Попов
Дмитро Сінчук,Дмитро Синчук
Ярослав Пушкарь,Ярослав Пушкар
Віталій Тімшин,Віталій Тимшин
Олександр Артем'Єв,Олександр Артєм'Єв
Вячеслав Глушенко,В'Ячеслав Глушенко
Станіслав Афанасьєв,Станіслав Афанас'Єв
Андрій Несевря,Андрій Нєсєвря
Наталія Пенькова,Наталія Пєнькова
Андрій Звезділін,Андрій Звєзділін
Євген Зуй,Евген Зуй
Володимир Бриженюк,Володимир Бріженюк
Павло Гарькавий,Павло Гаркавий
Віктор Галабір,Виктор Галабир
Олександр Оніщенко,Олександр Онищенко
Станіслав Юрченко,Станислав Юрченко
Назарій Перхулін,Назарій Перхулин
Олександр Кліменко,Олександр Клименко
Євгеній Павлов,Евгений Павлов
Станіслав Базіль,Станіслав Базиль
Мирослав Решетніков,Мирослав Решетников
Андрій Вінник,Андрій Винник
Денис Онуфрієнко,Денис Онуфриенко
Дмитро Григорьєв,Дмитро Григор'єв
Валерия Позднякова,Валерія Позднякова
Виталий Белобородов,Віталій Белобородов
Володимир Козін,Володимир Козин
Олександр Вітвіцький,Олександр Витвицький
Віталій Чуніховський,Виталий Чуниховский
Олег Герасімов,Олег Герасимов
Дмитро Кальнин,Дмитро Кальнін
Виталий Столпак,Віталій Столпак
Анатолій Лопаткін,Анатолий Лопаткин
Микола Семікін,Микола Семикін
Руслан Лебединский,Руслан Лебединський
Віталій Торкай,Виталий Торкай
Ашот Єганян,Ашот Еганян
Юрій Уманець,Юрий Уманец
Іван Луценко,Иван Луценко
Артур Созінов,Артур Созинов
Руслан Вінник,Руслан Винник
Юрій Романов,Юрий Романов
Віктор Межевікін,Віктор Межевикін
Євгенія Лі,Євгенія Ли,Евгения Ли
Максим Портянік,Максим Портяник
Павло Підтоптаний,Павел Пидтоптаный
Вячеслав Мінтюк,В'Ячеслав Мінтюк
Олександр Калініченко,Олександр Калиниченко
Ігор Старченко,Игорь Старченко
Віталій Середенко,Виталий Середенко
Вадим Алієв,Вадим Алиев
Олег Вагін,Олег Вагин
Андрій Ніколаєнко,Андрій Ніколаенко
Константин Якименко,Констянтин Якименко
Антон Гайдаєнко,Антон Гайдаенко
Олексій Вознік,Олексій Возник
Наріна Кочарян,Нарина Кочарян
Ігор Андрусик,Игорь Андрусик
Марина Железнова,Марина Желєзнова
Станислав Смирнов,Станіслав Смірнов
Денис Васильев,Денис Васильєв
Віктор Петренко,Виктор Петренко
Анатолій Суровцев,Анатолий Суровцев
Юрій Ширинський,Юрий Ширинский
Геннадій Язев,Геннадий Язев
Єфим Степацький,Ефим Степацкий
Ирина Кабакова,Ірина Кабакова
Роман Орєхов,Роман Орехов
Сергій Черешнєв,Сергій Черешнев
Валентин Літвеченко,Валентин Литвеченко
Володимир Лебєдєв,Володимир Лебедєв
Віталій Алєксєєв,Виталий Алексеев
Віктор Денісенко,Віктор Денисенко
Віталій Середенко,виталий Середенко
Станіслав Базіль,Станислав Базиль
Ігор Марунич,Игорь Марунич
Ігор Бондарєв,Игорь Бондарев
Ігор Тарасов,Игорь Тарасов
Вячеслав Якубчак,В'Ячеслав Якубчак
Валерій Шевченко,Валерий Шевченко
Ігор Савін,Игорь Савин
Ірина Галабір,Ирина Галабир
Ігор Маркін,Игорь Маркин
Ольга Фетісова,Ольга Фетисова
Каріна Киріяк,Карина Киріяк
Вячеслав Мінтюк,Вячеслав Минтюк
Марія Маркович,Мария Маркович
Ростислав Лісняк,Ростислав Лисняк
Роман Красицький,Роман Краситський
Ігор Мельник,Игорь Мельник
Микита Мітрюхін,Микита Митрюхін
Євгеній Тимохін,Евгений Тимохин
Ігор Клім,Ігор Клим
Ігор Долженко,Игорь Долженко
Денис Архіпов,Денис Архипов
Віталій Місютинський,Виталий Мисютинский
Анна Іванова,Анна Иванова
Віталій Хаустов,Виталий Хаустов
Юлія Шенкаренко,Юлия Шенкаренко
Дмитро Григорьєв,Дмитрий Григорьев
Наталья Токарева,Натальья Токарева
Артём Литвиненко,Артем Литвиненко
Инна Филимонова,Анна Филимонова
Владислав Кузьміщев,Владислав Кузьмищев
Евгений Коваленко,Євгеній Коваленко
Юрій Спінов,Юрій Спинов
Наталия Колесникова,Наталья Колесникова
Фемистоклис Ламбрионидис,Фемистоклис Ламбрианидис,Фемис Ламбрионидис
Анастасия Павлова,Анна Павлова
Дмитрий Дудник,Дмітрій Дуднік
Алексей Москвичёв,Алексей Москвичев
Віталій Алексеєв,Віталій Алєксєєв
Олег Базилевич,Олег Базілевич
Емин Мамедов,Эмин Мамедов
Сергей Колесник,Сергій Колесник
Юрий Тарасов,Юрій Тарасов
Едуард Долгов,Эдуард Долгов
Арсен Касєєв,Арсен Касеев
Владислав Савицкий,Владислав Савицький
Станислав Кумсков,Стас Кумсков
Станислав Марочко,Станіслав Марочко
Игорь Поважнюк,Ігор Поважнюк
Игорь Ястребцов,Игорь Ястребцев
Артём Ковальчук,Артем Ковальчук
Тимур-Булат Магомадов,Тимурбулат Магомадов
Нина Кондрашёва,Нина Кондрашева
Стэлла Вавилова,Стелла Вавилова
Игорь Щурилов,Игор Щурилов
Карен Данилян,Карен Данильян
Андрей Паньков,Андрей Панков
Виктор Кузнецов,Віктор Кузнецов
Иван Шевченко,Іван Шевченко
Станислав Шейко,Станіслав Шейко
Сергей Мальков,Сергей Малков
Александр Сабельфельд,Александр Сабелфельд
Галсут Саарян,Галуст Саарян
Максим Гібець,Максим Гибець