Name,Event,Age,Division,Tested,Equipment,Sex,BodyweightKg,WeightClassKg,Squat1Kg,Squat2Kg,Squat3Kg,Best3SquatKg,Bench1Kg,Bench2Kg,Bench3Kg,Best3BenchKg,Deadlift1Kg,Deadlift2Kg,Deadlift3Kg,Best3DeadliftKg,TotalKg,Place
Peter Cade,B,50,M3,Yes,Raw,M,85.41,90,,,,,-150,-150,-150,,,,,,,DQ
Mark Hauschildt,B,34,SM,Yes,Raw,M,111.9,125,,,,,227.5,-235,-235,227.5,,,,,227.5,1
Karl Heille,B,45,M2,No,Raw,M,87.41,90,,,,,130,-135,-135,130,,,,,130,1
Dan Banwarth,B,48,M2,No,Raw,M,135.99,140,,,,,167.5,-182.5,182.5,182.5,,,,,182.5,1
Shawn Berneman,B,41,M1,No,Raw,M,112.99,125,,,,,160,165,-172.5,165,,,,,165,1
Scott Marsiglio,B,38,SM,No,Raw,M,89.58,90,,,,,140,145,147.5,147.5,,,,,147.5,1
Jace Beauchaine,B,21,J,No,Raw,M,73.21,75,,,,,125,132.5,-137.5,132.5,,,,,132.5,1
Andrew Bahr,B,22,J,No,Raw,M,108,110,,,,,192.5,200,205,205,,,,,205,1
Brandon Baumann,B,17,T2,No,Raw,M,96.8,100,,,,,125,135,-142.5,135,,,,,135,1
Dylan Heille,B,15,T1,No,Raw,M,72.62,75,,,,,112.5,120,-125,120,,,,,120,1
Jay Baltierra,B,15,T1,No,Multi-ply,M,82.01,82.5,,,,,170,182.5,-187.5,182.5,,,,,182.5,1
Corey Lyon,B,28,O,No,Raw,M,79.2,82.5,,,,,165,170,-175,170,,,,,170,1
Tom Waldrep,B,47,O,No,Raw,M,99.02,100,,,,,200,210,-217.5,210,,,,,210,1
Tom Waldrep,B,47,M2,No,Multi-ply,M,99.02,100,,,,,200,210,-217.5,210,,,,,210,1
Jamie Weldin,B,36,O,No,Raw,M,108.41,110,,,,,207.5,-215,-215,207.5,,,,,207.5,1
T.J. Reck,B,30,O,No,Raw,M,114.99,125,,,,,190,200,-210,200,,,,,200,1
Kevin Crock,B,32,O,No,Raw,M,123.2,125,,,,,185,197.5,-207.5,197.5,,,,,197.5,2
Josh Vondran,B,29,O,No,Raw,M,127.01,140,,,,,207.5,217.5,-227.5,217.5,,,,,217.5,1
W.T. Franklin,B,34,O,No,Raw,M,133.81,140,,,,,207.5,-227.5,-227.5,207.5,,,,,207.5,2
Cozy Cozine,B,55,M4,Yes,Multi-ply,M,119.2,125,,,,,227.5,-242.5,-250,227.5,,,,,227.5,1
Mike Olmstead,B,31,O,Yes,Multi-ply,M,128,140,,,,,187.5,-195,-195,187.5,,,,,187.5,1
Stan Mingus,B,62,M5,No,Multi-ply,M,97.2,100,,,,,170,187.5,,187.5,,,,,187.5,1
Clay Barnett,B,62,M5,No,Multi-ply,M,117.21,125,,,,,185,-200,-200,185,,,,,185,1
Andy Olson,B,59,M4,No,Multi-ply,M,66.18,67.5,,,,,105,115,-120,115,,,,,115,1
Steve Egli,B,56,M4,No,Multi-ply,M,81.19,82.5,,,,,-152.5,-152.5,,,,,,,,DQ
David Harrison,B,43,M1,No,Multi-ply,M,119.79,125,,,,,252.5,-265,-265,252.5,,,,,252.5,1
Chad Truitt,B,37,SM,No,Multi-ply,M,106.59,110,,,,,190,197.5,-205,197.5,,,,,197.5,1
Dan Grauerholz,B,35,SM,No,Multi-ply,M,124.6,125,,,,,285,-300,-300,285,,,,,285,1
Rudy Hillyard,B,36,O,No,Multi-ply,M,81.42,82.5,,,,,-185,192.5,200,200,,,,,200,1
Chris Dejongh,B,27,O,No,Multi-ply,M,81.6,82.5,,,,,-325,-330,-335,,,,,,,DQ
Brad Colman,B,24,O,No,Multi-ply,M,87.18,90,,,,,157.5,-172.5,-172.5,157.5,,,,,157.5,1
Jake Prazak,B,34,O,No,Multi-ply,M,99.61,100,,,,,-412.5,412.5,-415,412.5,,,,,412.5,1
Dylan Hanson,B,30,O,No,Multi-ply,M,108.18,110,,,,,-295,295,-302.5,295,,,,,295,1
Paul Harris,B,39,O,No,Multi-ply,M,128.41,140,,,,,325,337.5,365,365,,,,,365,1
Wally Hayward,D,57,M4,No,Raw,M,40.82,44,,,,,,,,,,,,,,DQ
Adam Becker,D,22,J,No,Raw,M,36.83,40,,,,,,,,,215,227.5,235,235,235,1
Marcus DeVore,D,23,J,No,Raw,M,63.14,67.5,,,,,,,,,282.5,-317.5,-317.5,282.5,282.5,1
Frankie Santoro,D,18,T3,No,Multi-ply,M,49.8,52,,,,,,,,,295,-320,-320,295,295,1
Wally Hayward,D,57,M4,No,Raw,M,37.74,40,,,,,,,,,145,162.5,172.5,172.5,172.5,1
Jennifer Foster,BD,27,O,Yes,Raw,F,58.6,60,,,,,52.5,60,-62.5,60,130,-145,145,145,205,1
Katie Highland,BD,32,O,Yes,Raw,F,58.2,60,,,,,52.5,-60,60,60,102.5,112.5,120,120,180,2
Don Gulling,BD,45,M2,Yes,Raw,M,116.8,125,,,,,140,147.5,155,155,220,232.5,242.5,242.5,397.5,1
Sean Pua,BD,21,J,No,Raw,M,52.62,56,,,,,-110,-110,-110,,155,175,-182.5,175,,DQ
Alex Baldwin,BD,22,J,No,Raw,M,68.22,75,,,,,92.5,-97.5,-97.5,92.5,127.5,-142.5,-142.5,127.5,220,1
Joey Welsh,BD,18,T3,No,Raw,M,87,90,,,,,142.5,-147.5,-147.5,142.5,232.5,247.5,-255,247.5,390,1
Josh Lopez,BD,16,T2,No,Raw,M,72.98,75,,,,,92.5,-97.5,-97.5,92.5,175,190,-200,190,282.5,1
Andrew Fraczek,BD,16,T2,No,Raw,M,75.8,82.5,,,,,72.5,82.5,-87.5,82.5,-147.5,152.5,-170,152.5,235,1
Quentin Septer,BD,16,T2,No,Raw,M,86.59,90,,,,,117.5,-122.5,-122.5,117.5,227.5,-245,-245,227.5,345,1
Sam Wilson,BD,15,T1,No,Raw,M,63.59,67.5,,,,,67.5,75,-85,75,102.5,115,125,125,200,1
Sam Fuentes,BD,15,T1,No,Raw,M,87.18,90,,,,,85,-100,-100,85,125,140,145,145,230,1
Adam Cornelis,BD,26,O,No,Raw,M,88.59,90,,,,,142.5,155,-165,155,227.5,250,275,275,430,1
Ryan Feuerhammer,BD,31,O,No,Raw,M,97.39,100,,,,,157.5,-165,-170,157.5,255,275,-292.5,275,432.5,1
Jacob Prater,BD,31,O,No,Raw,M,98.38,100,,,,,125,137.5,-142.5,137.5,237.5,255,-265,255,392.5,2
Paul Gonzalez,BD,28,O,No,Raw,M,97.79,100,,,,,137.5,142.5,-150,142.5,222.5,235,245,245,387.5,3
Jason Weipert,BD,28,O,No,Raw,M,99.79,100,,,,,115,120,-130,120,242.5,255,-265,255,375,4
Ryan Murphy,BD,39,SM,No,Multi-ply,M,135.81,140,,,,,182.5,200,-207.5,200,227.5,260,272.5,272.5,472.5,1
Phil Schultz,BD,45,O,No,Multi-ply,M,105.19,110,,,,,267.5,-300,-300,267.5,290,-305,-305,290,557.5,1
Frank Tekautz,BD,40,O,No,Multi-ply,M,105.78,110,,,,,175,187.5,-192.5,187.5,287.5,322.5,-327.5,322.5,510,2
Byron Hicks,BD,34,O,No,Multi-ply,M,121.79,125,,,,,-250,250,-272.5,250,275,,,275,525,1
Wiley Rung,BD,30,O,No,Multi-ply,M,133.81,140,,,,,262.5,-285,-285,262.5,257.5,272.5,-280,272.5,535,1
Bonnie Meerschaert,SBD,41,M1,No,Wraps,F,58.38,60,100,110,-117.5,110,52.5,-60,-60,52.5,105,112.5,115,115,277.5,1
Brittany Demmer,SBD,19,T3,No,Wraps,F,77.38,82.5,142.5,152.5,-165,152.5,72.5,82.5,-87.5,82.5,165,182.5,195,195,430,1
Brittany Demmer,SBD,19,T3,Yes,Wraps,F,77.38,82.5,142.5,152.5,-165,152.5,72.5,82.5,-87.5,82.5,165,182.5,195,195,430,1
Brittany Hammond,SBD,35,O,Yes,Wraps,F,51.71,52,72.5,87.5,-97.5,87.5,52.5,-57.5,-57.5,52.5,100,110,120,120,260,1
Ashley Woods,SBD,27,O,Yes,Wraps,F,84.01,90,107.5,112.5,-120,112.5,70,75,-82.5,75,120,130,-137.5,130,317.5,1
Jennifer Gimmell,SBD,30,O,No,Multi-ply,F,95.62,90+,-200,200,227.5,227.5,55,110,-122.5,110,150,162.5,-172.5,162.5,500,1
Rob Buchla,SBD,47,M2,No,Wraps,M,95.8,100,60,,,60,125,-155,-155,125,70,,,70,255,1
Korey Pfeiffer,SBD,40,M1,No,Wraps,M,89.22,90,230,245,-252.5,245,185,195,202.5,202.5,232.5,250,272.5,272.5,720,1
Mark Willing,SBD,44,M1,No,Wraps,M,98.2,100,205,-222.5,230,230,150,165,-172.5,165,227.5,245,,245,640,1
Ernie Lillibridge Sr,SBD,39,SM,No,Wraps,M,139.71,140,300,320,327.5,327.5,200,215,,215,300,325,-345,325,867.5,1
Jordan Lentz,SBD,20,J,No,Wraps,M,81.01,82.5,207.5,220,227.5,227.5,142.5,152.5,-157.5,152.5,235,257.5,-260,257.5,637.5,1
Bobby Hickson,SBD,22,J,No,Wraps,M,85.41,90,147.5,167.5,-175,167.5,75,-77.5,-77.5,75,187.5,212.5,-217.5,212.5,455,1
Ernie Lilliebridge Jr,SBD,23,J,No,Wraps,M,99.2,100,250,275,287.5,287.5,165,182.5,-190,182.5,300,322.5,-327.5,322.5,792.5,1
Dave Nelson,SBD,22,J,No,Wraps,M,93.98,100,247.5,265,272.5,272.5,167.5,182.5,-190,182.5,257.5,,,257.5,712.5,2
Brandon Cunningham,SBD,20,J,No,Wraps,M,93.39,100,142.5,162.5,-170,162.5,95,105,-110,105,165,185,195,195,462.5,3
Adam Windschitl,SBD,21,J,No,Wraps,M,104.6,110,170,182.5,195,195,102.5,110,120,120,207.5,232.5,240,240,555,1
Spencer Behne,SBD,19,T3,No,Wraps,M,89.81,90,207.5,220,230,230,137.5,145,152.5,152.5,237.5,255,-272.5,255,637.5,1
Chris Hickson,SBD,19,T3,No,Wraps,M,124.74,125,-272.5,-282.5,282.5,282.5,137.5,147.5,-155,147.5,320,350,-372.5,350,780,1
Kevin Heitz,SBD,49,M2,Yes,Wraps,M,98.2,100,157.5,167.5,182.5,182.5,110,117.5,-125,117.5,165,175,185,185,485,1
Andy Siar,SBD,23,J,Yes,Wraps,M,98.61,100,247.5,262.5,275,275,160,-167.5,,160,242.5,260,-275,260,695,1
Cody Treft,SBD,20,J,Yes,Wraps,M,95.62,100,205,-220,220,220,127.5,140,-145,140,285,-310,310,310,670,2
Tyrel Detweiler,SBD,22,J,Yes,Wraps,M,124.78,125,185,195,212.5,212.5,-115,120,-130,120,212.5,222.5,232.5,232.5,565,1
Colton Magers,SBD,17,T1,Yes,Wraps,M,68.81,75,187.5,-200,-200,187.5,95,-102.5,-102.5,95,182.5,-192.5,192.5,192.5,475,1
A.J. Kneppers,SBD,28,O,Yes,Wraps,M,73.8,75,-175,175,-197.5,175,102.5,110,-115,110,207.5,230,235,235,520,1
Jason Eggers,SBD,30,O,Yes,Wraps,M,88.81,90,227.5,240,-260,240,137.5,-147.5,-152.5,137.5,240,250,-260,250,627.5,1
Steve Sass,SBD,35,O,Yes,Wraps,M,97.2,100,205,217.5,,217.5,147.5,155,-160,155,245,265,275,275,647.5,1
Drew Strube,SBD,28,O,Yes,Wraps,M,109.18,110,247.5,-267.5,-272.5,247.5,155,,,155,242.5,267.5,-277.5,267.5,670,1
Carlo Brewster,SBD,38,O,Yes,Wraps,M,124.19,125,-250,272.5,285,285,185,200,-215,200,227.5,260,280,280,765,1
James Cahill,SBD,38,O,Yes,Wraps,M,137.8,140,265,290,300,300,180,190,195,195,280,315,337.5,337.5,832.5,1
Brad Madvig,SBD,37,O,Yes,Wraps,M,161.61,140+,292.5,315,335,335,205,215,225,225,295,315,325,325,885,1
Erv Domanski,SBD,40,O,Yes,Multi-ply,M,88.99,90,285,305,-327.5,305,175,-185,-195,175,247.5,265,-282.5,265,745,1
Wes Keith,SBD,31,O,No,Wraps,M,74.62,75,-192.5,192.5,202.5,202.5,150,155,-160,155,227.5,230,272.5,272.5,630,1
Wille Albert,SBD,31,O,No,Wraps,M,80.38,82.5,260,275,282.5,282.5,-155,155,165,165,295,-325,-325,295,742.5,1
Tony Runde,SBD,30,O,No,Wraps,M,88.59,90,277.5,-295,-310,277.5,152.5,167.5,180,180,257.5,270,275,275,732.5,1
Justin Heimer,SBD,25,O,No,Wraps,M,89.58,90,232.5,-255,255,255,-142.5,-147.5,147.5,147.5,250,272.5,-287.5,272.5,675,2
Kyle Messerly,SBD,25,O,No,Wraps,M,89.58,90,-300,-330,-330,,,,,,,,,,,DQ
Ernie Lilliebridge Jr,SBD,23,O,No,Wraps,M,99.2,100,250,275,287.5,287.5,165,182.5,-190,182.5,300,322.5,-327.5,322.5,792.5,1
Patrick Warren,SBD,25,O,No,Wraps,M,98.38,100,190,202.5,215,215,137.5,-147.5,-152.5,137.5,235,257.5,267.5,267.5,620,2
Ben Goyette,SBD,29,O,No,Wraps,M,99.61,100,-220,220,-227.5,220,147.5,-165,-165,147.5,207.5,230,-255,230,597.5,3
Mark Boland,SBD,33,O,No,Wraps,M,95.8,100,130,137.5,142.5,142.5,110,115,-117.5,115,197.5,212.5,227.5,227.5,485,4
Abe Weins,SBD,25,O,No,Wraps,M,109.77,110,227.5,250,265,265,160,-175,175,175,282.5,295,305,305,745,1
Tim Filus,SBD,29,O,No,Wraps,M,106.59,110,262.5,275,-285,275,162.5,170,-177.5,170,272.5,282.5,-295,282.5,727.5,2
Jesse Brill,SBD,30,O,No,Wraps,M,109.77,110,227.5,-237.5,-255,227.5,157.5,160,-167.5,160,210,227.5,-245,227.5,615,3
Eric Lilliebridge,SBD,21,O,No,Wraps,M,118.8,125,-320,347.5,365,365,205,227.5,237.5,237.5,320,345,365,365,967.5,1
Eric Lilliebridge,SBD,21,J,No,Multi-ply,M,118.8,125,-320,347.5,365,365,205,227.5,237.5,237.5,320,345,365,365,967.5,1
Cameron Richler,SBD,30,O,No,Wraps,M,119.2,125,285,-300,-300,285,167.5,177.5,-187.5,177.5,255,265,275,275,737.5,3
Ernie Lilliebridge Sr,SBD,39,O,No,Wraps,M,134.22,140,300,320,327.5,327.5,200,215,,215,300,325,-345,325,867.5,1
Matt Fredericks,SBD,34,O,No,Wraps,M,130,140,227.5,-237.5,-237.5,227.5,155,162.5,167.5,167.5,207.5,222.5,-227.5,222.5,617.5,2
Bret Oswald,SBD,25,O,No,Wraps,M,149.01,140+,285,310,325,325,165,182.5,-192.5,182.5,295,-320,330,330,837.5,1
John Wood,SBD,58,M4,No,Multi-ply,M,108.41,110,-302.5,302.5,-317.5,302.5,217.5,227.5,232.5,232.5,227.5,,,227.5,762.5,1
Brad Saunders,SBD,48,M2,No,Multi-ply,M,115.21,125,-290,-290,-322.5,,,,,,,,,,,DQ
Tony Chirico,SBD,41,M1,No,Multi-ply,M,108,110,-350,-350,,,,,,,,,,,,DQ
Dwayne Warren,SBD,21,J,No,Multi-ply,M,108.18,110,352.5,370,372.5,372.5,250,267.5,275,275,275,287.5,-300,287.5,935,1
Jeff Adkins,SBD,29,O,No,Multi-ply,M,89.81,90,-347.5,347.5,365,365,267.5,280,-285,280,272.5,292.5,-310,292.5,937.5,1
Kyle Nadrchal,SBD,28,O,No,Multi-ply,M,99.2,100,310,332.5,347.5,347.5,-227.5,227.5,240,240,237.5,257.5,265,265,852.5,1
Justin Graafls,SBD,32,O,No,Multi-ply,M,109.18,110,437.5,465,-477.5,465,-280,280,-290,280,347.5,-365,365,365,1110,1
Josh Beauregard,SBD,26,O,No,Multi-ply,M,108,110,335,-350,-350,335,,,,,,,,,,DQ
Tony Chirico,SBD,41,O,No,Multi-ply,M,108,110,-350,-350,,,,,,,,,,,,DQ
Marshall Johnson,SBD,28,O,No,Multi-ply,M,123.51,125,-442.5,442.5,472.5,472.5,277.5,297.5,-320,297.5,-352.5,-352.5,-352.5,,,DQ
Anthony Carlquist,SBD,32,O,No,Multi-ply,M,121.38,125,-442.5,-455,-455,,,,,,,,,,,DQ
Jim Grandick,SBD,42,O,No,Multi-ply,M,123.2,125,-425,425,440,440,-332.5,-332.5,-332.5,,,,,,,DQ
Mike Neuendorf,SBD,21,O,No,Multi-ply,M,125.6,140,365,-375,375,375,257.5,-262.5,-262.5,257.5,287.5,307.5,-320,307.5,940,1
Neil Heisick,SBD,28,O,No,Multi-ply,M,126.42,140,-365,-365,365,365,252.5,267.5,-272.5,267.5,272.5,-282.5,-282.5,272.5,905,2
