Sex,WeightClassKg,Name,Division,Team,BodyweightKg,Best3SquatKg,Best3BenchKg,Best3DeadliftKg,TotalKg,Place,AgeClass,Event,Equipment
M,75,Daniel Schofield,U23,NW,68.2,110,77.5,150,337.5,1,0-22.5,SBD,Single-ply
M,90,Aaron Lohan,Open,NW,88.7,225,182.5,190,597.5,1,0-22.5,SBD,Single-ply
M,100,Jake O'Neill,U23,NW,93.2,290,180,270,740,1,0-22.5,SBD,Single-ply
M,125+,Richard Frances Booth,Open,NW,137,235,190,220,645,1,0-22.5,SBD,Single-ply
M,125+,Andy Gregory,Open,NW,154.8,300,,,,DQ,0-22.5,SBD,Single-ply
M,110,Malcolm Bason,Guest,EM,105.7,210,135,220,565,G,49.5-58.5,SBD,Single-ply
