Place,WeightClassKg,Event,Equipment,Name,Sex,Country,Age,Division,BodyweightKg,Squat1Kg,Squat2Kg,Squat3Kg,Squat4Kg,Best3SquatKg,Bench1Kg,Bench2Kg,Bench3Kg,Bench4Kg,Best3BenchKg,Deadlift1Kg,Deadlift2Kg,Deadlift3Kg,Deadlift4Kg,Best3DeadliftKg,TotalKg
1,50.5,S,Raw,Lyndsey Hallam,F,GBR,27,SR,49.3,85,90,92.5,,92.5,,,,,,,,,,,92.5
2,50.5,S,Raw,Frances Arthur,F,IRE,40,M1,49.5,77.5,82.5,-85,,82.5,,,,,,,,,,,82.5
1,53,S,Raw,Derina Kelliher,F,IRE,21,JR,52.2,77.5,82.5,87.5,,87.5,,,,,,,,,,,87.5
1,55.5,S,Raw,Wendy Evans,F,GBR,49,M2,54.5,105,-113,113,115,113,,,,,,,,,,,113
2,55.5,S,Raw,Alexandra Fritschy,F,SWI,30,SR,55,95,105,110,,110,,,,,,,,,,,110
3,55.5,S,Raw,Savanna Hughes,F,GBR,22,JR,55.4,90,95,-100,,95,,,,,,,,,,,95
4,55.5,S,Raw,Melanie Aranda,F,IRE,28,SR,54.8,82.5,87.5,90,,90,,,,,,,,,,,90
5,55.5,S,Raw,Elizabeth Street,F,GBR,52,M3,54.8,80,87.5,95,,95,,,,,,,,,,,95
6,55.5,S,Raw,Deborah Macdonald,F,GBR,45,M2,53.2,70,,,,70,,,,,,,,,,,70
1,63,S,Raw,Helen Wuyts,F,BEL,25,SR,62.4,120,126,130,,130,,,,,,,,,,,130
2,63,S,Raw,Danielle O'Sullivan,F,IRE,36,SR,62.3,122.5,-127.5,127.5,,127.5,,,,,,,,,,,127.5
3,63,S,Raw,Geina McGrath,F,IRE,26,SR,60.1,105,110,115,,115,,,,,,,,,,,115
4,63,S,Raw,Simona Lapustea,F,ITA,39,SR,61.6,115,-120,-120,,115,,,,,,,,,,,115
5,63,S,Raw,Angelica Toia,F,ITA,23,JR,61,80,90,-100,,90,,,,,,,,,,,90
1,70,S,Raw,Sophie Estel,F,FRA,51,M3,68.7,120,125,-130.5,,125,,,,,,,,,,,125
2,70,S,Raw,Mollie Wagstaff,F,GBR,28,SR,67.6,-115,120,-127.5,,120,,,,,,,,,,,120
3,70,S,Raw,Edyta Piechowicz,F,IRE,31,SR,64.6,100,-105,-105,,100,,,,,,,,,,,100
4,70,S,Raw,Katrin Dreyer Gibney,F,IRE,56,M4,64.9,-95,-95,95,,95,,,,,,,,,,,95
5,70,S,Raw,Patricia Fahy,F,IRE,51,M3,67.8,-80,80,-85,,80,,,,,,,,,,,80
1,80,S,Raw,Emma Wright,F,GBR,41,M1,79.9,110,115,120,,120,,,,,,,,,,,120
2,80,S,Raw,Lacy Mcgrath,F,GER,27,SR,71.9,100,-107.5,-107.5,,100,,,,,,,,,,,100
3,80,S,Raw,Tatiana Filimonova,F,RUS,49,M2,74.9,95,100,-105,,100,,,,,,,,,,,100
4,80,S,Raw,Eleonora Toia,F,ITA,17,T2,73.7,72.5,80,90,,90,,,,,,,,,,,90
DQ,80,S,Raw,Siobhan Jacob,F,IRE,42,M1,77.1,-107.5,-107.5,-107.5,,,,,,,,,,,,,
1,90+,S,Raw,Ruth Gardner,F,GBR,42,M1,115.5,135,-142.5,-142.5,,135,,,,,,,,,,,135
1,56,S,Raw,Domenico Catricala,M,ITA,80,M9,54.1,80,85,90,92.5,90,,,,,,,,,,,90
1,60,S,Raw,Ben Hampson,M,GBR,27,SR,59.6,150,155,160,,160,,,,,,,,,,,160
2,60,S,Raw,Adrian Strechi,M,MOL,18,T3,59.2,125,132.5,-140,,132.5,,,,,,,,,,,132.5
1,67.5,S,Raw,David Watts,M,GBR,26,SR,66,172.5,180,-185,,180,,,,,,,,,,,180
2,67.5,S,Raw,Tim van den Abbeele,M,BEL,29,SR,64.9,150,160,-170,,160,,,,,,,,,,,160
3,67.5,S,Raw,Jordan Holland,M,IRE,16,T2,65.6,130,142.5,148.5,150,148.5,,,,,,,,,,,148.5
4,67.5,S,Raw,Thomas Quelet,M,FRA,17,T2,66.2,135,142.5,149,-151,149,,,,,,,,,,,149
DD,67.5,S,Raw,Leonid Balaban,M,MOL,25,SR,66.7,175,185,-191.5,,185,,,,,,,,,,,
1,75,S,Raw,Indra Sudarminto,M,BEL,26,SR,73.4,242.5,252.5,-262.5,,252.5,,,,,,,,,,,252.5
2,75,S,Raw,Serghei Teliucov,M,MOL,31,SR,74,180,185,-190,,185,,,,,,,,,,,185
3,75,S,Raw,Andrej Roller,M,GER,24,SR,72.2,175,182.5,-187.5,,182.5,,,,,,,,,,,182.5
4,75,S,Raw,Patrick Metayer,M,FRA,52,M3,74.5,140,145,147.5,,147.5,,,,,,,,,,,147.5
DQ,75,S,Raw,Pavel Meshkov,M,RUS,24,SR,67.6,-162.5,-162.5,-162.5,,,,,,,,,,,,,
1,82.5,S,Raw,Lorenzo Dore,M,ITA,51,M3,81.4,175,185,192.5,,192.5,,,,,,,,,,,192.5
2,82.5,S,Raw,Stephen Charters,M,GBR,55,M4,79.9,160,170,180,,180,,,,,,,,,,,180
3,82.5,S,Raw,Régis Aubry,M,FRA,45,M2,81.6,160,167.5,172.5,,172.5,,,,,,,,,,,172.5
4,82.5,S,Raw,Maxime Hellec-Marche,M,FRA,23,JR,81,157.5,165,170,,170,,,,,,,,,,,170
5,82.5,S,Raw,José Fleury,M,SWI,58,M4,80.6,145,150,155,,155,,,,,,,,,,,155
6,82.5,S,Raw,Francis Spiteri,M,MAL,68,M6,81.5,140,151,153,,153,,,,,,,,,,,153
7,82.5,S,Raw,Viktor Schlinger,M,GER,65,M6,79.4,145,-152.5,-152.5,,145,,,,,,,,,,,145
1,90,S,Raw,Mark Jackson,M,GBR,27,SR,87.4,235,250,263,,263,,,,,,,,,,,263
2,90,S,Raw,Sean Smithson,M,GBR,40,M1,88.8,210,220,-230,,220,,,,,,,,,,,220
3,90,S,Raw,Markus Eberl,M,GER,34,SR,85.8,195,200,-207.5,,200,,,,,,,,,,,200
4,90,S,Raw,Patrick Valfrey,M,FRA,52,M3,88.7,175,190,-200,,190,,,,,,,,,,,190
5,90,S,Raw,Logue Connor,M,IRE,21,JR,84.8,167.5,180,-185,,180,,,,,,,,,,,180
6,90,S,Raw,Jonny Piotrowski,M,FRA,55,M4,86.7,160,-170,-170,,160,,,,,,,,,,,160
7,90,S,Raw,Vladimir Meleca,M,MOL,61,M5,88.3,157.5,-167.5,-170.5,,157.5,,,,,,,,,,,157.5
8,90,S,Raw,Paolo Stefanelli,M,ITA,57,M4,87.1,155,-170,-170,,155,,,,,,,,,,,155
DQ,90,S,Raw,Bertrand Saugy,M,SWI,28,SR,88.1,-185,-185,-185,,,,,,,,,,,,,
1,100,S,Raw,Victor Gogu,M,MOL,27,SR,98,260,-271.5,271.5,-275,271.5,,,,,,,,,,,271.5
2,100,S,Raw,François Kalic,M,FRA,51,M3,97.8,187.5,200,213,218,213,,,,,,,,,,,213
3,100,S,Raw,Serge Bustreel,M,FRA,71,M7,96.8,185,195,202.5,205,202.5,,,,,,,,,,,202.5
4,100,S,Raw,Timo Jakobi,M,GER,17,T2,95.4,193,198,200,203,200,,,,,,,,,,,200
1,110,S,Raw,Dylan Callus,M,MAL,21,JR,108.6,231,240,-245,,240,,,,,,,,,,,240
2,110,S,Raw,Anatolii Crucerescu,M,MOL,26,SR,108.3,205,215,-222.5,,215,,,,,,,,,,,215
3,110,S,Raw,Kevin Webb,M,GBR,36,SR,108.2,210,-220,-220,,210,,,,,,,,,,,210
4,110,S,Raw,Raphael Hastenrath,M,GER,17,T2,105.7,185,190,195,200,195,,,,,,,,,,,195
5,110,S,Raw,James Collins,M,IRE,47,M2,110,180,-185,,,180,,,,,,,,,,,180
6,110,S,Raw,John West,M,IRE,75,M8,108,140,-150,,,140,,,,,,,,,,,140
1,125,S,Raw,Roman Scorici,M,MOL,33,SR,116.4,275,285,-293,,285,,,,,,,,,,,285
2,125,S,Raw,Ion Catana,M,MOL,32,SR,118,235,242.5,250,,250,,,,,,,,,,,250
3,125,S,Raw,Uwe Berends,M,GER,50,M3,120.7,-215,-215,215,,215,,,,,,,,,,,215
4,125,S,Raw,Francesco Sudano,M,ITA,37,SR,115.5,-207.5,207.5,-220,,207.5,,,,,,,,,,,207.5
1,145,S,Raw,Morgan Evans,M,GBR,17,T2,130.4,172.5,-182.5,185,-190,185,,,,,,,,,,,185
1,145+,S,Raw,Serghei Bîrsanu,M,MOL,40,M1,145.8,272.5,282.5,287.5,290,287.5,,,,,,,,,,,287.5
2,145+,S,Raw,Yaşar Küçük,M,GER,43,M1,156.2,260,280,285,-288,285,,,,,,,,,,,285
1,55.5,S,Single-ply,Alexandra Fritschy,F,SWI,30,SR,55,95,105,-115,,105,,,,,,,,,,,105
2,55.5,S,Single-ply,Deborah Macdonald,F,GBR,45,M2,53.2,75,-85,90,96,90,,,,,,,,,,,90
1,63,S,Single-ply,Helen Wuyts,F,BEL,25,SR,62.4,160,167.5,,,167.5,,,,,,,,,,,167.5
1,90,S,Single-ply,Paulina Coleman,F,IRE,39,SR,84.1,150,160,-170,,160,,,,,,,,,,,160
1,67.5,S,Single-ply,Alessio Santi,M,ITA,29,SR,65.8,185,-195,197.5,,197.5,,,,,,,,,,,197.5
2,67.5,S,Single-ply,Tim van den Abbeele,M,BEL,29,SR,64.9,175,185,-195,,185,,,,,,,,,,,185
1,75,S,Single-ply,Serghei Teliucov,M,MOL,31,SR,74,190,205,210,,210,,,,,,,,,,,210
2,75,S,Single-ply,Gheorghe Dolința,M,MOL,23,JR,74.5,187.5,200,-207.5,,200,,,,,,,,,,,200
3,75,S,Single-ply,Liviu Porumbescu,M,MOL,16,T2,72.9,160,170,-180,,170,,,,,,,,,,,170
1,82.5,S,Single-ply,Serge Beldjord,M,FRA,52,M3,82,170,180,-200,,180,,,,,,,,,,,180
2,82.5,S,Single-ply,José Fleury,M,SWI,58,M4,80.6,155,160.5,172.5,,172.5,,,,,,,,,,,172.5
1,90,S,Single-ply,Patrick Valfrey,M,FRA,52,M3,88.7,190,202.5,215,,215,,,,,,,,,,,215
1,100,S,Single-ply,Gianni Vermote,M,BEL,44,M1,99.2,245,-265,265,-280,265,,,,,,,,,,,265
1,125,S,Single-ply,Francesco Pellizzoni,M,ITA,39,SR,123,320,-340,,,320,,,,,,,,,,,320
2,125,S,Single-ply,Loren Schäfer,M,GER,23,JR,113.8,291,305,-310,,305,,,,,,,,,,,305
1,145,S,Single-ply,Andre Du Plessis,M,IRE,52,M3,142,300,315,-325,,315,,,,,,,,,,,315
2,145,S,Single-ply,Maxim Tikhonov,M,RUS,49,M2,133.8,305,-320,-325,,305,,,,,,,,,,,305
1,44,B,Raw,Nicole Debail,F,FRA,56,M4,43.3,,,,,,50,55,-58,,55,,,,,,55
1,50.5,B,Raw,Jen Cassar,F,GBR,24,SR,49.1,,,,,,55,60,62.5,,62.5,,,,,,62.5
2,50.5,B,Raw,Lucy Anderson,F,GBR,39,SR,48,,,,,,57.5,-60,-62.5,,57.5,,,,,,57.5
3,50.5,B,Raw,Frances Arthur,F,IRE,40,M1,50.5,,,,,,47.5,50,-52.5,,50,,,,,,50
4,50.5,B,Raw,Shauna Madden,F,IRE,14,T1,49.6,,,,,,37.5,40,-43,,40,,,,,,40
1,53,B,Raw,Derina Kelliher,F,IRE,21,JR,52.1,,,,,,50,-52.5,-52.5,,50,,,,,,50
1,55.5,B,Raw,Elizabeth Street,F,GBR,52,M3,54.6,,,,,,50,53,55,60,55,,,,,,55
2,55.5,B,Raw,Deborah Macdonald,F,GBR,45,M2,53.3,,,,,,47.5,50,52.5,,52.5,,,,,,52.5
3,55.5,B,Raw,Alexandra Fritschy,F,SWI,30,SR,55.4,,,,,,47.5,50,-55,,50,,,,,,50
4,55.5,B,Raw,Aileen Flynn,F,BEL,51,M3,53.8,,,,,,40,45,-53,,45,,,,,,45
5,55.5,B,Raw,Sally Trueman,F,GBR,50,M3,54.5,,,,,,42.5,-45,-45,,42.5,,,,,,42.5
DQ,55.5,B,Raw,Wendy Evans,F,GBR,49,M2,54.3,,,,,,-60,-60,-60,,,,,,,,
1,58.5,B,Raw,Fatiha Chettibi,F,FRA,26,SR,55.6,,,,,,75,80,85,,85,,,,,,85
2,58.5,B,Raw,Sophie Hebert,F,FRA,27,SR,57.9,,,,,,65,70,72.5,,72.5,,,,,,72.5
3,58.5,B,Raw,Reinhilde Loger,F,BEL,26,SR,58.5,,,,,,60,65,67.5,,67.5,,,,,,67.5
4,58.5,B,Raw,Alice Gibbons,F,GBR,26,SR,57.2,,,,,,65,-70,-70,,65,,,,,,65
5,58.5,B,Raw,Geraldine Cronnelly,F,IRE,35,SR,57.6,,,,,,57.5,60,62.5,,62.5,,,,,,62.5
6,58.5,B,Raw,Orla O'Driscoll,F,IRE,30,SR,57.8,,,,,,47.5,-50,-50,,47.5,,,,,,47.5
7,58.5,B,Raw,Savanna Hughes,F,GBR,22,JR,56.1,,,,,,37.5,40,-42.5,,40,,,,,,40
1,63,B,Raw,Helen Wuyts,F,BEL,25,SR,61.8,,,,,,65,70,-72.5,,70,,,,,,70
2,63,B,Raw,Geina McGrath,F,IRE,26,SR,60.3,,,,,,62.5,67.5,-70,,67.5,,,,,,67.5
3,63,B,Raw,Georgina Mann,F,GBR,24,SR,61.3,,,,,,57.5,62.5,65,,65,,,,,,65
4,63,B,Raw,Danielle O'Sullivan,F,IRE,36,SR,62,,,,,,62.5,-65,-65,,62.5,,,,,,62.5
5,63,B,Raw,Diana Horgan,F,IRE,41,M1,59.6,,,,,,57.5,60,-62.5,,60,,,,,,60
6,63,B,Raw,Angelica Toia,F,ITA,23,JR,60.8,,,,,,55,-60,-60,,55,,,,,,55
7,63,B,Raw,Elena Medvedeva,F,RUS,54,M3,60.8,,,,,,47.5,50,-52.5,,50,,,,,,50
1,70,B,Raw,Kathryn Holley,F,GBR,35,SR,68.6,,,,,,-85,85,90,,90,,,,,,90
2,70,B,Raw,Sheridan Lucas,F,GBR,31,SR,66.2,,,,,,75,-80,80,,80,,,,,,80
3,70,B,Raw,Kat Court,F,GBR,34,SR,65.5,,,,,,70,72.5,75,,75,,,,,,75
4,70,B,Raw,Edyta Piechowicz,F,IRE,31,SR,64.1,,,,,,60,65,-70,,65,,,,,,65
5,70,B,Raw,Michela Saraf Gianello,F,ITA,20,JR,68.3,,,,,,57.5,60,62.5,,62.5,,,,,,62.5
6,70,B,Raw,Heide Hegner,F,GER,60,M5,65.5,,,,,,55,57.5,-60,,57.5,,,,,,57.5
7,70,B,Raw,Elizabeth Dingley,F,GBR,56,M4,67.6,,,,,,52.5,55,57.5,-58.5,57.5,,,,,,57.5
8,70,B,Raw,Gibneykatrin Dreyer,F,IRE,56,M4,66,,,,,,42.5,-45,-45,,42.5,,,,,,42.5
1,80,B,Raw,Charlotte Kennedy,F,IRE,29,SR,76.9,,,,,,60,62.5,65,,65,,,,,,65
2,80,B,Raw,Siobhan Jacob,F,IRE,42,M1,77.5,,,,,,57.5,60,65,,65,,,,,,65
3,80,B,Raw,Tatiana Filimonova,F,RUS,49,M2,75,,,,,,60,62.5,-65,,62.5,,,,,,62.5
4,80,B,Raw,Eleonora Toia,F,ITA,17,T2,73.6,,,,,,55,60,-65,,60,,,,,,60
5,80,B,Raw,Elizabeth Merrick,F,GBR,54,M3,75.1,,,,,,50,-52.5,-52.5,,50,,,,,,50
1,90,B,Raw,Paulina Coleman,F,IRE,39,SR,84.4,,,,,,-75,75,80,,80,,,,,,80
2,90,B,Raw,Kim Jones,F,GBR,28,SR,80.9,,,,,,65,-67.5,67.5,,67.5,,,,,,67.5
1,90+,B,Raw,Froukje Koeckhoven,F,BEL,47,M2,90.3,,,,,,87.5,90,92.5,-95,92.5,,,,,,92.5
2,90+,B,Raw,Andrea Neumann,F,GBR,44,M1,111.7,,,,,,70,77.5,-83,,77.5,,,,,,77.5
3,90+,B,Raw,Ruth Gardner,F,GBR,42,M1,115.8,,,,,,65,-67.5,-67.5,,65,,,,,,65
1,52,B,Raw,Ryan Anderson,M,GBR,18,T3,49.4,,,,,,67.5,70,75,,75,,,,,,75
DD,56,B,Raw,Marco Feggi,M,ITA,40,M1,52.7,,,,,,85,87.5,-90,,87.5,,,,,,
1,60,B,Raw,Lucas Rouland,M,FRA,21,JR,59.9,,,,,,112.5,117.5,122.5,-128,122.5,,,,,,122.5
2,60,B,Raw,Mark Anderson,M,GBR,50,M3,58,,,,,,100,110,-115,,110,,,,,,110
3,60,B,Raw,Ben Hampson,M,GBR,27,SR,59.5,,,,,,110,-115,-115,,110,,,,,,110
4,60,B,Raw,Sébatien Brito,M,FRA,31,SR,59.5,,,,,,102.5,107.5,-112.5,,107.5,,,,,,107.5
5,60,B,Raw,Adrian Strechi,M,MOL,18,T3,59.2,,,,,,100,-110,-110,,100,,,,,,100
6,60,B,Raw,Giampaolo Serra,M,ITA,69,M6,57.9,,,,,,85,90,95,,95,,,,,,95
7,60,B,Raw,Dumitru Chiochiu,M,MOL,17,T2,59.4,,,,,,90,95,-100,,95,,,,,,95
8,60,B,Raw,Jean-Michel Moreiro,M,FRA,64,M5,59.3,,,,,,80,85,87.5,,87.5,,,,,,87.5
1,67.5,B,Raw,Alexandr Semerenco,M,MOL,21,JR,64.1,,,,,,133.5,137.5,,,137.5,,,,,,137.5
2,67.5,B,Raw,Frédéric Saunois,M,FRA,52,M3,66.3,,,,,,130,-134.5,-134.5,,130,,,,,,130
3,67.5,B,Raw,Christian Faidherbe,M,FRA,33,SR,66.1,,,,,,127.5,-132.5,-132.5,,127.5,,,,,,127.5
4,67.5,B,Raw,Tim van den Abbeele,M,BEL,29,SR,65.7,,,,,,112.5,120,-125,,120,,,,,,120
5,67.5,B,Raw,Cristian Verejan,M,MOL,17,T2,66.2,,,,,,105,112.5,117.5,,117.5,,,,,,117.5
6,67.5,B,Raw,Paul Bechthold,M,GER,57,M4,66.5,,,,,,110,115,-120.5,,115,,,,,,115
DD,67.5,B,Raw,Leonid Balaban,M,MOL,25,SR,66.8,,,,,,115,-120,-122.5,,115,,,,,,
1,75,B,Raw,Eric Ribeiro,M,FRA,27,SR,71.3,,,,,,150,155,-160,,155,,,,,,155
2,75,B,Raw,Mathieu Coudriaud,M,FRA,30,SR,73.2,,,,,,140,-145,145,,145,,,,,,145
3,75,B,Raw,Maxwell Heard,M,GBR,33,SR,74.5,,,,,,140,145,-150,,145,,,,,,145
4,75,B,Raw,Michael Applegate,M,GBR,31,SR,71,,,,,,135,-140,-140,,135,,,,,,135
5,75,B,Raw,Rosario Russo,M,ITA,36,SR,72.8,,,,,,135,-140,-140,,135,,,,,,135
6,75,B,Raw,Gheorghe Dolința,M,MOL,23,JR,74.6,,,,,,135,-140,-140,,135,,,,,,135
7,75,B,Raw,Victor Schipani,M,FRA,56,M4,72.8,,,,,,120,127.5,132.5,,132.5,,,,,,132.5
8,75,B,Raw,Friedhelm Schröter,M,GER,55,M4,73.4,,,,,,125,130,132.5,,132.5,,,,,,132.5
9,75,B,Raw,Valerio Russo,M,ITA,31,SR,72.7,,,,,,125,130,-135,,130,,,,,,130
10,75,B,Raw,Jonas D'Halluin,M,BEL,22,JR,74.4,,,,,,125,130,-135,,130,,,,,,130
11,75,B,Raw,Pascal Costa,M,FRA,50,M3,74.4,,,,,,120,125,-127.5,,125,,,,,,125
12,75,B,Raw,Dirk Waroux,M,BEL,36,SR,74.1,,,,,,120,122.5,-125,,122.5,,,,,,122.5
13,75,B,Raw,Eric Buron,M,FRA,54,M3,73.3,,,,,,112.5,120,-125,,120,,,,,,120
14,75,B,Raw,Jan Walraevens,M,BEL,22,JR,73.6,,,,,,115,-120,120,,120,,,,,,120
15,75,B,Raw,Pascal Bizon,M,FRA,59,M4,73.6,,,,,,110,115,-117.5,,115,,,,,,115
16,75,B,Raw,Cyrille Cusumano,M,FRA,46,M2,74.4,,,,,,110,115,-120,,115,,,,,,115
17,75,B,Raw,Didier Debail,M,FRA,60,M5,68.2,,,,,,107.5,112.5,-115,,112.5,,,,,,112.5
18,75,B,Raw,Daniel Delaporte,M,FRA,69,M6,73.4,,,,,,95,100,-105,,100,,,,,,100
DQ,75,B,Raw,Dumitru Bort,M,MOL,14,T1,68.4,,,,,,-80,-80,-80,,,,,,,,
DQ,75,B,Raw,Pavel Meshkov,M,RUS,24,SR,69.2,,,,,,-120,,,,,,,,,,
DQ,75,B,Raw,Ben Richens,M,GBR,35,SR,74.4,,,,,,-120,-120,,,,,,,,,
1,82.5,B,Raw,Wilfried Couchy,M,FRA,37,SR,81,,,,,,157.5,165,172.5,,172.5,,,,,,172.5
2,82.5,B,Raw,Yuriy Klymenko,M,UKR,35,SR,80.2,,,,,,160,167.5,-172.5,,167.5,,,,,,167.5
3,82.5,B,Raw,Claude Patout,M,FRA,55,M4,79.2,,,,,,153.5,160.5,163,165,163,,,,,,163
4,82.5,B,Raw,Rémi Babielle,M,FRA,24,SR,79.7,,,,,,150,-155,-155,,150,,,,,,150
5,82.5,B,Raw,Maxime Hellec-Marche,M,FRA,23,JR,80.3,,,,,,135,140,142.5,,142.5,,,,,,142.5
6,82.5,B,Raw,Joaquim DaSilva,M,FRA,52,M3,81.4,,,,,,140,-145,-145,,140,,,,,,140
7,82.5,B,Raw,Martin O'Connell,M,IRE,34,SR,80.4,,,,,,127.5,137.5,-145,,137.5,,,,,,137.5
8,82.5,B,Raw,Ashley Sinclair,M,GBR,66,M6,80.7,,,,,,125,130,-141,,130,,,,,,130
9,82.5,B,Raw,Régis Aubry,M,FRA,45,M2,81.6,,,,,,125,130,-132.2,,130,,,,,,130
10,82.5,B,Raw,Alex Grass,M,GER,44,M1,78.4,,,,,,120,125,127.5,,127.5,,,,,,127.5
11,82.5,B,Raw,Stephen Rigley,M,IRE,40,M1,77.6,,,,,,125,-130,-130,,125,,,,,,125
12,82.5,B,Raw,Lorenzo Dore,M,ITA,51,M3,81.6,,,,,,122.5,125,-130,,125,,,,,,125
13,82.5,B,Raw,Michel Sorenzo,M,FRA,59,M4,81.7,,,,,,120,122.5,-125,,122.5,,,,,,122.5
14,82.5,B,Raw,Ilio Polese,M,ITA,75,M8,76,,,,,,100,107.5,112.5,115,112.5,,,,,,112.5
15,82.5,B,Raw,José Fleury,M,SWI,58,M4,80.1,,,,,,-102.5,102.5,107.5,,107.5,,,,,,107.5
16,82.5,B,Raw,Silvio Caneparo,M,ITA,56,M4,77.8,,,,,,105,-110,-110,,105,,,,,,105
17,82.5,B,Raw,Alain Schall,M,FRA,66,M6,78.2,,,,,,92.5,100,102.5,,102.5,,,,,,102.5
18,82.5,B,Raw,Noël Vanglabeke,M,BEL,68,M6,81.7,,,,,,-92.5,95,-100,,95,,,,,,95
19,82.5,B,Raw,Heinrich Haft,M,GER,73,M7,79.4,,,,,,80,85,90,,90,,,,,,90
DQ,82.5,B,Raw,Daniel Bulai,M,MOL,16,T2,78.8,,,,,,-92.5,-92.5,-92.5,,,,,,,,
DQ,82.5,B,Raw,Jean-Michel Maire,M,FRA,27,SR,78.7,,,,,,-155,-155,-155,,,,,,,,
DQ,82.5,B,Raw,Emiliano Criecesi,M,ITA,41,M1,76,,,,,,-120,-120,-120,,,,,,,,
1,90,B,Raw,Yurii Totskyi,M,UKR,40,M1,87.7,,,,,,195,202.5,-207.5,,202.5,,,,,,202.5
2,90,B,Raw,Johan van de Casteele,M,BEL,53,M3,87.5,,,,,,155,160,162.5,,162.5,,,,,,162.5
3,90,B,Raw,Xavier Craffe,M,FRA,36,SR,87.5,,,,,,150,155,160,,160,,,,,,160
4,90,B,Raw,Steeve Wattebled,M,FRA,45,M2,85.3,,,,,,152.5,157.5,-160,,157.5,,,,,,157.5
5,90,B,Raw,Jerome Prevot,M,FRA,42,M1,88.2,,,,,,152.5,157.5,-162.5,,157.5,,,,,,157.5
6,90,B,Raw,Gennadii Vitriakov,M,UKR,53,M3,89.6,,,,,,150,-157.5,157.5,,157.5,,,,,,157.5
7,90,B,Raw,Markus Eberl,M,GER,34,SR,85.5,,,,,,150,155,-157.5,,155,,,,,,155
8,90,B,Raw,Rémi Denecker,M,FRA,30,SR,86.3,,,,,,145,150,155,,155,,,,,,155
9,90,B,Raw,Edouard Estorez,M,FRA,36,SR,88.8,,,,,,155,-160,-160,,155,,,,,,155
10,90,B,Raw,Patrick Haley,M,USA,51,M3,88.6,,,,,,147.5,-157.5,,,147.5,,,,,,147.5
11,90,B,Raw,Justin Carroll,M,IRE,36,SR,89.5,,,,,,147.5,-155,-155,,147.5,,,,,,147.5
12,90,B,Raw,Logue Connor,M,IRE,21,JR,84.3,,,,,,130,140,145,,145,,,,,,145
13,90,B,Raw,Philippe Roussel,M,FRA,55,M4,88.7,,,,,,142.5,145,-150,,145,,,,,,145
14,90,B,Raw,Gennadii Sorokin,M,RUS,57,M4,88.8,,,,,,140,-145,145,,145,,,,,,145
15,90,B,Raw,Tim Below,M,GER,26,SR,88.4,,,,,,135,140,-142.5,,140,,,,,,140
16,90,B,Raw,Wouter Verstraeten,M,BEL,40,M1,88.5,,,,,,-140,140,-145,,140,,,,,,140
17,90,B,Raw,Sean Smithson,M,GBR,40,M1,89.1,,,,,,135,140,-142.5,,140,,,,,,140
18,90,B,Raw,Bertrand Saugy,M,SWI,28,SR,88.4,,,,,,127.5,132.5,-137.5,,132.5,,,,,,132.5
19,90,B,Raw,Patrick Valfrey,M,FRA,52,M3,89.2,,,,,,120,127.5,132.5,,132.5,,,,,,132.5
20,90,B,Raw,Oleg Beloborrodov,M,MOL,57,M4,82.8,,,,,,-125,125,-130,,125,,,,,,125
21,90,B,Raw,Kevin Canard,M,FRA,18,T3,87.2,,,,,,115,-125,-125,,115,,,,,,115
22,90,B,Raw,Thierry Mathieu,M,FRA,56,M4,84.6,,,,,,110,,,,110,,,,,,110
23,90,B,Raw,Gerry Cronnelly Sr,M,IRE,80,M9,87.7,,,,,,72.5,75,-77.5,,75,,,,,,75
DQ,90,B,Raw,Vladimir Meleca,M,MOL,61,M5,88.1,,,,,,-105,,,,,,,,,,
1,100,B,Raw,Harbans Bansal,M,GBR,39,SR,96.8,,,,,,190,200,205,,205,,,,,,205
2,100,B,Raw,Adrian Mihalache,M,IRE,27,SR,96.8,,,,,,190,200,-205,,200,,,,,,200
3,100,B,Raw,Lionel Chatelain,M,SWI,26,SR,96.8,,,,,,190,195,200,,200,,,,,,200
4,100,B,Raw,Roland Gongarad,M,SWI,42,M1,99,,,,,,200,-206.5,-206.5,,200,,,,,,200
5,100,B,Raw,Victor Gogu,M,MOL,27,SR,98.8,,,,,,185,192.5,-197.5,,192.5,,,,,,192.5
6,100,B,Raw,Konstantin Berdinskikh,M,RUS,46,M2,99.6,,,,,,170,180,-185,,180,,,,,,180
7,100,B,Raw,Szymon Czernikiewicz,M,BEL,26,SR,97.4,,,,,,165,170,-175,,170,,,,,,170
8,100,B,Raw,Andreas Kling,M,GER,50,M3,95.3,,,,,,140,155,160,,160,,,,,,160
9,100,B,Raw,François Kalic,M,FRA,51,M3,97.8,,,,,,145,152.5,-162.5,,152.5,,,,,,152.5
10,100,B,Raw,Ringo Dequidt,M,BEL,32,SR,93.4,,,,,,137.5,145,150,,150,,,,,,150
11,100,B,Raw,Egor Martiniuc,M,MOL,33,SR,96.7,,,,,,150,-157.5,-157.5,,150,,,,,,150
12,100,B,Raw,Philippe Belloncle,M,FRA,57,M4,97.3,,,,,,140,147.5,150,,150,,,,,,150
13,100,B,Raw,Martin Ladewig,M,GER,37,SR,96.9,,,,,,140,-145,-145,,140,,,,,,140
14,100,B,Raw,Pascal LeBlanc,M,FRA,54,M3,99,,,,,,137.5,140,-142.5,,140,,,,,,140
15,100,B,Raw,Jacky Secke,M,BEL,65,M6,99.3,,,,,,-135,-135,137.5,-143,137.5,,,,,,137.5
16,100,B,Raw,Maximilian Kranz,M,GER,20,JR,93.7,,,,,,130,-135,135,,135,,,,,,135
17,100,B,Raw,Vladimir Li,M,RUS,65,M6,94.6,,,,,,-135,-135,135,-143,135,,,,,,135
18,100,B,Raw,Danilo Ceirani,M,ITA,53,M3,91.9,,,,,,120,130,-135,,130,,,,,,130
19,100,B,Raw,Pierre Vallais,M,FRA,70,M7,97.9,,,,,,122.5,127.5,130,,130,,,,,,130
20,100,B,Raw,Reg Byrne,M,IRE,46,M2,93.2,,,,,,-125,125,-127.5,,125,,,,,,125
21,100,B,Raw,Stewart James,M,GBR,70,M7,98.7,,,,,,120,-125,-135,,120,,,,,,120
1,110,B,Raw,Steve Haswell,M,GBR,36,SR,107.9,,,,,,190,195,200,,200,,,,,,200
2,110,B,Raw,Neil Thomas,M,GBR,45,M2,109.7,,,,,,175,185,-190,,185,,,,,,185
3,110,B,Raw,David Dufour,M,FRA,43,M1,106.2,,,,,,170,-177.5,-177.5,,170,,,,,,170
4,110,B,Raw,Anatolii Crucerescu,M,MOL,26,SR,107.6,,,,,,165,170,-175,,170,,,,,,170
5,110,B,Raw,Dylan Callus,M,MAL,21,JR,109.1,,,,,,155,160,-165,,160,,,,,,160
6,110,B,Raw,Philip Salter,M,GBR,28,SR,109.3,,,,,,150,157.5,-162.5,,157.5,,,,,,157.5
7,110,B,Raw,Igor Kurotchenko,M,RUS,55,M4,108.9,,,,,,140,150,152.5,,152.5,,,,,,152.5
8,110,B,Raw,Colin Kennard,M,IRE,45,M2,107,,,,,,135,140,145,,145,,,,,,145
9,110,B,Raw,John West,M,IRE,75,M8,107.6,,,,,,125,-130,-130,,125,,,,,,125
10,110,B,Raw,Jeanpaul Delapierre,M,FRA,68,M6,105.3,,,,,,117.5,120,122.5,,122.5,,,,,,122.5
11,110,B,Raw,John Gavin Walker,M,GBR,77,M8,100.1,,,,,,90,95,100,,100,,,,,,100
1,125,B,Raw,Simon Lythgoe,M,GBR,43,M1,117.4,,,,,,210,222.5,228.5,,228.5,,,,,,228.5
2,125,B,Raw,Ion Catana,M,MOL,32,SR,117.6,,,,,,190,195,200,,200,,,,,,200
3,125,B,Raw,Pavel Perov,M,RUS,50,M3,116.1,,,,,,-190,190,-205,,190,,,,,,190
4,125,B,Raw,Maik Hollander,M,GER,49,M2,113.4,,,,,,167.5,177.5,187.5,,187.5,,,,,,187.5
5,125,B,Raw,Cédric Colange,M,FRA,34,SR,116.1,,,,,,170,-172.5,175,,175,,,,,,175
6,125,B,Raw,Anthony Mahieux,M,FRA,27,SR,124.2,,,,,,170,-175,-175,,170,,,,,,170
7,125,B,Raw,Francesco Sudano,M,ITA,37,SR,114.7,,,,,,150,-160,-170,,150,,,,,,150
8,125,B,Raw,James Collins,M,IRE,47,M2,112.7,,,,,,140,145,-150,,145,,,,,,145
9,125,B,Raw,Orson Harms,M,BEL,42,M1,116.4,,,,,,142.5,,,,142.5,,,,,,142.5
10,125,B,Raw,Oscar Vlaeminck,M,BEL,60,M5,113.3,,,,,,115,-117.5,-117.5,,115,,,,,,115
DQ,125,B,Raw,Stanislav Nigruța,M,MOL,34,SR,120.3,,,,,,-190,-190,-190,,,,,,,,
1,145,B,Raw,David Hernandez,M,FRA,35,SR,138.1,,,,,,207.5,215,-222.5,,215,,,,,,215
2,145,B,Raw,Valeriy Shapovalov,M,GER,37,SR,132.8,,,,,,170,,,,170,,,,,,170
3,145,B,Raw,Bradley Lovejoy,M,USA,59,M4,125.9,,,,,,152.5,160,,,160,,,,,,160
1,145+,B,Raw,Yaşar Küçük,M,GER,43,M1,155.8,,,,,,190,-197.5,-197.5,,190,,,,,,190
1,55.5,B,Single-ply,Deborah Macdonald,F,GBR,45,M2,53.3,,,,,,50,-56,-56,,50,,,,,,50
1,63,B,Single-ply,Helen Wuyts,F,BEL,25,SR,61.8,,,,,,75,80,-82.5,,80,,,,,,80
1,60,B,Single-ply,Giampaolo Serra,M,ITA,69,M6,57.9,,,,,,90,100,106.5,-108,106.5,,,,,,106.5
2,60,B,Single-ply,Jean-Michel Moreiro,M,FRA,64,M5,59.3,,,,,,90,95,97.5,,97.5,,,,,,97.5
1,67.5,B,Single-ply,Alessio Santi,M,ITA,29,SR,65.6,,,,,,145,150,-155,,150,,,,,,150
2,67.5,B,Single-ply,Frédéric Saunois,M,FRA,52,M3,66.3,,,,,,142.5,-147.5,-147.5,,142.5,,,,,,142.5
3,67.5,B,Single-ply,Tim van den Abbeele,M,BEL,29,SR,65.7,,,,,,140,-150,-152.5,,140,,,,,,140
4,67.5,B,Single-ply,Darren Boland,M,BEL,42,M1,65.5,,,,,,125,-136,-136,,125,,,,,,125
1,75,B,Single-ply,Mathieu Coudriaud,M,FRA,30,SR,73.2,,,,,,155,165,-175,,165,,,,,,165
2,75,B,Single-ply,Pascal Costa,M,FRA,50,M3,74.4,,,,,,160,165,-170,,165,,,,,,165
3,75,B,Single-ply,Pascal Gourdin,M,FRA,55,M4,74,,,,,,125,130,-135,,130,,,,,,130
4,75,B,Single-ply,Liviu Porumbescu,M,MOL,16,T2,73.8,,,,,,-117.5,120,125,,125,,,,,,125
5,75,B,Single-ply,Patrick Tellier,M,FRA,61,M5,74.5,,,,,,102.5,110,115,,115,,,,,,115
1,82.5,B,Single-ply,Phillip Tempest,M,GBR,46,M2,79.2,,,,,,175,-180,-186,,175,,,,,,175
2,82.5,B,Single-ply,Alexei Grigorov,M,MOL,30,SR,80.8,,,,,,140,142.5,-160,,142.5,,,,,,142.5
3,82.5,B,Single-ply,Michel Sorenzo,M,FRA,59,M4,81.7,,,,,,135,142.5,-150,,142.5,,,,,,142.5
4,82.5,B,Single-ply,Stephen Rigley,M,IRE,40,M1,77.6,,,,,,135,140,-147.5,,140,,,,,,140
5,82.5,B,Single-ply,Patrick Phelippe,M,FRA,65,M6,81.2,,,,,,117.5,122.5,-125,,122.5,,,,,,122.5
6,82.5,B,Single-ply,Herve Kerwyn,M,BEL,73,M7,80.7,,,,,,-102.5,102.5,107.5,,107.5,,,,,,107.5
1,90,B,Single-ply,Gary Lovett,M,GBR,43,M1,87,,,,,,145,-160,160,,160,,,,,,160
2,90,B,Single-ply,Patrick Valfrey,M,FRA,52,M3,89.2,,,,,,150,160,-165,,160,,,,,,160
1,100,B,Single-ply,Mikhail Bugaev,M,RUS,54,M3,95.3,,,,,,180,-187.5,-190,,180,,,,,,180
2,100,B,Single-ply,Vladimir Li,M,RUS,65,M6,94.6,,,,,,-150.5,150.5,155,-160,155,,,,,,155
1,110,B,Single-ply,Neil Thomas,M,GBR,45,M2,109.7,,,,,,227.5,-235,-235,,227.5,,,,,,227.5
2,110,B,Single-ply,Bryan Lefranc,M,BEL,21,JR,107.4,,,,,,205,-215,-215,,205,,,,,,205
3,110,B,Single-ply,Michael Coleman,M,IRE,41,M1,107,,,,,,170,182.5,190,,190,,,,,,190
1,125,B,Single-ply,Francesco Pellizzoni,M,ITA,39,SR,123.4,,,,,,210,220,-230,,220,,,,,,220
2,125,B,Single-ply,Ouahem Boudjadja,M,FRA,45,M2,118.6,,,,,,190,210,213,-230,213,,,,,,213
3,125,B,Single-ply,Cyril Gosteli,M,SWI,51,M3,121.9,,,,,,195,-205,-215.5,,195,,,,,,195
4,125,B,Single-ply,Orson Harms,M,BEL,42,M1,116.4,,,,,,180,-185,-185,,180,,,,,,180
1,145,B,Single-ply,Maxim Tikhonov,M,RUS,49,M2,133.4,,,,,,-225,-232.5,232.5,,232.5,,,,,,232.5
2,145,B,Single-ply,Andre Du Plessis,M,IRE,52,M3,141.7,,,,,,-195,-195,195,,195,,,,,,195
3,145,B,Single-ply,Bradley Lovejoy,M,USA,59,M4,125.9,,,,,,-173,173,177.5,,177.5,,,,,,177.5
1,50.5,D,Raw,Shauna Madden,F,IRE,14,T1,49.8,,,,,,,,,,,87.5,-92.5,-92.5,,87.5,87.5
DQ,50.5,D,Raw,Frances Arthur,F,IRE,40,M1,48.4,,,,,,,,,,,-105,-105,-105,,,
1,53,D,Raw,Sue Bethell,F,GBR,57,M4,51.8,,,,,,,,,,,137.5,151,-155,,151,151
2,53,D,Raw,Shinann Buckley O'Sullivan,F,IRE,26,SR,52,,,,,,,,,,,105,107.5,-112.5,,107.5,107.5
3,53,D,Raw,Derina Kelliher,F,IRE,21,JR,52.4,,,,,,,,,,,-107.5,-107.5,107.5,,107.5,107.5
1,55.5,D,Raw,Sally Trueman,F,GBR,50,M3,54.2,,,,,,,,,,,120,125,130,136,130,130
2,55.5,D,Raw,Wendy Evans,F,GBR,49,M2,55,,,,,,,,,,,-120,120,127.5,,127.5,127.5
3,55.5,D,Raw,Deborah Macdonald,F,GBR,45,M2,53.3,,,,,,,,,,,117.5,125,-130,,125,125
4,55.5,D,Raw,Joanna Barwell,F,GBR,27,SR,54.3,,,,,,,,,,,125,-135,-135,,125,125
5,55.5,D,Raw,Alexandra Fritschy,F,SWI,30,SR,55.4,,,,,,,,,,,105,110,120,,120,120
6,55.5,D,Raw,Elizabeth Street,F,GBR,52,M3,55.2,,,,,,,,,,,100,105,-110,,105,105
7,55.5,D,Raw,Aileen Flynn,F,BEL,51,M3,53.9,,,,,,,,,,,100,-120,-130,,100,100
DQ,55.5,D,Raw,Melanie Aranda,F,IRE,28,SR,54.7,,,,,,,,,,,-105,-105,-105,,,
1,58.5,D,Raw,Maria McShane,F,IRE,29,SR,57.4,,,,,,,,,,,140,147.5,152.5,,152.5,152.5
2,58.5,D,Raw,Alice Gibbons,F,GBR,26,SR,57.7,,,,,,,,,,,142.5,150,-1525,,150,150
3,58.5,D,Raw,Geraldine Cronnelly,F,IRE,35,SR,57.9,,,,,,,,,,,110,115,117.5,,117.5,117.5
4,58.5,D,Raw,Orla O'Driscoll,F,IRE,30,SR,57.9,,,,,,,,,,,102.5,105,110,,110,110
5,58.5,D,Raw,Savanna Hughes,F,GBR,22,JR,55.8,,,,,,,,,,,105,-112.5,-112.5,,105,105
6,58.5,D,Raw,Morgan Thomas,F,GBR,15,T1,55.8,,,,,,,,,,,80,90,97.5,,97.5,97.5
1,63,D,Raw,Helen Wuyts,F,BEL,25,SR,61.1,,,,,,,,,,,160,171,-175,,171,171
2,63,D,Raw,Ann Thomas,F,GBR,38,SR,60.5,,,,,,,,,,,140,150,157.5,,157.5,157.5
3,63,D,Raw,Geina McGrath,F,IRE,26,SR,60.7,,,,,,,,,,,150,157.5,-162.5,,157.5,157.5
4,63,D,Raw,Danielle O'Sullivan,F,IRE,36,SR,62.3,,,,,,,,,,,145,-155,-155,,145,145
5,63,D,Raw,Simona Lapustea,F,ITA,40,M1,61.7,,,,,,,,,,,127.5,132.5,137.5,,137.5,137.5
6,63,D,Raw,Angelica Toia,F,ITA,23,JR,61.5,,,,,,,,,,,100,-110,-110,,100,100
7,63,D,Raw,Fiona Graham-Spicer,F,GBR,57,M4,61.9,,,,,,,,,,,80,90,95,,95,95
1,70,D,Raw,Rose Ryan,F,IRE,42,M1,68.8,,,,,,,,,,,160,170.5,175,-181,175,175
2,70,D,Raw,Edyta Piechowicz,F,IRE,31,SR,64.6,,,,,,,,,,,140,150,-155,,150,150
3,70,D,Raw,Sheridan Lucas,F,GBR,31,SR,66,,,,,,,,,,,150,-160,-160,,150,150
4,70,D,Raw,Sophie Estel,F,FRA,51,M3,69.1,,,,,,,,,,,150,-157.5,-160.5,,150,150
5,70,D,Raw,Aurore Compagnon,F,FRA,20,JR,66,,,,,,,,,,,125,132.5,140,,140,140
6,70,D,Raw,Sinead McCafferty,F,IRE,27,SR,66,,,,,,,,,,,-140,140,-152.5,,140,140
7,70,D,Raw,Elizabeth Dingley,F,GBR,56,M4,68.6,,,,,,,,,,,120,130,135,-138,135,135
8,70,D,Raw,Gibneykatrin Dreyer,F,IRE,56,M4,65.5,,,,,,,,,,,125,132.5,-137.5,,132.5,132.5
1,80,D,Raw,Siobhan Jacob,F,IRE,42,M1,77.6,,,,,,,,,,,140,150,-152.5,,150,150
2,80,D,Raw,Emma Wright,F,GBR,41,M1,79.3,,,,,,,,,,,130,-140,140,,140,140
3,80,D,Raw,Tatiana Filimonova,F,RUS,49,M2,74.7,,,,,,,,,,,110,120,127.5,,127.5,127.5
4,80,D,Raw,Birgit Kinkel,F,GER,53,M3,71.5,,,,,,,,,,,105,110,115,-118,115,115
5,80,D,Raw,Eleonora Toia,F,ITA,17,T2,73.8,,,,,,,,,,,90,100,110,,110,110
1,90,D,Raw,Paulina Coleman,F,IRE,39,SR,85.2,,,,,,,,,,,160,170,-185,,170,170
2,90,D,Raw,Kim Jones,F,GBR,28,SR,80.9,,,,,,,,,,,135,140,,,140,140
3,90,D,Raw,Catherine West,F,GBR,48,M2,87.6,,,,,,,,,,,115,125,-135,,125,125
1,90+,D,Raw,Ruth Gardner,F,GBR,42,M1,116.4,,,,,,,,,,,145,152.5,160.5,,160.5,160.5
2,90+,D,Raw,Froukje Koeckhoven,F,BEL,47,M2,90.9,,,,,,,,,,,125,130,135,,135,135
1,56,D,Raw,Charles Maheust,M,FRA,17,T2,53.6,,,,,,,,,,,150,-160,-160,,150,150
2,56,D,Raw,Domenico Catricala,M,ITA,80,M9,54.6,,,,,,,,,,,120,130,-140,,130,130
1,60,D,Raw,Antonio Garau,M,ITA,31,SR,60,,,,,,,,,,,-215,215,-217.5,,215,215
2,60,D,Raw,Ben Hampson,M,GBR,27,SR,59.7,,,,,,,,,,,185,-190,190,,190,190
3,60,D,Raw,Adrian Strechi,M,MOL,18,T3,60,,,,,,,,,,,170,-182.5,-188,,170,170
4,60,D,Raw,Michael Grünberg,M,GER,51,M3,58.2,,,,,,,,,,,135,145,-150,,145,145
5,60,D,Raw,Gareth Walsh,M,IRE,45,M2,59,,,,,,,,,,,145,-160,-160,,145,145
6,60,D,Raw,Richard Gould,M,GBR,57,M4,57.9,,,,,,,,,,,-120,125,132.5,135,132.5,132.5
1,67.5,D,Raw,David Watts,M,GBR,26,SR,66.5,,,,,,,,,,,232.5,242.5,250.5,252.5,250.5,250.5
2,67.5,D,Raw,Liam Dierckx,M,BEL,22,JR,66,,,,,,,,,,,192.5,200,-207.5,,200,200
3,67.5,D,Raw,Thomas Stanzel,M,GER,47,M2,66.9,,,,,,,,,,,160,190,195,,195,195
4,67.5,D,Raw,Darren Boland,M,BEL,42,M1,66,,,,,,,,,,,190,-205,-205,,190,190
5,67.5,D,Raw,Tim van den Abbeele,M,BEL,29,SR,66.3,,,,,,,,,,,180,190,-205,,190,190
6,67.5,D,Raw,Kenny Van Haverbeke,M,BEL,33,SR,67.3,,,,,,,,,,,165,175,185,,185,185
7,67.5,D,Raw,Thomas Quelet,M,FRA,17,T2,66.4,,,,,,,,,,,160,170,180,,180,180
8,67.5,D,Raw,Jordan Holland,M,IRE,16,T2,66.2,,,,,,,,,,,155,170,-182.5,,170,170
9,67.5,D,Raw,Michael De Paus,M,BEL,25,SR,66.2,,,,,,,,,,,165,167.5,-170,,167.5,167.5
10,67.5,D,Raw,Michael Cronnolly,M,IRE,14,T1,64.8,,,,,,,,,,,140,145,150,,150,150
DD,67.5,D,Raw,Leonid Balaban,M,MOL,25,SR,67.4,,,,,,,,,,,180,190,-197.5,,190,
1,75,D,Raw,Nathaniel Lucas,M,GBR,28,SR,73.8,,,,,,,,,,,230,-240,-242.5,,230,230
2,75,D,Raw,Sam Fowler,M,GBR,29,SR,74.2,,,,,,,,,,,215,-230,-230,,215,215
3,75,D,Raw,Liviu Porumbescu,M,MOL,16,T2,74.2,,,,,,,,,,,210,-222.5,-222.5,,210,210
4,75,D,Raw,Patrick Metayer,M,FRA,52,M3,74.7,,,,,,,,,,,190,202.5,-210,,202.5,202.5
5,75,D,Raw,Romain Gilles,M,FRA,20,JR,71.3,,,,,,,,,,,200,-210,-210,,200,200
6,75,D,Raw,Alexandre Welter,M,FRA,23,JR,74.9,,,,,,,,,,,200,-212.5,-212.5,,200,200
7,75,D,Raw,Marc Vincent,M,FRA,57,M4,72.1,,,,,,,,,,,180,195,-205,,195,195
8,75,D,Raw,Alenxandre Gossilin,M,FRA,22,JR,70.2,,,,,,,,,,,170,182.5,192.5,,192.5,192.5
9,75,D,Raw,Jan Walraevens,M,BEL,22,JR,73.6,,,,,,,,,,,-180,-180,180,,180,180
1,82.5,D,Raw,Mark Fulton,M,GBR,30,SR,81.8,,,,,,,,,,,240,250,257.5,,257.5,257.5
2,82.5,D,Raw,David Heath,M,GBR,37,SR,81,,,,,,,,,,,230,245,-255,,245,245
3,82.5,D,Raw,Romuald Huelin,M,FRA,28,SR,81.5,,,,,,,,,,,220,230,240,,240,240
4,82.5,D,Raw,Paul Cunningham,M,IRE,37,SR,79.3,,,,,,,,,,,225,-240,-240,,225,225
5,82.5,D,Raw,Benjamin Cannessant,M,FRA,29,SR,82,,,,,,,,,,,220,-235,-235,,220,220
6,82.5,D,Raw,Mathieu Planquois,M,FRA,23,JR,78.5,,,,,,,,,,,200,210,215,,215,215
7,82.5,D,Raw,Mark Pepper,M,IRE,31,SR,78.8,,,,,,,,,,,195,210,-220,,210,210
8,82.5,D,Raw,Gordon Leisker,M,GER,44,M1,79.6,,,,,,,,,,,185,195,200,,200,200
9,82.5,D,Raw,Stephen Charters,M,GBR,55,M4,79.9,,,,,,,,,,,-185,200,-220,,200,200
10,82.5,D,Raw,Bram Declercq,M,BEL,21,JR,80.5,,,,,,,,,,,185,200,-212.5,,200,200
11,82.5,D,Raw,Maxime Hellec-Marche,M,FRA,23,JR,81,,,,,,,,,,,190,200,-205,,200,200
12,82.5,D,Raw,Lorenzo Dore,M,ITA,51,M3,81.1,,,,,,,,,,,200,-210,-210,,200,200
13,82.5,D,Raw,Thomas Bold,M,GER,55,M4,81.2,,,,,,,,,,,170,190,200,,200,200
14,82.5,D,Raw,Régis Aubry,M,FRA,45,M2,81.9,,,,,,,,,,,200,-210,-215,,200,200
15,82.5,D,Raw,Jean-Claude Peter,M,FRA,66,M6,81,,,,,,,,,,,180,187.5,190.5,,190.5,190.5
16,82.5,D,Raw,José Fleury,M,SWI,58,M4,80.1,,,,,,,,,,,165,175,180,,180,180
17,82.5,D,Raw,Francis Spiteri,M,MAL,68,M6,81.9,,,,,,,,,,,160,175,-185,,175,175
18,82.5,D,Raw,Felix McAlinden,M,IRE,48,M2,81.7,,,,,,,,,,,-172.5,172.5,-180,,172.5,172.5
19,82.5,D,Raw,Daniel Bulai,M,MOL,16,T2,77.8,,,,,,,,,,,150,-157.5,-157.5,,150,150
20,82.5,D,Raw,Georgiy Lazaridi,M,RUS,83,M9,80.8,,,,,,,,,,,-130,130,140,,140,140
DQ,82.5,D,Raw,Nick Brughmans,M,BEL,24,SR,81,,,,,,,,,,,-192.5,-192.5,-192.5,,,
1,90,D,Raw,Mark Jackson,M,GBR,27,SR,88.4,,,,,,,,,,,270,285,-295,,285,285
2,90,D,Raw,Igor Fușcaliuc,M,MOL,30,SR,87.8,,,,,,,,,,,255,265,275,,275,275
3,90,D,Raw,Sean Smithson,M,GBR,40,M1,89.5,,,,,,,,,,,242.5,252.5,262.5,,262.5,262.5
4,90,D,Raw,Smimthartin Mcgrane,M,IRE,19,T3,86.3,,,,,,,,,,,230,240,250,,250,250
5,90,D,Raw,David Doran,M,IRE,28,SR,88.6,,,,,,,,,,,225,235,240,,240,240
6,90,D,Raw,Bertrand Saugy,M,SWI,28,SR,88,,,,,,,,,,,220,230,235,,235,235
7,90,D,Raw,Logue Connor,M,IRE,21,JR,83.9,,,,,,,,,,,220,230,-240,,230,230
8,90,D,Raw,Patrick Valfrey,M,FRA,52,M3,89.2,,,,,,,,,,,210,230,,,230,230
9,90,D,Raw,Matthias Ugolini,M,SWI,24,SR,88,,,,,,,,,,,205,-210,-210,,205,205
10,90,D,Raw,George Neilson,M,GBR,18,T3,85.6,,,,,,,,,,,200,-225,-225,,200,200
11,90,D,Raw,Vladimir Meleca,M,MOL,61,M5,88.8,,,,,,,,,,,180,190,-200,,190,190
12,90,D,Raw,Valentin Pons,M,FRA,17,T2,88.7,,,,,,,,,,,-185,185,-205,,185,185
13,90,D,Raw,Jason Haugh,M,IRE,17,T2,86.6,,,,,,,,,,,160,167.5,175,,175,175
DD,90,D,Raw,Cyrille Petain,M,FRA,44,M1,89.1,,,,,,,,,,,230,245,-260,,245,
1,100,D,Raw,Marc Vandewiele,M,BEL,42,M1,96.6,,,,,,,,,,,245,265,270,,270,270
2,100,D,Raw,Matthieu Lambert,M,FRA,39,SR,98.3,,,,,,,,,,,240,250,260,,260,260
3,100,D,Raw,Ryan Daly,M,IRE,21,JR,97.1,,,,,,,,,,,230,240,-255,,240,240
4,100,D,Raw,Julien Duflon,M,SWI,25,SR,92.5,,,,,,,,,,,-232.5,232.5,-240,,232.5,232.5
5,100,D,Raw,Serge Bustreel,M,FRA,71,M7,96.7,,,,,,,,,,,220,230,-235,,230,230
6,100,D,Raw,Kirill Emelianov,M,RUS,31,SR,92.5,,,,,,,,,,,217.5,-230,-230,,217.5,217.5
7,100,D,Raw,Paul Shields,M,IRE,31,SR,93.6,,,,,,,,,,,217.5,-227.5,-227.5,,217.5,217.5
8,100,D,Raw,John Michoud,M,SWI,48,M2,97.3,,,,,,,,,,,197.5,202.5,207.5,,207.5,207.5
9,100,D,Raw,Maximilian Kranz,M,GER,20,JR,92.8,,,,,,,,,,,195,200,-205,,200,200
10,100,D,Raw,Roger Piron,M,GER,56,M4,95.2,,,,,,,,,,,180,,,,180,180
1,110,D,Raw,Bogdan Vaipan,M,ROM,33,SR,109.1,,,,,,,,,,,321,330,340,,340,340
2,110,D,Raw,Declan Counihan,M,IRE,53,M3,103.5,,,,,,,,,,,245,265,275,-285,275,275
3,110,D,Raw,Anatolii Crucerescu,M,MOL,26,SR,107.7,,,,,,,,,,,245,255,-260,,255,255
4,110,D,Raw,Philip Salter,M,GBR,28,SR,109.2,,,,,,,,,,,250,-265,-265,,250,250
5,110,D,Raw,Joshua Lancaster,M,GBR,26,SR,107.3,,,,,,,,,,,225,247.5,-255,,247.5,247.5
6,110,D,Raw,Colin Kennard,M,IRE,45,M2,106.7,,,,,,,,,,,205,215,220,,220,220
7,110,D,Raw,John West,M,IRE,75,M8,108.2,,,,,,,,,,,190,210,,,210,210
8,110,D,Raw,John Gavin Walker,M,GBR,77,M8,100.8,,,,,,,,,,,170,180,190,,190,190
1,125,D,Raw,Dumitru Sacaliuc,M,MOL,29,SR,120.6,,,,,,,,,,,300,312.5,317.5,,317.5,317.5
2,125,D,Raw,Roman Scorici,M,MOL,33,SR,115.3,,,,,,,,,,,310,-315,-315,,310,310
3,125,D,Raw,Jerome Boitelle,M,GER,39,SR,123.5,,,,,,,,,,,280,300,305,,305,305
4,125,D,Raw,Dylan Callus,M,MAL,21,JR,110.2,,,,,,,,,,,285,300,-315,,300,300
5,125,D,Raw,Alessandro Binfarè,M,ITA,28,SR,112.9,,,,,,,,,,,260,280,300,,300,300
6,125,D,Raw,Kevin Colgan,M,IRE,23,JR,117.7,,,,,,,,,,,245,255,260,,260,260
7,125,D,Raw,James Collins,M,IRE,47,M2,113.3,,,,,,,,,,,-210,210,-215,,210,210
1,145,D,Raw,Patrick Ruch,M,FRA,54,M3,130.7,,,,,,,,,,,252.5,265,-275,,265,265
2,145,D,Raw,Heiner Hansen,M,GER,55,M4,135.2,,,,,,,,,,,-225,250,-260,,250,250
3,145,D,Raw,Morgan Evans,M,GBR,17,T2,130.6,,,,,,,,,,,190,200,205,-210,205,205
1,145+,D,Raw,Serghei Bîrsanu,M,MOL,40,M1,145.5,,,,,,,,,,,-282.5,-282.5,290,-315,290,290
2,145+,D,Raw,Yaşar Küçük,M,GER,43,M1,157.2,,,,,,,,,,,260,280,-283,,280,280
1,55.5,D,Single-ply,Deborah Macdonald,F,GBR,45,M2,53.3,,,,,,,,,,,125,130,136,-140,136,136
1,58.5,D,Single-ply,Morgan Thomas,F,GBR,15,T1,55.8,,,,,,,,,,,85,95,100,-105,100,100
1,63,D,Single-ply,Helen Wuyts,F,BEL,25,SR,61.1,,,,,,,,,,,175,185,,,185,185
2,63,D,Single-ply,Ann Thomas,F,GBR,38,SR,60.5,,,,,,,,,,,140,150,-162.5,,150,150
1,60,D,Single-ply,Antonio Garau,M,ITA,31,SR,60,,,,,,,,,,,218,220,222.5,-225,222.5,222.5
2,60,D,Single-ply,Barry Smith,M,IRE,30,SR,58.7,,,,,,,,,,,190,-210,-220.5,,190,190
1,67.5,D,Single-ply,Darren Boland,M,BEL,42,M1,66,,,,,,,,,,,190,200,-210,,200,200
2,67.5,D,Single-ply,Tim van den Abbeele,M,BEL,29,SR,66.3,,,,,,,,,,,185,195,-200,,195,195
3,67.5,D,Single-ply,Vincenzo Tidona,M,FRA,86,M10,60.3,,,,,,,,,,,125,132.5,,,132.5,132.5
1,82.5,D,Single-ply,Gerry Cronnolly,M,IRE,46,M2,79.9,,,,,,,,,,,227.5,242.5,252.5,,252.5,252.5
2,82.5,D,Single-ply,Michael Phillips,M,GBR,62,M5,80.6,,,,,,,,,,,200,-210,,,200,200
3,82.5,D,Single-ply,Alexei Grigorov,M,MOL,30,SR,82.2,,,,,,,,,,,202.5,-212.5,-212.5,,202.5,202.5
1,90,D,Single-ply,Glenn Branch,M,GBR,34,SR,87.3,,,,,,,,,,,270,285,295,,295,295
2,90,D,Single-ply,Beny Verbeke,M,BEL,51,M3,89.1,,,,,,,,,,,280,-295.5,-295.5,,280,280
3,90,D,Single-ply,Massimo Carpo,M,ITA,39,SR,86.6,,,,,,,,,,,260,-270,-285,,260,260
4,90,D,Single-ply,Patrick Valfrey,M,FRA,52,M3,89.2,,,,,,,,,,,210,222.5,232.5,,232.5,232.5
1,100,D,Single-ply,Gianni Vermote,M,BEL,44,M1,100,,,,,,,,,,,220,235,-250,,235,235
2,100,D,Single-ply,Roger Piron,M,GER,56,M4,95.2,,,,,,,,,,,190,200,-207.5,,200,200
1,110,D,Single-ply,Lexander Geitner,M,GER,39,SR,107.7,,,,,,,,,,,280,300,-322.5,,300,300
2,110,D,Single-ply,Bryan Lefranc,M,BEL,21,JR,107.8,,,,,,,,,,,280,-290,-290,,280,280
3,110,D,Single-ply,Chris Pilling,M,GBR,53,M3,108.1,,,,,,,,,,,217.5,237.5,245,,245,245
1,125,D,Single-ply,Francesco Pellizzoni,M,ITA,39,SR,123.4,,,,,,,,,,,290,302.5,307.5,,307.5,307.5
2,125,D,Single-ply,Loren Schäfer,M,GER,23,JR,115.4,,,,,,,,,,,-280,280,-290,,280,280
3,125,D,Single-ply,Karlheinz Winkler,M,GER,52,M3,123,,,,,,,,,,,-210,210,220,,220,220
1,145,D,Single-ply,Andre Du Plessis,M,IRE,52,M3,142.2,,,,,,,,,,,270,290,-293,,290,290
2,145,D,Single-ply,Joel Evangelista,M,IRE,23,JR,127.5,,,,,,,,,,,230,255,275,-280,275,275
