Place,Name,BirthYear,WeightClassKg,BodyweightKg,Country,Bench1Kg,Bench2Kg,Bench3Kg,Bench4Kg,Best3BenchKg,TotalKg,Sex,Event,Equipment,Division
1,Eva Svjanteková,1973,44,43.9,SVK,-82.5,82.5,85,,85,85,F,B,Single-ply,Open
2,Marion Friedrich,1965,44,43.7,GER,77.5,80,82.5,,82.5,82.5,F,B,Single-ply,Open
3,Olga Golobeva,1970,44,43.9,RUS,70,-75,75,,75,75,F,B,Single-ply,Open
4,Margit Wanko,1973,44,42.9,AUT,62.5,-67.5,-67.5,,62.5,62.5,F,B,Single-ply,Open
DQ,Justyna Kozdryk,1980,44,43,POL,-80,-80,-80,,,,F,B,Single-ply,Open
1,Dori Illeditsch-W,1962,48,47.7,GER,80,82.5,-87.5,,82.5,82.5,F,B,Single-ply,Open
2,Hana Svahn,1963,48,47.9,DEN,82.5,-85,-87.5,,82.5,82.5,F,B,Single-ply,Open
3,Virva-Tuul Arpala,1969,48,47.9,FIN,80,-82.5,-82.5,,80,80,F,B,Single-ply,Open
4,Eva Orenicová,1951,48,47.9,SVK,70,75,-77.5,,75,75,F,B,Single-ply,Open
5,Lena Sellander,1972,48,47.7,SWE,67.5,-75,-80,,67.5,67.5,F,B,Single-ply,Open
1,Irina Krylova,1978,52,50.7,RUS,100,105,112.5,,112.5,112.5,F,B,Single-ply,Open
2,Marion Braun,1970,52,51.55,AUT,95,-100,100,,100,100,F,B,Single-ply,Open
3,Mervi Sirkiä,1972,52,51.8,FIN,90,-92.5,-97.5,,90,90,F,B,Single-ply,Open
4,Lina Laine,1966,52,51.3,FIN,85,-87.5,-90,,85,85,F,B,Single-ply,Open
5,Monika Engelwirth,1972,52,49.8,AUT,62.5,67.5,70,,70,70,F,B,Single-ply,Open
DD,Anikó Simon,1961,52,51,HUN,65,70,75,,75,,F,B,Single-ply,Open
1,Tamara Althaus,1978,56,55,GER,120,130,135,,135,135,F,B,Single-ply,Open
2,Irina Semakhina,1975,56,55.4,RUS,115,120,122.5,,122.5,122.5,F,B,Single-ply,Open
3,Jadwiga Radwanska,1975,56,55.5,POL,85,-95,95,,95,95,F,B,Single-ply,Open
4,Mariya Chepil,1970,56,55.3,UKR,92.5,-97.5,-97.5,,92.5,92.5,F,B,Single-ply,Open
5,Lucie Glogarová,1976,56,55.3,CZE,72.5,-77.5,77.5,,77.5,77.5,F,B,Single-ply,Open
6,Colette Pendry,1968,56,55.5,GBR,72.5,77.5,-82.5,,77.5,77.5,F,B,Single-ply,Open
7,Dana Moosová,1983,56,55.3,CZE,67.5,72.5,-77.5,,72.5,72.5,F,B,Single-ply,Open
1,Julia Zhylskaya,1978,60,59.8,BLR,115,120,125,,125,125,F,B,Single-ply,Open
2,Natalia Busarova,1982,60,59.4,RUS,97.5,102.5,107.5,,107.5,107.5,F,B,Single-ply,Open
3,Lydie Brunet,1968,60,59.6,FRA,-97.5,102.5,-110,,102.5,102.5,F,B,Single-ply,Open
4,Rita Szekelyne,1975,60,58.3,HUN,92.5,97.5,-102.5,,97.5,97.5,F,B,Single-ply,Open
5,Birgi Hammarström,1964,60,58.7,SWE,87.5,95,-102.5,,95,95,F,B,Single-ply,Open
6,Andrea Krampf,1959,60,56.2,AUT,90,92.5,-95,,92.5,92.5,F,B,Single-ply,Open
7,Ute Villwock,1967,60,58.55,GER,92.5,-97.5,-102.5,,92.5,92.5,F,B,Single-ply,Open
8,Ela Gasiennica,1982,60,59.5,POL,90,-97.5,-97.5,,90,90,F,B,Single-ply,Open
9,Jana Došlíková,1968,60,58.9,CZE,82.5,87.5,-90,,87.5,87.5,F,B,Single-ply,Open
10,Mariann Óvári,1973,60,58.1,HUN,75,82.5,-87.5,,82.5,82.5,F,B,Single-ply,Open
11,Sandra Schmidt,1980,60,59.6,GER,-72.5,75,80,,80,80,F,B,Single-ply,Open
1,Tatian Danilevich,1972,67.5,66.4,RUS,130,137.5,140,,140,140,F,B,Single-ply,Open
2,Hele Göransdotter,1972,67.5,65.7,SWE,102.5,107.5,112.5,,112.5,112.5,F,B,Single-ply,Open
3,Edyta Bosak,1974,67.5,66.55,POL,-100,-100,100,,100,100,F,B,Single-ply,Open
4,Iris Kunkel,1964,67.5,63.9,GER,95,97.5,-100,,97.5,97.5,F,B,Single-ply,Open
5,Micha Laznickova,1981,67.5,61.2,CZE,80,87.5,90,,90,90,F,B,Single-ply,Open
6,Aly Keizer,1951,67.5,61.8,NED,80,-85,85,,85,85,F,B,Single-ply,Open
7,Marie Míšková,1973,67.5,66.5,CZE,70,80,82.5,,82.5,82.5,F,B,Single-ply,Open
1,Petra Stehlíková,1966,75,68.1,CZE,117.5,-125,125,,125,125,F,B,Single-ply,Open
2,Hana Takáčová,1954,75,74.1,CZE,112.5,117.5,-120,,117.5,117.5,F,B,Single-ply,Open
3,Monika Biernacka,1975,75,67.7,POL,110,115,-120,,115,115,F,B,Single-ply,Open
4,Nikoletta Nánási,1982,75,73.9,HUN,110,-115,-117.5,,110,110,F,B,Single-ply,Open
5,Birgit Witt,1963,75,74.5,GER,105,-110,-117.5,,105,105,F,B,Single-ply,Open
6,Dorota Szczepanik,1969,75,73.8,POL,100,-105,-105,,100,100,F,B,Single-ply,Open
7,Pia Rajala,1973,75,68.6,FIN,92.5,-97.5,97.5,,97.5,97.5,F,B,Single-ply,Open
8,Mariet Spronk,1955,75,72.6,NED,90,95,-97.5,,95,95,F,B,Single-ply,Open
9,Joke van der Meulen,1951,75,68.6,NED,80,85,-87.5,,85,85,F,B,Single-ply,Open
10,Wendy Chamberlain,1972,75,69.5,GBR,75,80,-85,,80,80,F,B,Single-ply,Open
DQ,Franzisk Schümann,1982,75,70.7,GER,-92.5,-92.5,-95,,,,F,B,Single-ply,Open
1,Elena Yurik,1977,82.5,79.7,RUS,137.5,142.5,145,,145,145,F,B,Single-ply,Open
2,Leila Duhem,1963,82.5,82.1,FRA,125,132.5,135,,135,135,F,B,Single-ply,Open
3,Ielja Strik,1973,82.5,80.55,NED,127.5,-132.5,132.5,,132.5,132.5,F,B,Single-ply,Open
4,Natalia Polischuk,1978,82.5,81.4,UKR,127.5,-132.5,-132.5,,127.5,127.5,F,B,Single-ply,Open
5,Rosemarie Beer,1945,82.5,80.1,AUT,-105,105,110,,110,110,F,B,Single-ply,Open
1,Irina Naskripnyak,1969,90,89.55,RUS,140,147.5,150,,150,150,F,B,Single-ply,Open
2,Inna Orobets,1971,90,87.7,UKR,120,125,-135,,125,125,F,B,Single-ply,Open
3,Anna Śliwińska,1982,90,82.55,POL,110,117.5,-120,,117.5,117.5,F,B,Single-ply,Open
4,Katerin Kardosova,1975,90,89.3,SVK,110,115,117.5,,117.5,117.5,F,B,Single-ply,Open
5,Brenda van der Meulen,1978,90,89.8,NED,115,-120,-120,,115,115,F,B,Single-ply,Open
6,Izabela Krejner,1978,90,87.1,POL,95,102.5,107.5,,107.5,107.5,F,B,Single-ply,Open
7,Kerstin Wahl,1962,90,83,GER,95,100,-105,,100,100,F,B,Single-ply,Open
1,Ganna Ganenko,1975,90+,101.4,UKR,140,145,155,,155,155,F,B,Single-ply,Open
2,Larysa Piatrova,1967,90+,103.5,BLR,137.5,145,-153,,145,145,F,B,Single-ply,Open
3,Elena Avilkina,1977,90+,104.3,RUS,125,130,142.5,,142.5,142.5,F,B,Single-ply,Open
4,Svetlana Paltseva,1969,90+,90.4,RUS,135,-140,140,,140,140,F,B,Single-ply,Open
5,Joanne Schaefer,1967,90+,101.3,NED,-125,132.5,137.5,,137.5,137.5,F,B,Single-ply,Open
6,Susanne Formgren,1962,90+,97.9,SWE,122.5,130,132.5,,132.5,132.5,F,B,Single-ply,Open
7,Catherin PhanDinh,1966,90+,95.5,FRA,120,125,-130,,125,125,F,B,Single-ply,Open
DQ,Sari Saksa,1975,90+,115.7,FIN,-130,-130,-130,,,,F,B,Single-ply,Open
1,Andrzej Stanszek,1971,52,51.7,POL,160,165,-170,,165,165,M,B,Single-ply,Open
2,Andris Rüdulis,1977,52,51.6,LAT,155,162.5,-167.5,,162.5,162.5,M,B,Single-ply,Open
3,Christian Klein,1970,52,51.5,GER,125,-130,132.5,,132.5,132.5,M,B,Single-ply,Open
4,Jozsef Szegfü,1983,52,51.9,HUN,105,110,-115,,110,110,M,B,Single-ply,Open
1,Fanil Mukhamatyanov,1972,56,55.9,RUS,155,162.5,170.5,172.5,170.5,170.5,M,B,Single-ply,Open
2,Sandor Jancsar,1967,56,55.4,HUN,145,-152.5,152.5,,152.5,152.5,M,B,Single-ply,Open
3,Raimo Kaattari,1970,56,54.8,FIN,150,-155,-155,,150,150,M,B,Single-ply,Open
4,Sergiy Vatyuk,1962,56,55.8,UKR,142.5,147.5,-152.5,,147.5,147.5,M,B,Single-ply,Open
DQ,Tomasz Kocibinski,1981,56,55.9,POL,-147.5,-152.5,-155,,,,M,B,Single-ply,Open
1,Tagy Parnian,1968,60,59.4,NED,175,180,185,191,185,185,M,B,Single-ply,Open
2,Ayrat Zakiev,1981,60,59.6,RUS,165,170,-182.5,,170,170,M,B,Single-ply,Open
3,Miroslaw Hermann,1978,60,59.7,POL,165,-170,-177.5,,165,165,M,B,Single-ply,Open
4,Joachim Lietzau,1950,60,59.8,GER,105,112.5,-120,,112.5,112.5,M,B,Single-ply,Open
1,Alphonse Cucuzzella,1966,67.5,66.6,FRA,180,187.5,190,193,190,190,M,B,Single-ply,Open
2,Oleksa Chernyshov,1966,67.5,67.2,UKR,180,185,-192.5,,185,185,M,B,Single-ply,Open
3,Niklas Jönsson,1979,67.5,67.2,SWE,-180,180,-190,,180,180,M,B,Single-ply,Open
4,Roman Zuzuk,1971,67.5,67.1,UKR,175,-180,-180,,175,175,M,B,Single-ply,Open
5,Amit Selberg,1976,67.5,67.2,SWE,160,170,-177.5,,170,170,M,B,Single-ply,Open
6,Marek Siedlecki,1957,67.5,67.2,POL,167.5,-172.5,-172.5,,167.5,167.5,M,B,Single-ply,Open
7,Erkki Rajala,1962,67.5,66.4,FIN,160,165,-170,,165,165,M,B,Single-ply,Open
8,Klaus Landeck,1963,67.5,65.9,GER,150,157.5,-162.5,,157.5,157.5,M,B,Single-ply,Open
9,Richard Lettner,1974,67.5,67.4,AUT,147.5,152.5,155,,155,155,M,B,Single-ply,Open
10,Vladimír Nebola,1970,67.5,67.3,CZE,145,-155,-155,,145,145,M,B,Single-ply,Open
1,Romero Fermin,1966,75,74.55,ESP,-202.5,202.5,207.5,,207.5,207.5,M,B,Single-ply,Open
2,Volodym Narolskyy,1977,75,74.6,UKR,185,195,200,,200,200,M,B,Single-ply,Open
3,István Juhász,1976,75,74.2,HUN,190,197.5,-202.5,,197.5,197.5,M,B,Single-ply,Open
4,Andreas Zeilinger,1968,75,74.4,AUT,-195,195,-197.5,,195,195,M,B,Single-ply,Open
5,Sycabolcz Könye,1974,75,74.4,HUN,190,-197.5,-197.5,,190,190,M,B,Single-ply,Open
6,Ihor Lysovets,1972,75,74.5,UKR,170,180,-182.5,,180,180,M,B,Single-ply,Open
7,Erik Rasmussen,1962,75,74.9,DEN,172.5,177.5,-182.5,,177.5,177.5,M,B,Single-ply,Open
8,Gerhard Vallazza,1970,75,72.9,AUT,162.5,167.5,170,,170,170,M,B,Single-ply,Open
9,Kamil Večeřa,1975,75,73.4,CZE,160,-170,170,,170,170,M,B,Single-ply,Open
DQ,Lukasz Gasiennica,1979,75,73.7,POL,-197.5,-197.5,-197.5,,,,M,B,Single-ply,Open
DQ,Lubomir Dimov,1975,75,74,BUL,,,-205.0,,,,M,B,Single-ply,Open
1,Alexey Vorobyev,1969,82.5,82.2,RUS,-240,250,-262.5,,250,250,M,B,Single-ply,Open
2,Tibor Kustán,1970,82.5,81.2,HUN,212.5,222.5,-227.5,,222.5,222.5,M,B,Single-ply,Open
3,Gennadjs Zubriks,1965,82.5,81.9,LAT,-222.5,222.5,,,222.5,222.5,M,B,Single-ply,Open
4,Jan Wegiera,1965,82.5,82.3,POL,217.5,222.5,-227.5,,222.5,222.5,M,B,Single-ply,Open
5,Gerhard Grossbeck,1976,82.5,80.4,AUT,180,190,195,,195,195,M,B,Single-ply,Open
6,Vladimir Urban,1973,82.5,82.1,SVK,180,190,-197.5,,190,190,M,B,Single-ply,Open
7,Paul Smit,1956,82.5,78.8,NED,185,-190,-190,,185,185,M,B,Single-ply,Open
8,Joe Bullock,1971,82.5,81.7,GBR,160,-165,165,,165,165,M,B,Single-ply,Open
DQ,Leoni Plotnytskyy,1973,82.5,81.7,UKR,-217.5,-217.5,-217.5,,,,M,B,Single-ply,Open
1,László Kupcsik,1967,90,88.4,HUN,237.5,240,250.5,,250.5,250.5,M,B,Single-ply,Open
2,Wieslaw Grabski,1977,90,89.3,POL,230,235,237.5,,237.5,237.5,M,B,Single-ply,Open
3,Alexey Ryzhov,1976,90,87.9,RUS,232.5,-237.5,-240,,232.5,232.5,M,B,Single-ply,Open
4,Alexander Lekomtsev,1965,90,86.6,RUS,222.5,230,-235,,230,230,M,B,Single-ply,Open
5,Petr Theuser,1961,90,89.8,CZE,210,220,225,,225,225,M,B,Single-ply,Open
6,Fredrik Nordin,1981,90,90,SWE,225,-235,-235,,225,225,M,B,Single-ply,Open
7,Maksim Yalovik,1978,90,88.8,BLR,220,-230,-232.5,,220,220,M,B,Single-ply,Open
8,Miroslav Hubáček,1967,90,88.2,CZE,-210,-215,215,,215,215,M,B,Single-ply,Open
9,Kimmo Pakarinen,1963,90,89.5,FIN,-210,215,-222.5,,215,215,M,B,Single-ply,Open
10,Claude Brück,1965,90,86.7,LUX,-210,210,-232.5,,210,210,M,B,Single-ply,Open
11,Helmut Körtge,1964,90,88.5,GER,207.5,-212.5,-215,,207.5,207.5,M,B,Single-ply,Open
12,Karri Penttil,1975,90,89.4,FIN,195,-200,205,,205,205,M,B,Single-ply,Open
DQ,Martin Green,1974,90,89.6,GBR,-195,-195,-200,,,,M,B,Single-ply,Open
1,Vital Ponomarenko,1974,100,99.9,UKR,250,255,-265.5,,255,255,M,B,Single-ply,Open
2,Evguen Matasov,1971,100,95.7,RUS,-250,250,-255,,250,250,M,B,Single-ply,Open
3,Tomi Turpeinen,1974,100,99.4,FIN,-220,220,240,,240,240,M,B,Single-ply,Open
4,Isvan Hegedüs,1967,100,98.8,HUN,230,235,237.5,,237.5,237.5,M,B,Single-ply,Open
5,Hans Dahlström,1966,100,99.1,SWE,225,-235,237.5,,237.5,237.5,M,B,Single-ply,Open
6,Ladislav Marek,1978,100,99.1,CZE,220,227.5,237.5,,237.5,237.5,M,B,Single-ply,Open
7,Sergiy Polutin,1975,100,95.6,UKR,222.5,230,235,,235,235,M,B,Single-ply,Open
8,Richard Kobr,1969,100,97.4,CZE,-235,235,-240,,235,235,M,B,Single-ply,Open
9,Sven Raskin,1965,100,98.1,GER,225,232.5,-240,,232.5,232.5,M,B,Single-ply,Open
10,Jarmo Sohlman,1969,100,98.5,FIN,215,225,-237.5,,225,225,M,B,Single-ply,Open
11,Sven Schäfer,1970,100,98.9,GER,210,220,-222.5,,220,220,M,B,Single-ply,Open
DQ,Tomasz Kuc,1973,100,94.4,POL,-230,-230,-230,,,,M,B,Single-ply,Open
DQ,Richard Lewis,1976,100,98,GBR,-220,-220,-220,,,,M,B,Single-ply,Open
1,László Mészáros,1968,110,109.3,HUN,280,285,,,285,285,M,B,Single-ply,Open
2,Wieslaw Kruk,1958,110,106.7,POL,-265,265,-285,,265,265,M,B,Single-ply,Open
3,Vladimir Bardiyan,1972,110,108.8,BLR,257.5,265,,,265,265,M,B,Single-ply,Open
4,Alexey Samsonov,1974,110,109,RUS,245,252.5,257.5,,257.5,257.5,M,B,Single-ply,Open
5,Yuriy Khuazev,1970,110,105.9,RUS,247.5,-252.5,255,,255,255,M,B,Single-ply,Open
6,Uģis Vacietis,1967,110,108.3,LAT,230,240,245,,245,245,M,B,Single-ply,Open
7,Zbyněk Krejča,1970,110,108.6,CZE,215,225,-230,,225,225,M,B,Single-ply,Open
8,Tomáš Šárik,1975,110,107.9,CZE,220,-230,-230,,220,220,M,B,Single-ply,Open
9,Achim Kircher,1967,110,108.9,GER,-220,220,-230,,220,220,M,B,Single-ply,Open
10,Pål Guddal,1971,110,109.9,NOR,215,-225,-227.5,,215,215,M,B,Single-ply,Open
11,Emanual Scheiber,1972,110,101.9,AUT,-192.5,192.5,-200,,192.5,192.5,M,B,Single-ply,Open
DQ,Tommy Neselius,1965,110,107.9,SWE,-230,-240,-250,,,,M,B,Single-ply,Open
DQ,Marcus Hoen,1966,110,109.7,GER,-225,-225,-232.5,,,,M,B,Single-ply,Open
1,Eduard Isakov,1973,125,124.5,RUS,-292.5,292.5,,,292.5,292.5,M,B,Single-ply,Open
2,Oleg Gusev,1955,125,120.1,BLR,-260,260,265,,265,265,M,B,Single-ply,Open
3,Béla Kathi,1979,125,122.6,HUN,255,262.5,-267.5,,262.5,262.5,M,B,Single-ply,Open
4,Ove Lehto,1972,125,122.8,FIN,-250,250,262.5,,262.5,262.5,M,B,Single-ply,Open
5,John Battye,1964,125,116.5,GBR,-250,250,260,,260,260,M,B,Single-ply,Open
6,Vadimir Sapatov,1974,125,123.5,RUS,245,-252.5,252.5,,252.5,252.5,M,B,Single-ply,Open
7,Jiří Havrda,1974,125,122.6,CZE,235,242.5,250,,250,250,M,B,Single-ply,Open
8,Frencel Kastaneer,1971,125,110.5,NED,247.5,-255,-255,,247.5,247.5,M,B,Single-ply,Open
9,Antonín Šota,1952,125,122.1,CZE,210,220,-230,,220,220,M,B,Single-ply,Open
1,Jan Lundberg,1968,125+,137.5,SWE,260,270,280,,280,280,M,B,Single-ply,Open
2,Niels Stærkjær,1966,125+,160,DEN,-270,272.5,-285,,272.5,272.5,M,B,Single-ply,Open
3,Norbert Keszek,1973,125+,136.7,HUN,257.5,265,-275,,265,265,M,B,Single-ply,Open
4,Zdeněk Sedmík,1974,125+,140.7,CZE,250,262.5,-272.5,,262.5,262.5,M,B,Single-ply,Open
5,Kenneth Sandvik,1975,125+,134.8,FIN,250,257.5,-265,,257.5,257.5,M,B,Single-ply,Open
6,Andrew Thompson,1976,125+,139.8,GBR,-230,230,-240,,230,230,M,B,Single-ply,Open
7,James Blanchflower,1966,125+,155,GBR,220,-227.5,-227.5,,220,220,M,B,Single-ply,Open
DQ,András Ortner,1960,125+,143.2,HUN,-247.5,-247.5,,,,,M,B,Single-ply,Open
